{
  "v": "5.4.4",
  "fr": 24,
  "ip": 0,
  "op": 28,
  "w": 50,
  "h": 50,
  "nm": "shipped",
  "ddd": 0,
  "assets": [],
  "layers": [
    {
      "ddd": 0,
      "ind": 1,
      "ty": 4,
      "nm": "Check",
      "sr": 1,
      "ks": {
        "o": { "a": 0, "k": 100, "ix": 11 },
        "r": { "a": 0, "k": 0, "ix": 10 },
        "p": { "a": 0, "k": [25, 25, 0], "ix": 2 },
        "a": { "a": 0, "k": [25, 25, 0], "ix": 1 },
        "s": { "a": 0, "k": [100, 100, 100], "ix": 6 }
      },
      "ao": 0,
      "shapes": [
        {
          "ty": "gr",
          "it": [
            {
              "ind": 0,
              "ty": "sh",
              "ix": 1,
              "ks": {
                "a": 0,
                "k": {
                  "i": [
                    [0, 0],
                    [0, 0],
                    [0, 0],
                    [0, 0]
                  ],
                  "o": [
                    [0, 0],
                    [0, 0],
                    [0, 0],
                    [0, 0]
                  ],
                  "v": [
                    [-12.875, -6.3],
                    [12.875, -6.3],
                    [1.325, 6.3],
                    [-4.623, 1.038]
                  ],
                  "c": false
                },
                "ix": 2
              },
              "nm": "Path 1",
              "mn": "ADBE Vector Shape - Group",
              "hd": false
            },
            {
              "ty": "st",
              "c": { "a": 0, "k": [0, 0, 0, 1], "ix": 3 },
              "o": { "a": 0, "k": 100, "ix": 4 },
              "w": { "a": 0, "k": 2, "ix": 5 },
              "lc": 1,
              "lj": 2,
              "bm": 0,
              "nm": "Stroke 1",
              "mn": "ADBE Vector Graphic - Stroke",
              "hd": false
            },
            {
              "ty": "tr",
              "p": { "a": 0, "k": [12.875, 19.3], "ix": 2 },
              "a": { "a": 0, "k": [0, 0], "ix": 1 },
              "s": { "a": 0, "k": [100, 100], "ix": 3 },
              "r": { "a": 0, "k": 0, "ix": 6 },
              "o": { "a": 0, "k": 100, "ix": 7 },
              "sk": { "a": 0, "k": 0, "ix": 4 },
              "sa": { "a": 0, "k": 0, "ix": 5 },
              "nm": "Transform"
            }
          ],
          "nm": "Group 10",
          "np": 2,
          "cix": 2,
          "bm": 0,
          "ix": 1,
          "mn": "ADBE Vector Group",
          "hd": false
        },
        {
          "ty": "tm",
          "s": {
            "a": 1,
            "k": [
              { "i": { "x": [0.833], "y": [0.833] }, "o": { "x": [0.167], "y": [0.167] }, "t": 5, "s": [0], "e": [60] },
              { "i": { "x": [0.833], "y": [0.833] }, "o": { "x": [0.167], "y": [0.167] }, "t": 10, "s": [60], "e": [56] },
              { "i": { "x": [0.833], "y": [0.833] }, "o": { "x": [0.167], "y": [0.167] }, "t": 11, "s": [56], "e": [56] },
              { "i": { "x": [0.833], "y": [0.833] }, "o": { "x": [0.167], "y": [0.167] }, "t": 17, "s": [56], "e": [60] },
              { "i": { "x": [0.833], "y": [0.833] }, "o": { "x": [0.167], "y": [0.167] }, "t": 18, "s": [60], "e": [0] },
              { "t": 23 }
            ],
            "ix": 1
          },
          "e": {
            "a": 1,
            "k": [
              { "i": { "x": [0.833], "y": [0.833] }, "o": { "x": [0.167], "y": [0.167] }, "t": 3, "s": [35.5], "e": [30] },
              { "i": { "x": [0.833], "y": [0.833] }, "o": { "x": [0.167], "y": [0.167] }, "t": 4, "s": [30], "e": [100] },
              { "i": { "x": [0.833], "y": [0.833] }, "o": { "x": [0.167], "y": [0.167] }, "t": 8, "s": [100], "e": [100] },
              { "i": { "x": [0.833], "y": [0.833] }, "o": { "x": [0.167], "y": [0.167] }, "t": 20, "s": [100], "e": [30] },
              { "i": { "x": [0.833], "y": [0.833] }, "o": { "x": [0.167], "y": [0.167] }, "t": 24, "s": [30], "e": [35.5] },
              { "t": 25 }
            ],
            "ix": 2
          },
          "o": { "a": 0, "k": 0, "ix": 3 },
          "m": 1,
          "ix": 2,
          "nm": "Trim Paths 1",
          "mn": "ADBE Vector Filter - Trim",
          "hd": false
        }
      ],
      "ip": 0,
      "op": 28,
      "st": 0,
      "bm": 0
    },
    {
      "ddd": 0,
      "ind": 2,
      "ty": 4,
      "nm": "Lines",
      "sr": 1,
      "ks": {
        "o": { "a": 0, "k": 100, "ix": 11 },
        "r": { "a": 0, "k": 0, "ix": 10 },
        "p": { "a": 0, "k": [25, 25, 0], "ix": 2 },
        "a": { "a": 0, "k": [25, 25, 0], "ix": 1 },
        "s": { "a": 0, "k": [100, 100, 100], "ix": 6 }
      },
      "ao": 0,
      "shapes": [
        {
          "ty": "gr",
          "it": [
            {
              "ind": 0,
              "ty": "sh",
              "ix": 1,
              "ks": {
                "a": 1,
                "k": [
                  {
                    "i": { "x": 0.833, "y": 0.833 },
                    "o": { "x": 0.167, "y": 0.167 },
                    "t": 3,
                    "s": [
                      {
                        "i": [
                          [0, 0],
                          [0, 0]
                        ],
                        "o": [
                          [0, 0],
                          [0, 0]
                        ],
                        "v": [
                          [0, 25],
                          [9, 25]
                        ],
                        "c": false
                      }
                    ],
                    "e": [
                      {
                        "i": [
                          [0, 0],
                          [0, 0]
                        ],
                        "o": [
                          [0, 0],
                          [0, 0]
                        ],
                        "v": [
                          [0, 25],
                          [9.625, 25]
                        ],
                        "c": false
                      }
                    ]
                  },
                  {
                    "i": { "x": 0.833, "y": 0.833 },
                    "o": { "x": 0.167, "y": 0.167 },
                    "t": 4,
                    "s": [
                      {
                        "i": [
                          [0, 0],
                          [0, 0]
                        ],
                        "o": [
                          [0, 0],
                          [0, 0]
                        ],
                        "v": [
                          [0, 25],
                          [9.625, 25]
                        ],
                        "c": false
                      }
                    ],
                    "e": [
                      {
                        "i": [
                          [0, 0],
                          [0, 0]
                        ],
                        "o": [
                          [0, 0],
                          [0, 0]
                        ],
                        "v": [
                          [0, 25],
                          [-7.563, 25]
                        ],
                        "c": false
                      }
                    ]
                  },
                  {
                    "i": { "x": 0.833, "y": 0.833 },
                    "o": { "x": 0.167, "y": 0.167 },
                    "t": 5,
                    "s": [
                      {
                        "i": [
                          [0, 0],
                          [0, 0]
                        ],
                        "o": [
                          [0, 0],
                          [0, 0]
                        ],
                        "v": [
                          [0, 25],
                          [-7.563, 25]
                        ],
                        "c": false
                      }
                    ],
                    "e": [
                      {
                        "i": [
                          [0, 0],
                          [0, 0]
                        ],
                        "o": [
                          [0, 0],
                          [0, 0]
                        ],
                        "v": [
                          [0, 25],
                          [-7.563, 25]
                        ],
                        "c": false
                      }
                    ]
                  },
                  {
                    "i": { "x": 0.833, "y": 0.833 },
                    "o": { "x": 0.167, "y": 0.167 },
                    "t": 23,
                    "s": [
                      {
                        "i": [
                          [0, 0],
                          [0, 0]
                        ],
                        "o": [
                          [0, 0],
                          [0, 0]
                        ],
                        "v": [
                          [0, 25],
                          [-7.563, 25]
                        ],
                        "c": false
                      }
                    ],
                    "e": [
                      {
                        "i": [
                          [0, 0],
                          [0, 0]
                        ],
                        "o": [
                          [0, 0],
                          [0, 0]
                        ],
                        "v": [
                          [0, 25],
                          [9.625, 25]
                        ],
                        "c": false
                      }
                    ]
                  },
                  {
                    "i": { "x": 0.833, "y": 0.833 },
                    "o": { "x": 0.167, "y": 0.167 },
                    "t": 24,
                    "s": [
                      {
                        "i": [
                          [0, 0],
                          [0, 0]
                        ],
                        "o": [
                          [0, 0],
                          [0, 0]
                        ],
                        "v": [
                          [0, 25],
                          [9.625, 25]
                        ],
                        "c": false
                      }
                    ],
                    "e": [
                      {
                        "i": [
                          [0, 0],
                          [0, 0]
                        ],
                        "o": [
                          [0, 0],
                          [0, 0]
                        ],
                        "v": [
                          [0, 25],
                          [9, 25]
                        ],
                        "c": false
                      }
                    ]
                  },
                  { "t": 25 }
                ],
                "ix": 2
              },
              "nm": "Path 1",
              "mn": "ADBE Vector Shape - Group",
              "hd": false
            },
            {
              "ty": "st",
              "c": { "a": 0, "k": [0, 0, 0, 1], "ix": 3 },
              "o": { "a": 0, "k": 100, "ix": 4 },
              "w": { "a": 0, "k": 2, "ix": 5 },
              "lc": 1,
              "lj": 1,
              "ml": 10,
              "bm": 0,
              "nm": "Stroke 1",
              "mn": "ADBE Vector Graphic - Stroke",
              "hd": false
            },
            {
              "ty": "tr",
              "p": { "a": 0, "k": [0, 0], "ix": 2 },
              "a": { "a": 0, "k": [0, 0], "ix": 1 },
              "s": { "a": 0, "k": [100, 100], "ix": 3 },
              "r": { "a": 0, "k": 0, "ix": 6 },
              "o": { "a": 0, "k": 100, "ix": 7 },
              "sk": { "a": 0, "k": 0, "ix": 4 },
              "sa": { "a": 0, "k": 0, "ix": 5 },
              "nm": "Transform"
            }
          ],
          "nm": "Group 1",
          "np": 2,
          "cix": 2,
          "bm": 0,
          "ix": 1,
          "mn": "ADBE Vector Group",
          "hd": false
        },
        {
          "ty": "gr",
          "it": [
            {
              "ind": 0,
              "ty": "sh",
              "ix": 1,
              "ks": {
                "a": 1,
                "k": [
                  {
                    "i": { "x": 0.833, "y": 0.833 },
                    "o": { "x": 0.167, "y": 0.167 },
                    "t": 3,
                    "s": [
                      {
                        "i": [
                          [0, 0],
                          [0, 0]
                        ],
                        "o": [
                          [0, 0],
                          [0, 0]
                        ],
                        "v": [
                          [0, 21],
                          [12, 21]
                        ],
                        "c": false
                      }
                    ],
                    "e": [
                      {
                        "i": [
                          [0, 0],
                          [0, 0]
                        ],
                        "o": [
                          [0, 0],
                          [0, 0]
                        ],
                        "v": [
                          [0, 21],
                          [12.625, 21]
                        ],
                        "c": false
                      }
                    ]
                  },
                  {
                    "i": { "x": 0.833, "y": 0.833 },
                    "o": { "x": 0.167, "y": 0.167 },
                    "t": 4,
                    "s": [
                      {
                        "i": [
                          [0, 0],
                          [0, 0]
                        ],
                        "o": [
                          [0, 0],
                          [0, 0]
                        ],
                        "v": [
                          [0, 21],
                          [12.625, 21]
                        ],
                        "c": false
                      }
                    ],
                    "e": [
                      {
                        "i": [
                          [0, 0],
                          [0, 0]
                        ],
                        "o": [
                          [0, 0],
                          [0, 0]
                        ],
                        "v": [
                          [0, 21],
                          [-4.563, 21]
                        ],
                        "c": false
                      }
                    ]
                  },
                  {
                    "i": { "x": 0.833, "y": 0.833 },
                    "o": { "x": 0.167, "y": 0.167 },
                    "t": 6,
                    "s": [
                      {
                        "i": [
                          [0, 0],
                          [0, 0]
                        ],
                        "o": [
                          [0, 0],
                          [0, 0]
                        ],
                        "v": [
                          [0, 21],
                          [-4.563, 21]
                        ],
                        "c": false
                      }
                    ],
                    "e": [
                      {
                        "i": [
                          [0, 0],
                          [0, 0]
                        ],
                        "o": [
                          [0, 0],
                          [0, 0]
                        ],
                        "v": [
                          [0, 21],
                          [-4.563, 21]
                        ],
                        "c": false
                      }
                    ]
                  },
                  {
                    "i": { "x": 0.833, "y": 0.833 },
                    "o": { "x": 0.167, "y": 0.167 },
                    "t": 22,
                    "s": [
                      {
                        "i": [
                          [0, 0],
                          [0, 0]
                        ],
                        "o": [
                          [0, 0],
                          [0, 0]
                        ],
                        "v": [
                          [0, 21],
                          [-4.563, 21]
                        ],
                        "c": false
                      }
                    ],
                    "e": [
                      {
                        "i": [
                          [0, 0],
                          [0, 0]
                        ],
                        "o": [
                          [0, 0],
                          [0, 0]
                        ],
                        "v": [
                          [0, 21],
                          [12.625, 21]
                        ],
                        "c": false
                      }
                    ]
                  },
                  {
                    "i": { "x": 0.833, "y": 0.833 },
                    "o": { "x": 0.167, "y": 0.167 },
                    "t": 24,
                    "s": [
                      {
                        "i": [
                          [0, 0],
                          [0, 0]
                        ],
                        "o": [
                          [0, 0],
                          [0, 0]
                        ],
                        "v": [
                          [0, 21],
                          [12.625, 21]
                        ],
                        "c": false
                      }
                    ],
                    "e": [
                      {
                        "i": [
                          [0, 0],
                          [0, 0]
                        ],
                        "o": [
                          [0, 0],
                          [0, 0]
                        ],
                        "v": [
                          [0, 21],
                          [12, 21]
                        ],
                        "c": false
                      }
                    ]
                  },
                  { "t": 25 }
                ],
                "ix": 2
              },
              "nm": "Path 1",
              "mn": "ADBE Vector Shape - Group",
              "hd": false
            },
            {
              "ty": "st",
              "c": { "a": 0, "k": [0, 0, 0, 1], "ix": 3 },
              "o": { "a": 0, "k": 100, "ix": 4 },
              "w": { "a": 0, "k": 2, "ix": 5 },
              "lc": 1,
              "lj": 1,
              "ml": 10,
              "bm": 0,
              "nm": "Stroke 1",
              "mn": "ADBE Vector Graphic - Stroke",
              "hd": false
            },
            {
              "ty": "tr",
              "p": { "a": 0, "k": [0, 0], "ix": 2 },
              "a": { "a": 0, "k": [0, 0], "ix": 1 },
              "s": { "a": 0, "k": [100, 100], "ix": 3 },
              "r": { "a": 0, "k": 0, "ix": 6 },
              "o": { "a": 0, "k": 100, "ix": 7 },
              "sk": { "a": 0, "k": 0, "ix": 4 },
              "sa": { "a": 0, "k": 0, "ix": 5 },
              "nm": "Transform"
            }
          ],
          "nm": "Group 2",
          "np": 2,
          "cix": 2,
          "bm": 0,
          "ix": 2,
          "mn": "ADBE Vector Group",
          "hd": false
        },
        {
          "ty": "gr",
          "it": [
            {
              "ind": 0,
              "ty": "sh",
              "ix": 1,
              "ks": {
                "a": 1,
                "k": [
                  {
                    "i": { "x": 0.833, "y": 0.833 },
                    "o": { "x": 0.167, "y": 0.167 },
                    "t": 3,
                    "s": [
                      {
                        "i": [
                          [0, 0],
                          [0, 0]
                        ],
                        "o": [
                          [0, 0],
                          [0, 0]
                        ],
                        "v": [
                          [0, 17],
                          [15, 17]
                        ],
                        "c": false
                      }
                    ],
                    "e": [
                      {
                        "i": [
                          [0, 0],
                          [0, 0]
                        ],
                        "o": [
                          [0, 0],
                          [0, 0]
                        ],
                        "v": [
                          [0, 17],
                          [15.625, 17]
                        ],
                        "c": false
                      }
                    ]
                  },
                  {
                    "i": { "x": 0.833, "y": 0.833 },
                    "o": { "x": 0.167, "y": 0.167 },
                    "t": 4,
                    "s": [
                      {
                        "i": [
                          [0, 0],
                          [0, 0]
                        ],
                        "o": [
                          [0, 0],
                          [0, 0]
                        ],
                        "v": [
                          [0, 17],
                          [15.625, 17]
                        ],
                        "c": false
                      }
                    ],
                    "e": [
                      {
                        "i": [
                          [0, 0],
                          [0, 0]
                        ],
                        "o": [
                          [0, 0],
                          [0, 0]
                        ],
                        "v": [
                          [0, 17],
                          [-1.563, 17]
                        ],
                        "c": false
                      }
                    ]
                  },
                  {
                    "i": { "x": 0.833, "y": 0.833 },
                    "o": { "x": 0.167, "y": 0.167 },
                    "t": 7,
                    "s": [
                      {
                        "i": [
                          [0, 0],
                          [0, 0]
                        ],
                        "o": [
                          [0, 0],
                          [0, 0]
                        ],
                        "v": [
                          [0, 17],
                          [-1.563, 17]
                        ],
                        "c": false
                      }
                    ],
                    "e": [
                      {
                        "i": [
                          [0, 0],
                          [0, 0]
                        ],
                        "o": [
                          [0, 0],
                          [0, 0]
                        ],
                        "v": [
                          [0, 17],
                          [-1.563, 17]
                        ],
                        "c": false
                      }
                    ]
                  },
                  {
                    "i": { "x": 0.833, "y": 0.833 },
                    "o": { "x": 0.167, "y": 0.167 },
                    "t": 21,
                    "s": [
                      {
                        "i": [
                          [0, 0],
                          [0, 0]
                        ],
                        "o": [
                          [0, 0],
                          [0, 0]
                        ],
                        "v": [
                          [0, 17],
                          [-1.563, 17]
                        ],
                        "c": false
                      }
                    ],
                    "e": [
                      {
                        "i": [
                          [0, 0],
                          [0, 0]
                        ],
                        "o": [
                          [0, 0],
                          [0, 0]
                        ],
                        "v": [
                          [0, 17],
                          [15.625, 17]
                        ],
                        "c": false
                      }
                    ]
                  },
                  {
                    "i": { "x": 0.833, "y": 0.833 },
                    "o": { "x": 0.167, "y": 0.167 },
                    "t": 24,
                    "s": [
                      {
                        "i": [
                          [0, 0],
                          [0, 0]
                        ],
                        "o": [
                          [0, 0],
                          [0, 0]
                        ],
                        "v": [
                          [0, 17],
                          [15.625, 17]
                        ],
                        "c": false
                      }
                    ],
                    "e": [
                      {
                        "i": [
                          [0, 0],
                          [0, 0]
                        ],
                        "o": [
                          [0, 0],
                          [0, 0]
                        ],
                        "v": [
                          [0, 17],
                          [15, 17]
                        ],
                        "c": false
                      }
                    ]
                  },
                  { "t": 25 }
                ],
                "ix": 2
              },
              "nm": "Path 1",
              "mn": "ADBE Vector Shape - Group",
              "hd": false
            },
            {
              "ty": "st",
              "c": { "a": 0, "k": [0, 0, 0, 1], "ix": 3 },
              "o": { "a": 0, "k": 100, "ix": 4 },
              "w": { "a": 0, "k": 2, "ix": 5 },
              "lc": 1,
              "lj": 1,
              "ml": 10,
              "bm": 0,
              "nm": "Stroke 1",
              "mn": "ADBE Vector Graphic - Stroke",
              "hd": false
            },
            {
              "ty": "tr",
              "p": { "a": 0, "k": [0, 0], "ix": 2 },
              "a": { "a": 0, "k": [0, 0], "ix": 1 },
              "s": { "a": 0, "k": [100, 100], "ix": 3 },
              "r": { "a": 0, "k": 0, "ix": 6 },
              "o": { "a": 0, "k": 100, "ix": 7 },
              "sk": { "a": 0, "k": 0, "ix": 4 },
              "sa": { "a": 0, "k": 0, "ix": 5 },
              "nm": "Transform"
            }
          ],
          "nm": "Group 3",
          "np": 2,
          "cix": 2,
          "bm": 0,
          "ix": 3,
          "mn": "ADBE Vector Group",
          "hd": false
        }
      ],
      "ip": 0,
      "op": 28,
      "st": 0,
      "bm": 0
    },
    {
      "ddd": 0,
      "ind": 3,
      "ty": 4,
      "nm": "Mask",
      "td": 1,
      "sr": 1,
      "ks": {
        "o": { "a": 0, "k": 100, "ix": 11 },
        "r": { "a": 0, "k": 0, "ix": 10 },
        "p": { "a": 0, "k": [25, 25, 0], "ix": 2 },
        "a": { "a": 0, "k": [25, 25, 0], "ix": 1 },
        "s": { "a": 0, "k": [100, 100, 100], "ix": 6 }
      },
      "ao": 0,
      "shapes": [
        {
          "ty": "gr",
          "it": [
            {
              "ind": 0,
              "ty": "sh",
              "ix": 1,
              "ks": {
                "a": 1,
                "k": [
                  {
                    "i": { "x": 0.833, "y": 0.833 },
                    "o": { "x": 0.167, "y": 0.167 },
                    "t": 3,
                    "s": [
                      {
                        "i": [
                          [0, 0],
                          [0, 0],
                          [0, 0],
                          [0, 0]
                        ],
                        "o": [
                          [0, 0],
                          [0, 0],
                          [0, 0],
                          [0, 0]
                        ],
                        "v": [
                          [-11.188, 9],
                          [10, 9],
                          [10, -9],
                          [-11.188, -9]
                        ],
                        "c": true
                      }
                    ],
                    "e": [
                      {
                        "i": [
                          [0, 0],
                          [0, 0],
                          [0, 0],
                          [0, 0]
                        ],
                        "o": [
                          [0, 0],
                          [0, 0],
                          [0, 0],
                          [0, 0]
                        ],
                        "v": [
                          [-11.5, 4.875],
                          [10, 4.906],
                          [10, -9],
                          [-11.5, -9.031]
                        ],
                        "c": true
                      }
                    ]
                  },
                  {
                    "i": { "x": 0.833, "y": 0.833 },
                    "o": { "x": 0.167, "y": 0.167 },
                    "t": 5,
                    "s": [
                      {
                        "i": [
                          [0, 0],
                          [0, 0],
                          [0, 0],
                          [0, 0]
                        ],
                        "o": [
                          [0, 0],
                          [0, 0],
                          [0, 0],
                          [0, 0]
                        ],
                        "v": [
                          [-11.5, 4.875],
                          [10, 4.906],
                          [10, -9],
                          [-11.5, -9.031]
                        ],
                        "c": true
                      }
                    ],
                    "e": [
                      {
                        "i": [
                          [0, 0],
                          [0, 0],
                          [0, 0],
                          [0, 0]
                        ],
                        "o": [
                          [0, 0],
                          [0, 0],
                          [0, 0],
                          [0, 0]
                        ],
                        "v": [
                          [-12.25, 0.875],
                          [10, 0.875],
                          [10, -9],
                          [-12.25, -9]
                        ],
                        "c": true
                      }
                    ]
                  },
                  {
                    "i": { "x": 0.833, "y": 0.833 },
                    "o": { "x": 0.167, "y": 0.167 },
                    "t": 6,
                    "s": [
                      {
                        "i": [
                          [0, 0],
                          [0, 0],
                          [0, 0],
                          [0, 0]
                        ],
                        "o": [
                          [0, 0],
                          [0, 0],
                          [0, 0],
                          [0, 0]
                        ],
                        "v": [
                          [-12.25, 0.875],
                          [10, 0.875],
                          [10, -9],
                          [-12.25, -9]
                        ],
                        "c": true
                      }
                    ],
                    "e": [
                      {
                        "i": [
                          [0, 0],
                          [0, 0],
                          [0, 0],
                          [0, 0]
                        ],
                        "o": [
                          [0, 0],
                          [0, 0],
                          [0, 0],
                          [0, 0]
                        ],
                        "v": [
                          [-10, -9],
                          [10, -9],
                          [10, -9],
                          [-10, -9]
                        ],
                        "c": true
                      }
                    ]
                  },
                  {
                    "i": { "x": 0.833, "y": 0.833 },
                    "o": { "x": 0.167, "y": 0.167 },
                    "t": 7,
                    "s": [
                      {
                        "i": [
                          [0, 0],
                          [0, 0],
                          [0, 0],
                          [0, 0]
                        ],
                        "o": [
                          [0, 0],
                          [0, 0],
                          [0, 0],
                          [0, 0]
                        ],
                        "v": [
                          [-10, -9],
                          [10, -9],
                          [10, -9],
                          [-10, -9]
                        ],
                        "c": true
                      }
                    ],
                    "e": [
                      {
                        "i": [
                          [0, 0],
                          [0, 0],
                          [0, 0],
                          [0, 0]
                        ],
                        "o": [
                          [0, 0],
                          [0, 0],
                          [0, 0],
                          [0, 0]
                        ],
                        "v": [
                          [-31.938, -9],
                          [-11.938, -9],
                          [-11.938, -9],
                          [-31.938, -9]
                        ],
                        "c": true
                      }
                    ]
                  },
                  {
                    "i": { "x": 0.833, "y": 0.833 },
                    "o": { "x": 0.167, "y": 0.167 },
                    "t": 8,
                    "s": [
                      {
                        "i": [
                          [0, 0],
                          [0, 0],
                          [0, 0],
                          [0, 0]
                        ],
                        "o": [
                          [0, 0],
                          [0, 0],
                          [0, 0],
                          [0, 0]
                        ],
                        "v": [
                          [-31.938, -9],
                          [-11.938, -9],
                          [-11.938, -9],
                          [-31.938, -9]
                        ],
                        "c": true
                      }
                    ],
                    "e": [
                      {
                        "i": [
                          [0, 0],
                          [0, 0],
                          [0, 0],
                          [0, 0]
                        ],
                        "o": [
                          [0, 0],
                          [0, 0],
                          [0, 0],
                          [0, 0]
                        ],
                        "v": [
                          [-31.938, -9],
                          [-11.938, -9],
                          [-11.938, -9],
                          [-31.938, -9]
                        ],
                        "c": true
                      }
                    ]
                  },
                  {
                    "i": { "x": 0.833, "y": 0.833 },
                    "o": { "x": 0.167, "y": 0.167 },
                    "t": 20,
                    "s": [
                      {
                        "i": [
                          [0, 0],
                          [0, 0],
                          [0, 0],
                          [0, 0]
                        ],
                        "o": [
                          [0, 0],
                          [0, 0],
                          [0, 0],
                          [0, 0]
                        ],
                        "v": [
                          [-31.938, -9],
                          [-11.938, -9],
                          [-11.938, -9],
                          [-31.938, -9]
                        ],
                        "c": true
                      }
                    ],
                    "e": [
                      {
                        "i": [
                          [0, 0],
                          [0, 0],
                          [0, 0],
                          [0, 0]
                        ],
                        "o": [
                          [0, 0],
                          [0, 0],
                          [0, 0],
                          [0, 0]
                        ],
                        "v": [
                          [-10, -9],
                          [10, -9],
                          [10, -9],
                          [-10, -9]
                        ],
                        "c": true
                      }
                    ]
                  },
                  {
                    "i": { "x": 0.833, "y": 0.833 },
                    "o": { "x": 0.167, "y": 0.167 },
                    "t": 21,
                    "s": [
                      {
                        "i": [
                          [0, 0],
                          [0, 0],
                          [0, 0],
                          [0, 0]
                        ],
                        "o": [
                          [0, 0],
                          [0, 0],
                          [0, 0],
                          [0, 0]
                        ],
                        "v": [
                          [-10, -9],
                          [10, -9],
                          [10, -9],
                          [-10, -9]
                        ],
                        "c": true
                      }
                    ],
                    "e": [
                      {
                        "i": [
                          [0, 0],
                          [0, 0],
                          [0, 0],
                          [0, 0]
                        ],
                        "o": [
                          [0, 0],
                          [0, 0],
                          [0, 0],
                          [0, 0]
                        ],
                        "v": [
                          [-12.25, 0.875],
                          [10, 0.875],
                          [10, -9],
                          [-12.25, -9]
                        ],
                        "c": true
                      }
                    ]
                  },
                  {
                    "i": { "x": 0.833, "y": 0.833 },
                    "o": { "x": 0.167, "y": 0.167 },
                    "t": 22,
                    "s": [
                      {
                        "i": [
                          [0, 0],
                          [0, 0],
                          [0, 0],
                          [0, 0]
                        ],
                        "o": [
                          [0, 0],
                          [0, 0],
                          [0, 0],
                          [0, 0]
                        ],
                        "v": [
                          [-12.25, 0.875],
                          [10, 0.875],
                          [10, -9],
                          [-12.25, -9]
                        ],
                        "c": true
                      }
                    ],
                    "e": [
                      {
                        "i": [
                          [0, 0],
                          [0, 0],
                          [0, 0],
                          [0, 0]
                        ],
                        "o": [
                          [0, 0],
                          [0, 0],
                          [0, 0],
                          [0, 0]
                        ],
                        "v": [
                          [-11.5, 4.875],
                          [10, 4.906],
                          [10, -9],
                          [-11.5, -9.031]
                        ],
                        "c": true
                      }
                    ]
                  },
                  {
                    "i": { "x": 0.833, "y": 0.833 },
                    "o": { "x": 0.167, "y": 0.167 },
                    "t": 23,
                    "s": [
                      {
                        "i": [
                          [0, 0],
                          [0, 0],
                          [0, 0],
                          [0, 0]
                        ],
                        "o": [
                          [0, 0],
                          [0, 0],
                          [0, 0],
                          [0, 0]
                        ],
                        "v": [
                          [-11.5, 4.875],
                          [10, 4.906],
                          [10, -9],
                          [-11.5, -9.031]
                        ],
                        "c": true
                      }
                    ],
                    "e": [
                      {
                        "i": [
                          [0, 0],
                          [0, 0],
                          [0, 0],
                          [0, 0]
                        ],
                        "o": [
                          [0, 0],
                          [0, 0],
                          [0, 0],
                          [0, 0]
                        ],
                        "v": [
                          [-11.188, 9],
                          [10, 9],
                          [10, -9],
                          [-11.188, -9]
                        ],
                        "c": true
                      }
                    ]
                  },
                  { "t": 25 }
                ],
                "ix": 2
              },
              "nm": "Path 1",
              "mn": "ADBE Vector Shape - Group",
              "hd": false
            },
            {
              "ty": "fl",
              "c": { "a": 0, "k": [0.545000023935, 1, 0.545000023935, 1], "ix": 4 },
              "o": { "a": 0, "k": 100, "ix": 5 },
              "r": 1,
              "bm": 0,
              "nm": "Fill 1",
              "mn": "ADBE Vector Graphic - Fill",
              "hd": false
            },
            {
              "ty": "tr",
              "p": { "a": 0, "k": [10, 19], "ix": 2 },
              "a": { "a": 0, "k": [0, 0], "ix": 1 },
              "s": { "a": 0, "k": [100, 100], "ix": 3 },
              "r": { "a": 0, "k": 0, "ix": 6 },
              "o": { "a": 0, "k": 100, "ix": 7 },
              "sk": { "a": 0, "k": 0, "ix": 4 },
              "sa": { "a": 0, "k": 0, "ix": 5 },
              "nm": "Transform"
            }
          ],
          "nm": "Group 1",
          "np": 2,
          "cix": 2,
          "bm": 0,
          "ix": 1,
          "mn": "ADBE Vector Group",
          "hd": false
        }
      ],
      "ip": 0,
      "op": 28,
      "st": 0,
      "bm": 0
    },
    {
      "ddd": 0,
      "ind": 4,
      "ty": 4,
      "nm": "Truck",
      "tt": 2,
      "sr": 1,
      "ks": {
        "o": { "a": 0, "k": 100, "ix": 11 },
        "r": { "a": 0, "k": 0, "ix": 10 },
        "p": { "a": 0, "k": [25, 25, 0], "ix": 2 },
        "a": { "a": 0, "k": [25, 25, 0], "ix": 1 },
        "s": { "a": 0, "k": [100, 100, 100], "ix": 6 }
      },
      "ao": 0,
      "shapes": [
        {
          "ty": "gr",
          "it": [
            {
              "ind": 0,
              "ty": "sh",
              "ix": 1,
              "ks": {
                "a": 1,
                "k": [
                  {
                    "i": { "x": 0.833, "y": 0.833 },
                    "o": { "x": 0.167, "y": 0.167 },
                    "t": 6,
                    "s": [
                      {
                        "i": [
                          [0, 0],
                          [0, 0],
                          [0, 0],
                          [1, 0],
                          [0, 0],
                          [0, -1],
                          [0, 0]
                        ],
                        "o": [
                          [0, 0],
                          [0, 0],
                          [0, -1],
                          [0, 0],
                          [-1, 0],
                          [0, 0],
                          [0, 0]
                        ],
                        "v": [
                          [2.5, 15],
                          [14.5, 15],
                          [14.5, -13.1],
                          [12.6, -15],
                          [-12.7, -15],
                          [-14.5, -13.2],
                          [-14.499, -13.199]
                        ],
                        "c": false
                      }
                    ],
                    "e": [
                      {
                        "i": [
                          [0, 0],
                          [0, 0],
                          [0, 0],
                          [1, 0],
                          [0, 0],
                          [0, -1],
                          [0, 0]
                        ],
                        "o": [
                          [0, 0],
                          [0, 0],
                          [0, -1],
                          [0, 0],
                          [-1, 0],
                          [0, 0],
                          [0, 0]
                        ],
                        "v": [
                          [2.5, 15],
                          [14.5, 15],
                          [14.5, -13.1],
                          [12.6, -15],
                          [-12.7, -15],
                          [-14.5, -13.2],
                          [-14.5, -12.57]
                        ],
                        "c": false
                      }
                    ]
                  },
                  {
                    "i": { "x": 0.833, "y": 0.833 },
                    "o": { "x": 0.167, "y": 0.167 },
                    "t": 7,
                    "s": [
                      {
                        "i": [
                          [0, 0],
                          [0, 0],
                          [0, 0],
                          [1, 0],
                          [0, 0],
                          [0, -1],
                          [0, 0]
                        ],
                        "o": [
                          [0, 0],
                          [0, 0],
                          [0, -1],
                          [0, 0],
                          [-1, 0],
                          [0, 0],
                          [0, 0]
                        ],
                        "v": [
                          [2.5, 15],
                          [14.5, 15],
                          [14.5, -13.1],
                          [12.6, -15],
                          [-12.7, -15],
                          [-14.5, -13.2],
                          [-14.5, -12.57]
                        ],
                        "c": false
                      }
                    ],
                    "e": [
                      {
                        "i": [
                          [0, 0],
                          [0, 0],
                          [0, 0],
                          [1, 0],
                          [0, 0],
                          [0, -1],
                          [0, 0]
                        ],
                        "o": [
                          [0, 0],
                          [0, 0],
                          [0, -1],
                          [0, 0],
                          [-1, 0],
                          [0, 0],
                          [0, 0]
                        ],
                        "v": [
                          [2.5, 15],
                          [14.5, 15],
                          [14.5, -13.1],
                          [12.6, -15],
                          [-12.7, -15],
                          [-14.5, -13.2],
                          [-14.5, -12.57]
                        ],
                        "c": false
                      }
                    ]
                  },
                  {
                    "i": { "x": 0.833, "y": 0.833 },
                    "o": { "x": 0.167, "y": 0.167 },
                    "t": 21,
                    "s": [
                      {
                        "i": [
                          [0, 0],
                          [0, 0],
                          [0, 0],
                          [1, 0],
                          [0, 0],
                          [0, -1],
                          [0, 0]
                        ],
                        "o": [
                          [0, 0],
                          [0, 0],
                          [0, -1],
                          [0, 0],
                          [-1, 0],
                          [0, 0],
                          [0, 0]
                        ],
                        "v": [
                          [2.5, 15],
                          [14.5, 15],
                          [14.5, -13.1],
                          [12.6, -15],
                          [-12.7, -15],
                          [-14.5, -13.2],
                          [-14.5, -12.57]
                        ],
                        "c": false
                      }
                    ],
                    "e": [
                      {
                        "i": [
                          [0, 0],
                          [0, 0],
                          [0, 0],
                          [1, 0],
                          [0, 0],
                          [0, -1],
                          [0, 0]
                        ],
                        "o": [
                          [0, 0],
                          [0, 0],
                          [0, -1],
                          [0, 0],
                          [-1, 0],
                          [0, 0],
                          [0, 0]
                        ],
                        "v": [
                          [2.5, 15],
                          [14.5, 15],
                          [14.5, -13.1],
                          [12.6, -15],
                          [-12.7, -15],
                          [-14.5, -13.2],
                          [-14.499, -13.199]
                        ],
                        "c": false
                      }
                    ]
                  },
                  { "t": 22 }
                ],
                "ix": 2
              },
              "nm": "Path 1",
              "mn": "ADBE Vector Shape - Group",
              "hd": false
            },
            {
              "ty": "st",
              "c": { "a": 0, "k": [0, 0, 0, 1], "ix": 3 },
              "o": { "a": 0, "k": 100, "ix": 4 },
              "w": { "a": 0, "k": 2, "ix": 5 },
              "lc": 1,
              "lj": 1,
              "ml": 10,
              "bm": 0,
              "nm": "Stroke 1",
              "mn": "ADBE Vector Graphic - Stroke",
              "hd": false
            },
            {
              "ty": "tr",
              "p": { "a": 0, "k": [15.5, 24], "ix": 2 },
              "a": { "a": 0, "k": [0, 0], "ix": 1 },
              "s": { "a": 0, "k": [100, 100], "ix": 3 },
              "r": { "a": 0, "k": 0, "ix": 6 },
              "o": { "a": 0, "k": 100, "ix": 7 },
              "sk": { "a": 0, "k": 0, "ix": 4 },
              "sa": { "a": 0, "k": 0, "ix": 5 },
              "nm": "Transform"
            }
          ],
          "nm": "Group 10",
          "np": 2,
          "cix": 2,
          "bm": 0,
          "ix": 1,
          "mn": "ADBE Vector Group",
          "hd": false
        },
        {
          "ty": "gr",
          "it": [
            {
              "ind": 0,
              "ty": "sh",
              "ix": 1,
              "ks": {
                "a": 1,
                "k": [
                  {
                    "i": { "x": 0.833, "y": 0.833 },
                    "o": { "x": 0.167, "y": 0.167 },
                    "t": 4,
                    "s": [
                      {
                        "i": [
                          [0, 0],
                          [0, 0],
                          [-1.1, 0],
                          [0, 0]
                        ],
                        "o": [
                          [0, 0],
                          [0, 1.1],
                          [0, 0],
                          [0, 0]
                        ],
                        "v": [
                          [-14.5, 4.002],
                          [-14.5, 13],
                          [-12.5, 15],
                          [-7.5, 15]
                        ],
                        "c": false
                      }
                    ],
                    "e": [
                      {
                        "i": [
                          [0, 0],
                          [0, 0],
                          [-1.1, 0],
                          [0, 0]
                        ],
                        "o": [
                          [0, 0],
                          [0, 1.1],
                          [0, 0],
                          [0, 0]
                        ],
                        "v": [
                          [-14.5, -13.215],
                          [-14.5, 13],
                          [-12.5, 15],
                          [-7.5, 15]
                        ],
                        "c": false
                      }
                    ]
                  },
                  {
                    "i": { "x": 0.833, "y": 0.833 },
                    "o": { "x": 0.167, "y": 0.167 },
                    "t": 7,
                    "s": [
                      {
                        "i": [
                          [0, 0],
                          [0, 0],
                          [-1.1, 0],
                          [0, 0]
                        ],
                        "o": [
                          [0, 0],
                          [0, 1.1],
                          [0, 0],
                          [0, 0]
                        ],
                        "v": [
                          [-14.5, -13.215],
                          [-14.5, 13],
                          [-12.5, 15],
                          [-7.5, 15]
                        ],
                        "c": false
                      }
                    ],
                    "e": [
                      {
                        "i": [
                          [0, 0],
                          [0, 0],
                          [-1.1, 0],
                          [0, 0]
                        ],
                        "o": [
                          [0, 0],
                          [0, 1.1],
                          [0, 0],
                          [0, 0]
                        ],
                        "v": [
                          [-14.5, -13.215],
                          [-14.5, 13],
                          [-12.5, 15],
                          [-7.5, 15]
                        ],
                        "c": false
                      }
                    ]
                  },
                  {
                    "i": { "x": 0.833, "y": 0.833 },
                    "o": { "x": 0.167, "y": 0.167 },
                    "t": 21,
                    "s": [
                      {
                        "i": [
                          [0, 0],
                          [0, 0],
                          [-1.1, 0],
                          [0, 0]
                        ],
                        "o": [
                          [0, 0],
                          [0, 1.1],
                          [0, 0],
                          [0, 0]
                        ],
                        "v": [
                          [-14.5, -13.215],
                          [-14.5, 13],
                          [-12.5, 15],
                          [-7.5, 15]
                        ],
                        "c": false
                      }
                    ],
                    "e": [
                      {
                        "i": [
                          [0, 0],
                          [0, 0],
                          [-1.1, 0],
                          [0, 0]
                        ],
                        "o": [
                          [0, 0],
                          [0, 1.1],
                          [0, 0],
                          [0, 0]
                        ],
                        "v": [
                          [-14.5, 4.002],
                          [-14.5, 13],
                          [-12.5, 15],
                          [-7.5, 15]
                        ],
                        "c": false
                      }
                    ]
                  },
                  { "t": 24 }
                ],
                "ix": 2
              },
              "nm": "Path 1",
              "mn": "ADBE Vector Shape - Group",
              "hd": false
            },
            {
              "ty": "st",
              "c": { "a": 0, "k": [0, 0, 0, 1], "ix": 3 },
              "o": { "a": 0, "k": 100, "ix": 4 },
              "w": { "a": 0, "k": 2, "ix": 5 },
              "lc": 1,
              "lj": 1,
              "ml": 10,
              "bm": 0,
              "nm": "Stroke 1",
              "mn": "ADBE Vector Graphic - Stroke",
              "hd": false
            },
            {
              "ty": "tr",
              "p": { "a": 0, "k": [15.5, 24], "ix": 2 },
              "a": { "a": 0, "k": [0, 0], "ix": 1 },
              "s": { "a": 0, "k": [100, 100], "ix": 3 },
              "r": { "a": 0, "k": 0, "ix": 6 },
              "o": { "a": 0, "k": 100, "ix": 7 },
              "sk": { "a": 0, "k": 0, "ix": 4 },
              "sa": { "a": 0, "k": 0, "ix": 5 },
              "nm": "Transform"
            }
          ],
          "nm": "Group 6",
          "np": 2,
          "cix": 2,
          "bm": 0,
          "ix": 2,
          "mn": "ADBE Vector Group",
          "hd": false
        },
        {
          "ty": "gr",
          "it": [
            {
              "ind": 0,
              "ty": "sh",
              "ix": 1,
              "ks": {
                "a": 0,
                "k": {
                  "i": [
                    [0, 0],
                    [0, 0],
                    [0, 1],
                    [0, 0]
                  ],
                  "o": [
                    [0, 0],
                    [-1, 0],
                    [0, 0],
                    [0, 0]
                  ],
                  "v": [
                    [9.5, 0.5],
                    [-0.5, 0.5],
                    [-2.5, -1.5],
                    [-2.5, -11.5]
                  ],
                  "c": false
                },
                "ix": 2
              },
              "nm": "Path 1",
              "mn": "ADBE Vector Shape - Group",
              "hd": false
            },
            {
              "ind": 1,
              "ty": "sh",
              "ix": 2,
              "ks": {
                "a": 0,
                "k": {
                  "i": [
                    [0, 0],
                    [0, 0],
                    [0, 1],
                    [0, 0],
                    [0, 0],
                    [0, 0],
                    [1.4, 0],
                    [0, 0],
                    [0, -1],
                    [0, 0],
                    [0, 0]
                  ],
                  "o": [
                    [0, 0],
                    [1, 0],
                    [0, 0],
                    [0, -1.7],
                    [0, 0],
                    [-0.8, -1],
                    [0, 0],
                    [-1, 0],
                    [0, 0],
                    [0, 0],
                    [0, 0]
                  ],
                  "v": [
                    [5.5, 11.5],
                    [7.5, 11.5],
                    [9.5, 9.5],
                    [9.5, -0.1],
                    [8.1, -3.8],
                    [4, -9.3],
                    [0.5, -11.5],
                    [-7.5, -11.5],
                    [-9.5, -9.5],
                    [-9.5, 11.5],
                    [-4.5, 11.5]
                  ],
                  "c": false
                },
                "ix": 2
              },
              "nm": "Path 2",
              "mn": "ADBE Vector Shape - Group",
              "hd": false
            },
            { "ty": "mm", "mm": 1, "nm": "Merge Paths 1", "mn": "ADBE Vector Filter - Merge", "hd": false },
            {
              "ty": "st",
              "c": { "a": 0, "k": [0, 0, 0, 1], "ix": 3 },
              "o": { "a": 0, "k": 100, "ix": 4 },
              "w": { "a": 0, "k": 2, "ix": 5 },
              "lc": 1,
              "lj": 1,
              "ml": 10,
              "bm": 0,
              "nm": "Stroke 1",
              "mn": "ADBE Vector Graphic - Stroke",
              "hd": false
            },
            {
              "ty": "tr",
              "p": { "a": 0, "k": [39.5, 27.5], "ix": 2 },
              "a": { "a": 0, "k": [0, 0], "ix": 1 },
              "s": { "a": 0, "k": [100, 100], "ix": 3 },
              "r": { "a": 0, "k": 0, "ix": 6 },
              "o": { "a": 0, "k": 100, "ix": 7 },
              "sk": { "a": 0, "k": 0, "ix": 4 },
              "sa": { "a": 0, "k": 0, "ix": 5 },
              "nm": "Transform"
            }
          ],
          "nm": "Group 7",
          "np": 4,
          "cix": 2,
          "bm": 0,
          "ix": 3,
          "mn": "ADBE Vector Group",
          "hd": false
        },
        {
          "ty": "gr",
          "it": [
            {
              "ind": 0,
              "ty": "sh",
              "ix": 1,
              "ks": {
                "a": 0,
                "k": {
                  "i": [
                    [-2.761, 0],
                    [0, -2.761],
                    [2.761, 0],
                    [0, 2.761]
                  ],
                  "o": [
                    [2.761, 0],
                    [0, 2.761],
                    [-2.761, 0],
                    [0, -2.761]
                  ],
                  "v": [
                    [0, -5],
                    [5, 0],
                    [0, 5],
                    [-5, 0]
                  ],
                  "c": true
                },
                "ix": 2
              },
              "nm": "Path 1",
              "mn": "ADBE Vector Shape - Group",
              "hd": false
            },
            {
              "ty": "st",
              "c": { "a": 0, "k": [0, 0, 0, 1], "ix": 3 },
              "o": { "a": 0, "k": 100, "ix": 4 },
              "w": { "a": 0, "k": 2, "ix": 5 },
              "lc": 1,
              "lj": 1,
              "ml": 10,
              "bm": 0,
              "nm": "Stroke 1",
              "mn": "ADBE Vector Graphic - Stroke",
              "hd": false
            },
            {
              "ty": "tr",
              "p": { "a": 0, "k": [40, 39], "ix": 2 },
              "a": { "a": 0, "k": [0, 0], "ix": 1 },
              "s": { "a": 0, "k": [100, 100], "ix": 3 },
              "r": { "a": 0, "k": 0, "ix": 6 },
              "o": { "a": 0, "k": 100, "ix": 7 },
              "sk": { "a": 0, "k": 0, "ix": 4 },
              "sa": { "a": 0, "k": 0, "ix": 5 },
              "nm": "Transform"
            }
          ],
          "nm": "Group 8",
          "np": 2,
          "cix": 2,
          "bm": 0,
          "ix": 4,
          "mn": "ADBE Vector Group",
          "hd": false
        },
        {
          "ty": "gr",
          "it": [
            {
              "ind": 0,
              "ty": "sh",
              "ix": 1,
              "ks": {
                "a": 0,
                "k": {
                  "i": [
                    [-2.761, 0],
                    [0, -2.761],
                    [2.761, 0],
                    [0, 2.761]
                  ],
                  "o": [
                    [2.761, 0],
                    [0, 2.761],
                    [-2.761, 0],
                    [0, -2.761]
                  ],
                  "v": [
                    [0, -5],
                    [5, 0],
                    [0, 5],
                    [-5, 0]
                  ],
                  "c": true
                },
                "ix": 2
              },
              "nm": "Path 1",
              "mn": "ADBE Vector Shape - Group",
              "hd": false
            },
            {
              "ty": "st",
              "c": { "a": 0, "k": [0, 0, 0, 1], "ix": 3 },
              "o": { "a": 0, "k": 100, "ix": 4 },
              "w": { "a": 0, "k": 2, "ix": 5 },
              "lc": 1,
              "lj": 1,
              "ml": 10,
              "bm": 0,
              "nm": "Stroke 1",
              "mn": "ADBE Vector Graphic - Stroke",
              "hd": false
            },
            {
              "ty": "tr",
              "p": { "a": 0, "k": [13, 39], "ix": 2 },
              "a": { "a": 0, "k": [0, 0], "ix": 1 },
              "s": { "a": 0, "k": [100, 100], "ix": 3 },
              "r": { "a": 0, "k": 0, "ix": 6 },
              "o": { "a": 0, "k": 100, "ix": 7 },
              "sk": { "a": 0, "k": 0, "ix": 4 },
              "sa": { "a": 0, "k": 0, "ix": 5 },
              "nm": "Transform"
            }
          ],
          "nm": "Group 9",
          "np": 2,
          "cix": 2,
          "bm": 0,
          "ix": 5,
          "mn": "ADBE Vector Group",
          "hd": false
        }
      ],
      "ip": 0,
      "op": 28,
      "st": 0,
      "bm": 0
    }
  ],
  "markers": []
}
