{
  "v": "5.4.4",
  "fr": 24,
  "ip": 0,
  "op": 28,
  "w": 50,
  "h": 50,
  "nm": "sleeping",
  "ddd": 0,
  "assets": [],
  "layers": [
    {
      "ddd": 0,
      "ind": 1,
      "ty": 4,
      "nm": "Controller",
      "sr": 1,
      "ks": {
        "o": { "a": 0, "k": 100, "ix": 11 },
        "r": { "a": 0, "k": 0, "ix": 10 },
        "p": {
          "a": 1,
          "k": [
            { "i": { "x": 0.667, "y": 1 }, "o": { "x": 0.333, "y": 0 }, "t": 3, "s": [25, 25, 0], "e": [25, 24, 0], "to": [0, -0.167, 0], "ti": [0, -0.167, 0] },
            { "i": { "x": 0.667, "y": 1 }, "o": { "x": 0.333, "y": 0 }, "t": 11, "s": [25, 24, 0], "e": [25, 26, 0], "to": [0, 0.167, 0], "ti": [0, -0.167, 0] },
            { "i": { "x": 0.667, "y": 1 }, "o": { "x": 0.167, "y": 0.167 }, "t": 17, "s": [25, 26, 0], "e": [25, 25, 0], "to": [0, 0.167, 0], "ti": [0, 0.167, 0] },
            { "t": 26 }
          ],
          "ix": 2
        },
        "a": { "a": 0, "k": [0, 0, 0], "ix": 1 },
        "s": { "a": 0, "k": [100, 100, 100], "ix": 6 }
      },
      "ao": 0,
      "shapes": [],
      "ip": 0,
      "op": 28,
      "st": 0,
      "bm": 0
    },
    {
      "ddd": 0,
      "ind": 2,
      "ty": 4,
      "nm": "Mouth open",
      "parent": 1,
      "sr": 1,
      "ks": {
        "o": { "a": 0, "k": 100, "ix": 11 },
        "r": { "a": 0, "k": 0, "ix": 10 },
        "p": { "a": 0, "k": [0, 0, 0], "ix": 2 },
        "a": { "a": 0, "k": [25, 25, 0], "ix": 1 },
        "s": { "a": 0, "k": [100, 100, 100], "ix": 6 }
      },
      "ao": 0,
      "shapes": [
        {
          "ty": "gr",
          "it": [
            {
              "ind": 0,
              "ty": "sh",
              "ix": 1,
              "ks": {
                "a": 1,
                "k": [
                  {
                    "i": { "x": 0.667, "y": 1 },
                    "o": { "x": 0.333, "y": 0 },
                    "t": 11,
                    "s": [
                      {
                        "i": [
                          [0.031, -0.031],
                          [-1.104, 0],
                          [0.063, 0.031],
                          [1.104, 0]
                        ],
                        "o": [
                          [-0.063, 0.063],
                          [1.104, 0],
                          [0.063, 0.094],
                          [-1.104, 0]
                        ],
                        "v": [
                          [-2.031, -0.531],
                          [0.023, 0.016],
                          [2.094, -0.688],
                          [0.055, 0.031]
                        ],
                        "c": true
                      }
                    ],
                    "e": [
                      {
                        "i": [
                          [0, 1.104],
                          [-1.104, 0],
                          [0, -1.104],
                          [1.104, 0]
                        ],
                        "o": [
                          [0, -1.104],
                          [1.104, 0],
                          [0, 1.104],
                          [-1.104, 0]
                        ],
                        "v": [
                          [-2, 0],
                          [0, -2],
                          [2, 0],
                          [0, 2]
                        ],
                        "c": true
                      }
                    ]
                  },
                  {
                    "i": { "x": 0.833, "y": 0.833 },
                    "o": { "x": 0.167, "y": 0.167 },
                    "t": 14,
                    "s": [
                      {
                        "i": [
                          [0, 1.104],
                          [-1.104, 0],
                          [0, -1.104],
                          [1.104, 0]
                        ],
                        "o": [
                          [0, -1.104],
                          [1.104, 0],
                          [0, 1.104],
                          [-1.104, 0]
                        ],
                        "v": [
                          [-2, 0],
                          [0, -2],
                          [2, 0],
                          [0, 2]
                        ],
                        "c": true
                      }
                    ],
                    "e": [
                      {
                        "i": [
                          [0, 1.104],
                          [-1.104, 0],
                          [0, -1.104],
                          [1.104, 0]
                        ],
                        "o": [
                          [0, -1.104],
                          [1.104, 0],
                          [0, 1.104],
                          [-1.104, 0]
                        ],
                        "v": [
                          [-2, 0],
                          [0, -2],
                          [2, 0],
                          [0, 2]
                        ],
                        "c": true
                      }
                    ]
                  },
                  {
                    "i": { "x": 0.667, "y": 1 },
                    "o": { "x": 0.333, "y": 0 },
                    "t": 21,
                    "s": [
                      {
                        "i": [
                          [0, 1.104],
                          [-1.104, 0],
                          [0, -1.104],
                          [1.104, 0]
                        ],
                        "o": [
                          [0, -1.104],
                          [1.104, 0],
                          [0, 1.104],
                          [-1.104, 0]
                        ],
                        "v": [
                          [-2, 0],
                          [0, -2],
                          [2, 0],
                          [0, 2]
                        ],
                        "c": true
                      }
                    ],
                    "e": [
                      {
                        "i": [
                          [0.031, -0.031],
                          [-1.104, 0],
                          [0.063, 0.031],
                          [1.104, 0]
                        ],
                        "o": [
                          [-0.063, 0.063],
                          [1.104, 0],
                          [0.063, 0.094],
                          [-1.104, 0]
                        ],
                        "v": [
                          [-2.031, -0.531],
                          [0.023, 0.016],
                          [2.094, -0.688],
                          [0.055, 0.031]
                        ],
                        "c": true
                      }
                    ]
                  },
                  { "t": 23 }
                ],
                "ix": 2
              },
              "nm": "Path 1",
              "mn": "ADBE Vector Shape - Group",
              "hd": false
            },
            {
              "ty": "st",
              "c": { "a": 0, "k": [0, 0, 0, 1], "ix": 3 },
              "o": { "a": 0, "k": 100, "ix": 4 },
              "w": { "a": 0, "k": 2, "ix": 5 },
              "lc": 1,
              "lj": 2,
              "bm": 0,
              "nm": "Stroke 1",
              "mn": "ADBE Vector Graphic - Stroke",
              "hd": false
            },
            {
              "ty": "tr",
              "p": { "a": 0, "k": [25, 34], "ix": 2 },
              "a": { "a": 0, "k": [0, 0], "ix": 1 },
              "s": { "a": 0, "k": [100, 100], "ix": 3 },
              "r": { "a": 0, "k": 0, "ix": 6 },
              "o": { "a": 0, "k": 100, "ix": 7 },
              "sk": { "a": 0, "k": 0, "ix": 4 },
              "sa": { "a": 0, "k": 0, "ix": 5 },
              "nm": "Transform"
            }
          ],
          "nm": "Group 1",
          "np": 2,
          "cix": 2,
          "bm": 0,
          "ix": 1,
          "mn": "ADBE Vector Group",
          "hd": false
        }
      ],
      "ip": 11,
      "op": 23,
      "st": 0,
      "bm": 0
    },
    {
      "ddd": 0,
      "ind": 3,
      "ty": 4,
      "nm": "Mouth",
      "parent": 1,
      "sr": 1,
      "ks": {
        "o": { "a": 0, "k": 100, "ix": 11 },
        "r": { "a": 0, "k": 0, "ix": 10 },
        "p": { "a": 0, "k": [0, 0, 0], "ix": 2 },
        "a": { "a": 0, "k": [25, 25, 0], "ix": 1 },
        "s": { "a": 0, "k": [100, 100, 100], "ix": 6 }
      },
      "ao": 0,
      "shapes": [
        {
          "ty": "gr",
          "it": [
            {
              "ind": 0,
              "ty": "sh",
              "ix": 1,
              "ks": {
                "a": 1,
                "k": [
                  {
                    "i": { "x": 0.667, "y": 1 },
                    "o": { "x": 0.333, "y": 0 },
                    "t": 5,
                    "s": [
                      {
                        "i": [
                          [0, 0],
                          [-4, 0],
                          [0, 0]
                        ],
                        "o": [
                          [0, 0],
                          [4, 0],
                          [0, 0]
                        ],
                        "v": [
                          [-8, 0.5],
                          [0, -0.5],
                          [8, 0.5]
                        ],
                        "c": false
                      }
                    ],
                    "e": [
                      {
                        "i": [
                          [0, 0],
                          [-1.75, -0.031],
                          [0, 0]
                        ],
                        "o": [
                          [0, 0],
                          [1.469, 0.026],
                          [0, 0]
                        ],
                        "v": [
                          [-2.344, -0.094],
                          [0.023, 0.516],
                          [2.563, -0.094]
                        ],
                        "c": false
                      }
                    ]
                  },
                  { "t": 11 }
                ],
                "ix": 2
              },
              "nm": "Path 1",
              "mn": "ADBE Vector Shape - Group",
              "hd": false
            },
            {
              "ty": "st",
              "c": { "a": 0, "k": [0, 0, 0, 1], "ix": 3 },
              "o": { "a": 0, "k": 100, "ix": 4 },
              "w": { "a": 0, "k": 2, "ix": 5 },
              "lc": 2,
              "lj": 2,
              "bm": 0,
              "nm": "Stroke 1",
              "mn": "ADBE Vector Graphic - Stroke",
              "hd": false
            },
            {
              "ty": "tr",
              "p": { "a": 0, "k": [25, 33.5], "ix": 2 },
              "a": { "a": 0, "k": [0, 0], "ix": 1 },
              "s": { "a": 0, "k": [100, 100], "ix": 3 },
              "r": { "a": 0, "k": 0, "ix": 6 },
              "o": { "a": 0, "k": 100, "ix": 7 },
              "sk": { "a": 0, "k": 0, "ix": 4 },
              "sa": { "a": 0, "k": 0, "ix": 5 },
              "nm": "Transform"
            }
          ],
          "nm": "Group 4",
          "np": 2,
          "cix": 2,
          "bm": 0,
          "ix": 1,
          "mn": "ADBE Vector Group",
          "hd": false
        }
      ],
      "ip": 0,
      "op": 11,
      "st": 0,
      "bm": 0
    },
    {
      "ddd": 0,
      "ind": 4,
      "ty": 4,
      "nm": "Mouth 2",
      "parent": 1,
      "sr": 1,
      "ks": {
        "o": { "a": 0, "k": 100, "ix": 11 },
        "r": { "a": 0, "k": 0, "ix": 10 },
        "p": { "a": 0, "k": [0, 0, 0], "ix": 2 },
        "a": { "a": 0, "k": [25, 25, 0], "ix": 1 },
        "s": { "a": 0, "k": [100, 100, 100], "ix": 6 }
      },
      "ao": 0,
      "shapes": [
        {
          "ty": "gr",
          "it": [
            {
              "ind": 0,
              "ty": "sh",
              "ix": 1,
              "ks": {
                "a": 1,
                "k": [
                  {
                    "i": { "x": 0.667, "y": 1 },
                    "o": { "x": 0.333, "y": 0 },
                    "t": 23,
                    "s": [
                      {
                        "i": [
                          [0, 0],
                          [-1.75, -0.031],
                          [0, 0]
                        ],
                        "o": [
                          [0, 0],
                          [1.469, 0.026],
                          [0, 0]
                        ],
                        "v": [
                          [-2.344, -0.094],
                          [0.023, 0.516],
                          [2.563, -0.094]
                        ],
                        "c": false
                      }
                    ],
                    "e": [
                      {
                        "i": [
                          [0, 0],
                          [-4, 0],
                          [0, 0]
                        ],
                        "o": [
                          [0, 0],
                          [4, 0],
                          [0, 0]
                        ],
                        "v": [
                          [-8, 0.5],
                          [0, -0.5],
                          [8, 0.5]
                        ],
                        "c": false
                      }
                    ]
                  },
                  { "t": 25 }
                ],
                "ix": 2
              },
              "nm": "Path 1",
              "mn": "ADBE Vector Shape - Group",
              "hd": false
            },
            {
              "ty": "st",
              "c": { "a": 0, "k": [0, 0, 0, 1], "ix": 3 },
              "o": { "a": 0, "k": 100, "ix": 4 },
              "w": { "a": 0, "k": 2, "ix": 5 },
              "lc": 2,
              "lj": 2,
              "bm": 0,
              "nm": "Stroke 1",
              "mn": "ADBE Vector Graphic - Stroke",
              "hd": false
            },
            {
              "ty": "tr",
              "p": { "a": 0, "k": [25, 33.5], "ix": 2 },
              "a": { "a": 0, "k": [0, 0], "ix": 1 },
              "s": { "a": 0, "k": [100, 100], "ix": 3 },
              "r": { "a": 0, "k": 0, "ix": 6 },
              "o": { "a": 0, "k": 100, "ix": 7 },
              "sk": { "a": 0, "k": 0, "ix": 4 },
              "sa": { "a": 0, "k": 0, "ix": 5 },
              "nm": "Transform"
            }
          ],
          "nm": "Group 4",
          "np": 2,
          "cix": 2,
          "bm": 0,
          "ix": 1,
          "mn": "ADBE Vector Group",
          "hd": false
        }
      ],
      "ip": 23,
      "op": 29,
      "st": 20,
      "bm": 0
    },
    {
      "ddd": 0,
      "ind": 5,
      "ty": 4,
      "nm": "Eyes",
      "parent": 1,
      "sr": 1,
      "ks": {
        "o": { "a": 0, "k": 100, "ix": 11 },
        "r": { "a": 0, "k": 0, "ix": 10 },
        "p": { "a": 0, "k": [0, 0, 0], "ix": 2 },
        "a": { "a": 0, "k": [25, 25, 0], "ix": 1 },
        "s": { "a": 0, "k": [100, 100, 100], "ix": 6 }
      },
      "ao": 0,
      "shapes": [
        {
          "ty": "gr",
          "it": [
            {
              "ind": 0,
              "ty": "sh",
              "ix": 1,
              "ks": {
                "a": 1,
                "k": [
                  {
                    "i": { "x": 0.667, "y": 1 },
                    "o": { "x": 0.333, "y": 0 },
                    "t": 4,
                    "s": [
                      {
                        "i": [
                          [0, 0],
                          [-2.876, 0],
                          [0, 0]
                        ],
                        "o": [
                          [0, 0],
                          [2.875, 0],
                          [0, 0]
                        ],
                        "v": [
                          [4.001, -1],
                          [9.001, 1],
                          [13.999, -1]
                        ],
                        "c": false
                      }
                    ],
                    "e": [
                      {
                        "i": [
                          [0, 0],
                          [-2.876, 0],
                          [0, 0]
                        ],
                        "o": [
                          [0, 0],
                          [2.875, 0],
                          [0, 0]
                        ],
                        "v": [
                          [4.001, -1],
                          [9.002, 0.344],
                          [13.999, -1]
                        ],
                        "c": false
                      }
                    ]
                  },
                  {
                    "i": { "x": 0.667, "y": 1 },
                    "o": { "x": 0.333, "y": 0 },
                    "t": 11,
                    "s": [
                      {
                        "i": [
                          [0, 0],
                          [-2.876, 0],
                          [0, 0]
                        ],
                        "o": [
                          [0, 0],
                          [2.875, 0],
                          [0, 0]
                        ],
                        "v": [
                          [4.001, -1],
                          [9.002, 0.344],
                          [13.999, -1]
                        ],
                        "c": false
                      }
                    ],
                    "e": [
                      {
                        "i": [
                          [0, 0],
                          [-2.876, 0],
                          [0, 0]
                        ],
                        "o": [
                          [0, 0],
                          [2.875, 0],
                          [0, 0]
                        ],
                        "v": [
                          [4.001, -1],
                          [9.001, 1],
                          [13.999, -1]
                        ],
                        "c": false
                      }
                    ]
                  },
                  { "t": 16 }
                ],
                "ix": 2
              },
              "nm": "Path 1",
              "mn": "ADBE Vector Shape - Group",
              "hd": false
            },
            {
              "ind": 1,
              "ty": "sh",
              "ix": 2,
              "ks": {
                "a": 1,
                "k": [
                  {
                    "i": { "x": 0.667, "y": 1 },
                    "o": { "x": 0.333, "y": 0 },
                    "t": 4,
                    "s": [
                      {
                        "i": [
                          [0, 0],
                          [2.876, 0],
                          [0, 0]
                        ],
                        "o": [
                          [0, 0],
                          [-2.876, 0],
                          [0, 0]
                        ],
                        "v": [
                          [-3.999, -1],
                          [-8.999, 1],
                          [-13.999, -1]
                        ],
                        "c": false
                      }
                    ],
                    "e": [
                      {
                        "i": [
                          [0, 0],
                          [2.876, 0],
                          [0, 0]
                        ],
                        "o": [
                          [0, 0],
                          [-2.876, 0],
                          [0, 0]
                        ],
                        "v": [
                          [-3.999, -1],
                          [-8.998, 0.344],
                          [-13.999, -1]
                        ],
                        "c": false
                      }
                    ]
                  },
                  {
                    "i": { "x": 0.667, "y": 1 },
                    "o": { "x": 0.333, "y": 0 },
                    "t": 11,
                    "s": [
                      {
                        "i": [
                          [0, 0],
                          [2.876, 0],
                          [0, 0]
                        ],
                        "o": [
                          [0, 0],
                          [-2.876, 0],
                          [0, 0]
                        ],
                        "v": [
                          [-3.999, -1],
                          [-8.998, 0.344],
                          [-13.999, -1]
                        ],
                        "c": false
                      }
                    ],
                    "e": [
                      {
                        "i": [
                          [0, 0],
                          [2.876, 0],
                          [0, 0]
                        ],
                        "o": [
                          [0, 0],
                          [-2.876, 0],
                          [0, 0]
                        ],
                        "v": [
                          [-3.999, -1],
                          [-8.999, 1],
                          [-13.999, -1]
                        ],
                        "c": false
                      }
                    ]
                  },
                  { "t": 16 }
                ],
                "ix": 2
              },
              "nm": "Path 2",
              "mn": "ADBE Vector Shape - Group",
              "hd": false
            },
            {
              "ty": "st",
              "c": { "a": 0, "k": [0, 0, 0, 1], "ix": 3 },
              "o": { "a": 0, "k": 100, "ix": 4 },
              "w": { "a": 0, "k": 2, "ix": 5 },
              "lc": 2,
              "lj": 2,
              "bm": 0,
              "nm": "Stroke 1",
              "mn": "ADBE Vector Graphic - Stroke",
              "hd": false
            },
            {
              "ty": "tr",
              "p": { "a": 0, "k": [24.999, 24], "ix": 2 },
              "a": { "a": 0, "k": [0, 0], "ix": 1 },
              "s": { "a": 0, "k": [100, 100], "ix": 3 },
              "r": { "a": 0, "k": 0, "ix": 6 },
              "o": { "a": 0, "k": 100, "ix": 7 },
              "sk": { "a": 0, "k": 0, "ix": 4 },
              "sa": { "a": 0, "k": 0, "ix": 5 },
              "nm": "Transform"
            }
          ],
          "nm": "Group 2",
          "np": 3,
          "cix": 2,
          "bm": 0,
          "ix": 1,
          "mn": "ADBE Vector Group",
          "hd": false
        }
      ],
      "ip": 0,
      "op": 29,
      "st": 0,
      "bm": 0
    },
    {
      "ddd": 0,
      "ind": 6,
      "ty": 4,
      "nm": "Circle",
      "sr": 1,
      "ks": {
        "o": { "a": 0, "k": 100, "ix": 11 },
        "r": { "a": 0, "k": 0, "ix": 10 },
        "p": { "a": 0, "k": [25, 25, 0], "ix": 2 },
        "a": { "a": 0, "k": [25, 25, 0], "ix": 1 },
        "s": { "a": 0, "k": [100, 100, 100], "ix": 6 }
      },
      "ao": 0,
      "shapes": [
        {
          "ty": "gr",
          "it": [
            {
              "ind": 0,
              "ty": "sh",
              "ix": 1,
              "ks": {
                "a": 0,
                "k": {
                  "i": [
                    [12.151, 0],
                    [0, -12.151],
                    [-12.151, 0],
                    [0, 12.151]
                  ],
                  "o": [
                    [-12.151, 0],
                    [0, 12.151],
                    [12.151, 0],
                    [0, -12.151]
                  ],
                  "v": [
                    [0, -22],
                    [-22, 0],
                    [0, 22],
                    [22, 0]
                  ],
                  "c": true
                },
                "ix": 2
              },
              "nm": "Path 1",
              "mn": "ADBE Vector Shape - Group",
              "hd": false
            },
            {
              "ty": "st",
              "c": { "a": 0, "k": [0, 0, 0, 1], "ix": 3 },
              "o": { "a": 0, "k": 100, "ix": 4 },
              "w": { "a": 0, "k": 2, "ix": 5 },
              "lc": 2,
              "lj": 2,
              "bm": 0,
              "nm": "Stroke 1",
              "mn": "ADBE Vector Graphic - Stroke",
              "hd": false
            },
            {
              "ty": "tr",
              "p": { "a": 0, "k": [25, 25], "ix": 2 },
              "a": { "a": 0, "k": [0, 0], "ix": 1 },
              "s": { "a": 0, "k": [100, 100], "ix": 3 },
              "r": { "a": 0, "k": 0, "ix": 6 },
              "o": { "a": 0, "k": 100, "ix": 7 },
              "sk": { "a": 0, "k": 0, "ix": 4 },
              "sa": { "a": 0, "k": 0, "ix": 5 },
              "nm": "Transform"
            }
          ],
          "nm": "Group 3",
          "np": 2,
          "cix": 2,
          "bm": 0,
          "ix": 1,
          "mn": "ADBE Vector Group",
          "hd": false
        }
      ],
      "ip": 0,
      "op": 28,
      "st": 0,
      "bm": 0
    }
  ],
  "markers": []
}
