{
  "v": "5.4.4",
  "fr": 24,
  "ip": 0,
  "op": 28,
  "w": 50,
  "h": 50,
  "nm": "skip-backwards",
  "ddd": 0,
  "assets": [],
  "layers": [
    {
      "ddd": 0,
      "ind": 1,
      "ty": 4,
      "nm": "skip-forwards Outlines 2",
      "sr": 1,
      "ks": {
        "o": { "a": 0, "k": 100, "ix": 11 },
        "r": { "a": 0, "k": 0, "ix": 10 },
        "p": { "a": 0, "k": [25, 25, 0], "ix": 2 },
        "a": { "a": 0, "k": [25, 25, 0], "ix": 1 },
        "s": {
          "a": 1,
          "k": [
            { "i": { "x": [0.667, 0.667, 0.667], "y": [1, 1, 1] }, "o": { "x": [0.333, 0.333, 0.333], "y": [0, 0, 0] }, "t": 6, "s": [-100, 100, 100], "e": [-100, 108, 100] },
            {
              "i": { "x": [0.833, 0.833, 0.833], "y": [0.833, 0.833, 0.833] },
              "o": { "x": [0.167, 0.167, 0.167], "y": [0.167, 0.167, 0.167] },
              "t": 11,
              "s": [-100, 108, 100],
              "e": [-100, 98, 100]
            },
            { "i": { "x": [0.667, 0.667, 0.667], "y": [1, 1, 1] }, "o": { "x": [0.333, 0.333, 0.333], "y": [0, 0, 0] }, "t": 19, "s": [-100, 98, 100], "e": [-100, 101, 100] },
            { "i": { "x": [0.667, 0.667, 0.667], "y": [1, 1, 1] }, "o": { "x": [0.333, 0.333, 0.333], "y": [0, 0, 0] }, "t": 21, "s": [-100, 101, 100], "e": [-100, 100, 100] },
            { "t": 25 }
          ],
          "ix": 6
        }
      },
      "ao": 0,
      "shapes": [
        {
          "ty": "gr",
          "it": [
            {
              "ind": 0,
              "ty": "sh",
              "ix": 1,
              "ks": {
                "a": 1,
                "k": [
                  {
                    "i": { "x": 0.667, "y": 1 },
                    "o": { "x": 0.333, "y": 0 },
                    "t": 6,
                    "s": [
                      {
                        "i": [
                          [0, 0],
                          [0, 0],
                          [0, 0],
                          [0, 0],
                          [0, 0],
                          [0, 0]
                        ],
                        "o": [
                          [0, 0],
                          [0, 0],
                          [0, 0],
                          [0, 0],
                          [0, 0],
                          [0, 0]
                        ],
                        "v": [
                          [3, 15],
                          [-3, 15],
                          [-3, 0.141],
                          [-3, -15],
                          [3, -15],
                          [3, 0.046]
                        ],
                        "c": true
                      }
                    ],
                    "e": [
                      {
                        "i": [
                          [0, 0],
                          [0, 0],
                          [0, 4.969],
                          [0, 0],
                          [0, 0],
                          [0.049, -6.404]
                        ],
                        "o": [
                          [0, 0],
                          [0, 0],
                          [0, -5.031],
                          [0, 0],
                          [0, 0],
                          [-0.063, 8.179]
                        ],
                        "v": [
                          [3, 15],
                          [-3, 15],
                          [-2.344, 0.094],
                          [-3, -15],
                          [3, -15],
                          [3.625, 0.032]
                        ],
                        "c": true
                      }
                    ]
                  },
                  {
                    "i": { "x": 0.833, "y": 0.833 },
                    "o": { "x": 0.167, "y": 0.167 },
                    "t": 11,
                    "s": [
                      {
                        "i": [
                          [0, 0],
                          [0, 0],
                          [0, 4.969],
                          [0, 0],
                          [0, 0],
                          [0.049, -6.404]
                        ],
                        "o": [
                          [0, 0],
                          [0, 0],
                          [0, -5.031],
                          [0, 0],
                          [0, 0],
                          [-0.063, 8.179]
                        ],
                        "v": [
                          [3, 15],
                          [-3, 15],
                          [-2.344, 0.094],
                          [-3, -15],
                          [3, -15],
                          [3.625, 0.032]
                        ],
                        "c": true
                      }
                    ],
                    "e": [
                      {
                        "i": [
                          [0, 0],
                          [0, 0],
                          [0, 0],
                          [0, 0],
                          [0, 0],
                          [0, 0]
                        ],
                        "o": [
                          [0, 0],
                          [0, 0],
                          [0, 0],
                          [0, 0],
                          [0, 0],
                          [0, 0]
                        ],
                        "v": [
                          [3, 15],
                          [-3, 15],
                          [-3, 0.141],
                          [-3, -15],
                          [3, -15],
                          [3, 0.046]
                        ],
                        "c": true
                      }
                    ]
                  },
                  {
                    "i": { "x": 0.667, "y": 1 },
                    "o": { "x": 0.333, "y": 0 },
                    "t": 19,
                    "s": [
                      {
                        "i": [
                          [0, 0],
                          [0, 0],
                          [0, 0],
                          [0, 0],
                          [0, 0],
                          [0, 0]
                        ],
                        "o": [
                          [0, 0],
                          [0, 0],
                          [0, 0],
                          [0, 0],
                          [0, 0],
                          [0, 0]
                        ],
                        "v": [
                          [3, 15],
                          [-3, 15],
                          [-3, 0.141],
                          [-3, -15],
                          [3, -15],
                          [3, 0.046]
                        ],
                        "c": true
                      }
                    ],
                    "e": [
                      {
                        "i": [
                          [0, 0],
                          [0, 0],
                          [0, 4.969],
                          [0, 0],
                          [0, 0],
                          [0.049, -6.404]
                        ],
                        "o": [
                          [0, 0],
                          [0, 0],
                          [0, -5.031],
                          [0, 0],
                          [0, 0],
                          [-0.063, 8.179]
                        ],
                        "v": [
                          [3, 15],
                          [-3, 15],
                          [-2.344, 0.094],
                          [-3, -15],
                          [3, -15],
                          [3.063, 0.032]
                        ],
                        "c": true
                      }
                    ]
                  },
                  {
                    "i": { "x": 0.667, "y": 1 },
                    "o": { "x": 0.333, "y": 0 },
                    "t": 21,
                    "s": [
                      {
                        "i": [
                          [0, 0],
                          [0, 0],
                          [0, 4.969],
                          [0, 0],
                          [0, 0],
                          [0.049, -6.404]
                        ],
                        "o": [
                          [0, 0],
                          [0, 0],
                          [0, -5.031],
                          [0, 0],
                          [0, 0],
                          [-0.063, 8.179]
                        ],
                        "v": [
                          [3, 15],
                          [-3, 15],
                          [-2.344, 0.094],
                          [-3, -15],
                          [3, -15],
                          [3.063, 0.032]
                        ],
                        "c": true
                      }
                    ],
                    "e": [
                      {
                        "i": [
                          [0, 0],
                          [0, 0],
                          [0, 0],
                          [0, 0],
                          [0, 0],
                          [0, 0]
                        ],
                        "o": [
                          [0, 0],
                          [0, 0],
                          [0, 0],
                          [0, 0],
                          [0, 0],
                          [0, 0]
                        ],
                        "v": [
                          [3, 15],
                          [-3, 15],
                          [-3, 0.141],
                          [-3, -15],
                          [3, -15],
                          [3, 0.046]
                        ],
                        "c": true
                      }
                    ]
                  },
                  { "t": 25 }
                ],
                "ix": 2
              },
              "nm": "Path 1",
              "mn": "ADBE Vector Shape - Group",
              "hd": false
            },
            {
              "ty": "st",
              "c": { "a": 0, "k": [0, 0, 0, 1], "ix": 3 },
              "o": { "a": 0, "k": 100, "ix": 4 },
              "w": { "a": 0, "k": 2, "ix": 5 },
              "lc": 1,
              "lj": 1,
              "ml": 10,
              "bm": 0,
              "nm": "Stroke 1",
              "mn": "ADBE Vector Graphic - Stroke",
              "hd": false
            },
            {
              "ty": "tr",
              "p": { "a": 0, "k": [36, 25], "ix": 2 },
              "a": { "a": 0, "k": [0, 0], "ix": 1 },
              "s": { "a": 0, "k": [100, 100], "ix": 3 },
              "r": { "a": 0, "k": 0, "ix": 6 },
              "o": { "a": 0, "k": 100, "ix": 7 },
              "sk": { "a": 0, "k": 0, "ix": 4 },
              "sa": { "a": 0, "k": 0, "ix": 5 },
              "nm": "Transform"
            }
          ],
          "nm": "Group 1",
          "np": 2,
          "cix": 2,
          "bm": 0,
          "ix": 1,
          "mn": "ADBE Vector Group",
          "hd": false
        }
      ],
      "ip": 0,
      "op": 28,
      "st": 0,
      "bm": 0
    },
    {
      "ddd": 0,
      "ind": 2,
      "ty": 4,
      "nm": "skip-forwards Outlines 3",
      "td": 1,
      "sr": 1,
      "ks": {
        "o": { "a": 0, "k": 100, "ix": 11 },
        "r": { "a": 0, "k": 0, "ix": 10 },
        "p": { "a": 0, "k": [25, 25, 0], "ix": 2 },
        "a": { "a": 0, "k": [25, 25, 0], "ix": 1 },
        "s": {
          "a": 1,
          "k": [
            { "i": { "x": [0.667, 0.667, 0.667], "y": [1, 1, 1] }, "o": { "x": [0.333, 0.333, 0.333], "y": [0, 0, 0] }, "t": 6, "s": [-100, 100, 100], "e": [-100, 108, 100] },
            {
              "i": { "x": [0.833, 0.833, 0.833], "y": [0.833, 0.833, 0.833] },
              "o": { "x": [0.167, 0.167, 0.167], "y": [0.167, 0.167, 0.167] },
              "t": 11,
              "s": [-100, 108, 100],
              "e": [-100, 98, 100]
            },
            { "i": { "x": [0.667, 0.667, 0.667], "y": [1, 1, 1] }, "o": { "x": [0.333, 0.333, 0.333], "y": [0, 0, 0] }, "t": 19, "s": [-100, 98, 100], "e": [-100, 101, 100] },
            { "i": { "x": [0.667, 0.667, 0.667], "y": [1, 1, 1] }, "o": { "x": [0.333, 0.333, 0.333], "y": [0, 0, 0] }, "t": 21, "s": [-100, 101, 100], "e": [-100, 100, 100] },
            { "t": 25 }
          ],
          "ix": 6
        }
      },
      "ao": 0,
      "shapes": [
        {
          "ty": "gr",
          "it": [
            {
              "ind": 0,
              "ty": "sh",
              "ix": 1,
              "ks": {
                "a": 1,
                "k": [
                  {
                    "i": { "x": 0.667, "y": 1 },
                    "o": { "x": 0.333, "y": 0 },
                    "t": 6,
                    "s": [
                      {
                        "i": [
                          [0, 0],
                          [0, 0],
                          [0, 0],
                          [0, 0],
                          [0, 0],
                          [0, 0]
                        ],
                        "o": [
                          [0, 0],
                          [0, 0],
                          [0, 0],
                          [0, 0],
                          [0, 0],
                          [0, 0]
                        ],
                        "v": [
                          [3, 15],
                          [-3, 15],
                          [-3, 0.141],
                          [-3, -15],
                          [3, -15],
                          [3, 0.046]
                        ],
                        "c": true
                      }
                    ],
                    "e": [
                      {
                        "i": [
                          [0, 0],
                          [0, 0],
                          [0, 4.969],
                          [0, 0],
                          [0, 0],
                          [0.049, -6.404]
                        ],
                        "o": [
                          [0, 0],
                          [0, 0],
                          [0, -5.031],
                          [0, 0],
                          [0, 0],
                          [-0.063, 8.179]
                        ],
                        "v": [
                          [3, 15],
                          [-3, 15],
                          [-2.344, 0.094],
                          [-3, -15],
                          [3, -15],
                          [3.625, 0.032]
                        ],
                        "c": true
                      }
                    ]
                  },
                  {
                    "i": { "x": 0.833, "y": 0.833 },
                    "o": { "x": 0.167, "y": 0.167 },
                    "t": 11,
                    "s": [
                      {
                        "i": [
                          [0, 0],
                          [0, 0],
                          [0, 4.969],
                          [0, 0],
                          [0, 0],
                          [0.049, -6.404]
                        ],
                        "o": [
                          [0, 0],
                          [0, 0],
                          [0, -5.031],
                          [0, 0],
                          [0, 0],
                          [-0.063, 8.179]
                        ],
                        "v": [
                          [3, 15],
                          [-3, 15],
                          [-2.344, 0.094],
                          [-3, -15],
                          [3, -15],
                          [3.625, 0.032]
                        ],
                        "c": true
                      }
                    ],
                    "e": [
                      {
                        "i": [
                          [0, 0],
                          [0, 0],
                          [0, 0],
                          [0, 0],
                          [0, 0],
                          [0, 0]
                        ],
                        "o": [
                          [0, 0],
                          [0, 0],
                          [0, 0],
                          [0, 0],
                          [0, 0],
                          [0, 0]
                        ],
                        "v": [
                          [3, 15],
                          [-3, 15],
                          [-3, 0.141],
                          [-3, -15],
                          [3, -15],
                          [3, 0.046]
                        ],
                        "c": true
                      }
                    ]
                  },
                  {
                    "i": { "x": 0.667, "y": 1 },
                    "o": { "x": 0.333, "y": 0 },
                    "t": 19,
                    "s": [
                      {
                        "i": [
                          [0, 0],
                          [0, 0],
                          [0, 0],
                          [0, 0],
                          [0, 0],
                          [0, 0]
                        ],
                        "o": [
                          [0, 0],
                          [0, 0],
                          [0, 0],
                          [0, 0],
                          [0, 0],
                          [0, 0]
                        ],
                        "v": [
                          [3, 15],
                          [-3, 15],
                          [-3, 0.141],
                          [-3, -15],
                          [3, -15],
                          [3, 0.046]
                        ],
                        "c": true
                      }
                    ],
                    "e": [
                      {
                        "i": [
                          [0, 0],
                          [0, 0],
                          [0, 4.969],
                          [0, 0],
                          [0, 0],
                          [0.049, -6.404]
                        ],
                        "o": [
                          [0, 0],
                          [0, 0],
                          [0, -5.031],
                          [0, 0],
                          [0, 0],
                          [-0.063, 8.179]
                        ],
                        "v": [
                          [3, 15],
                          [-3, 15],
                          [-2.344, 0.094],
                          [-3, -15],
                          [3, -15],
                          [3.063, 0.032]
                        ],
                        "c": true
                      }
                    ]
                  },
                  {
                    "i": { "x": 0.667, "y": 1 },
                    "o": { "x": 0.333, "y": 0 },
                    "t": 21,
                    "s": [
                      {
                        "i": [
                          [0, 0],
                          [0, 0],
                          [0, 4.969],
                          [0, 0],
                          [0, 0],
                          [0.049, -6.404]
                        ],
                        "o": [
                          [0, 0],
                          [0, 0],
                          [0, -5.031],
                          [0, 0],
                          [0, 0],
                          [-0.063, 8.179]
                        ],
                        "v": [
                          [3, 15],
                          [-3, 15],
                          [-2.344, 0.094],
                          [-3, -15],
                          [3, -15],
                          [3.063, 0.032]
                        ],
                        "c": true
                      }
                    ],
                    "e": [
                      {
                        "i": [
                          [0, 0],
                          [0, 0],
                          [0, 0],
                          [0, 0],
                          [0, 0],
                          [0, 0]
                        ],
                        "o": [
                          [0, 0],
                          [0, 0],
                          [0, 0],
                          [0, 0],
                          [0, 0],
                          [0, 0]
                        ],
                        "v": [
                          [3, 15],
                          [-3, 15],
                          [-3, 0.141],
                          [-3, -15],
                          [3, -15],
                          [3, 0.046]
                        ],
                        "c": true
                      }
                    ]
                  },
                  { "t": 25 }
                ],
                "ix": 2
              },
              "nm": "Path 1",
              "mn": "ADBE Vector Shape - Group",
              "hd": false
            },
            {
              "ty": "fl",
              "c": { "a": 0, "k": [0.305999995213, 1, 0.165000002992, 1], "ix": 4 },
              "o": { "a": 0, "k": 100, "ix": 5 },
              "r": 1,
              "bm": 0,
              "nm": "Fill 1",
              "mn": "ADBE Vector Graphic - Fill",
              "hd": false
            },
            {
              "ty": "tr",
              "p": { "a": 0, "k": [36, 25], "ix": 2 },
              "a": { "a": 0, "k": [0, 0], "ix": 1 },
              "s": { "a": 0, "k": [100, 100], "ix": 3 },
              "r": { "a": 0, "k": 0, "ix": 6 },
              "o": { "a": 0, "k": 100, "ix": 7 },
              "sk": { "a": 0, "k": 0, "ix": 4 },
              "sa": { "a": 0, "k": 0, "ix": 5 },
              "nm": "Transform"
            }
          ],
          "nm": "Group 1",
          "np": 2,
          "cix": 2,
          "bm": 0,
          "ix": 1,
          "mn": "ADBE Vector Group",
          "hd": false
        },
        {
          "ty": "gr",
          "it": [
            {
              "ty": "rc",
              "d": 1,
              "s": { "a": 0, "k": [100, 100], "ix": 2 },
              "p": { "a": 0, "k": [86, 23], "ix": 3 },
              "r": { "a": 0, "k": 0, "ix": 4 },
              "nm": "Rectangle Path 1",
              "mn": "ADBE Vector Shape - Rect",
              "hd": false
            },
            {
              "ty": "fl",
              "c": { "a": 0, "k": [1, 0, 0, 1], "ix": 4 },
              "o": { "a": 0, "k": 100, "ix": 5 },
              "r": 1,
              "bm": 0,
              "nm": "Fill 1",
              "mn": "ADBE Vector Graphic - Fill",
              "hd": false
            },
            {
              "ty": "tr",
              "p": { "a": 0, "k": [0, 0], "ix": 2 },
              "a": { "a": 0, "k": [0, 0], "ix": 1 },
              "s": { "a": 0, "k": [100, 100], "ix": 3 },
              "r": { "a": 0, "k": 0, "ix": 6 },
              "o": { "a": 0, "k": 100, "ix": 7 },
              "sk": { "a": 0, "k": 0, "ix": 4 },
              "sa": { "a": 0, "k": 0, "ix": 5 },
              "nm": "Transform"
            }
          ],
          "nm": "Group 2",
          "np": 2,
          "cix": 2,
          "bm": 0,
          "ix": 2,
          "mn": "ADBE Vector Group",
          "hd": false
        }
      ],
      "ip": 0,
      "op": 28,
      "st": 0,
      "bm": 0
    },
    {
      "ddd": 0,
      "ind": 3,
      "ty": 4,
      "nm": "skip-forwards Outlines 4",
      "tt": 2,
      "sr": 1,
      "ks": {
        "o": { "a": 0, "k": 100, "ix": 11 },
        "r": { "a": 0, "k": 0, "ix": 10 },
        "p": {
          "s": true,
          "x": {
            "a": 1,
            "k": [
              { "i": { "x": [0.667], "y": [1] }, "o": { "x": [0.333], "y": [0] }, "t": 3, "s": [24.833], "e": [27.083] },
              { "i": { "x": [0.833], "y": [0.833] }, "o": { "x": [0.333], "y": [0] }, "t": 7, "s": [27.083], "e": [-20.167] },
              { "t": 17 }
            ],
            "ix": 3
          },
          "y": { "a": 0, "k": 25, "ix": 4 }
        },
        "a": { "a": 0, "k": [25, 25, 0], "ix": 1 },
        "s": {
          "a": 1,
          "k": [
            { "i": { "x": [0.667, 0.667, 0.667], "y": [1, 1, 1] }, "o": { "x": [0.333, 0.333, 0.333], "y": [0, 0, 0] }, "t": 3, "s": [-100, 100, 100], "e": [-97, 102, 100] },
            { "i": { "x": [0.667, 0.667, 0.667], "y": [1, 1, 1] }, "o": { "x": [0.333, 0.333, 0.333], "y": [0, 0, 0] }, "t": 7, "s": [-97, 102, 100], "e": [-106, 86, 100] },
            {
              "i": { "x": [0.833, 0.833, 0.833], "y": [0.833, 0.833, 0.833] },
              "o": { "x": [0.167, 0.167, 0.167], "y": [0.167, 0.167, 0.167] },
              "t": 11,
              "s": [-106, 86, 100],
              "e": [-106, 86, 100]
            },
            { "i": { "x": [0.667, 0.667, 0.667], "y": [1, 1, 1] }, "o": { "x": [0.333, 0.333, 0.333], "y": [0, 0, 0] }, "t": 17, "s": [-106, 86, 100], "e": [-98, 102, 100] },
            { "i": { "x": [0.667, 0.667, 0.667], "y": [1, 1, 1] }, "o": { "x": [0.333, 0.333, 0.333], "y": [0, 0, 0] }, "t": 21, "s": [-98, 102, 100], "e": [-100, 100, 100] },
            { "t": 25 }
          ],
          "ix": 6
        }
      },
      "ao": 0,
      "shapes": [
        {
          "ty": "gr",
          "it": [
            {
              "ind": 0,
              "ty": "sh",
              "ix": 1,
              "ks": {
                "a": 1,
                "k": [
                  {
                    "i": { "x": 0.667, "y": 1 },
                    "o": { "x": 0.333, "y": 0 },
                    "t": 3,
                    "s": [
                      {
                        "i": [
                          [0, 0],
                          [0, 0],
                          [0, 0],
                          [0, 0]
                        ],
                        "o": [
                          [0, 0],
                          [0, 0],
                          [0, 0],
                          [0, 0]
                        ],
                        "v": [
                          [-11, -15],
                          [-11, -1.377],
                          [-11, 15],
                          [11, 0]
                        ],
                        "c": true
                      }
                    ],
                    "e": [
                      {
                        "i": [
                          [0, 0],
                          [0, -4.821],
                          [0, 0],
                          [0, 0]
                        ],
                        "o": [
                          [0, 0],
                          [0, 5.188],
                          [0, 0],
                          [0, 0]
                        ],
                        "v": [
                          [-11, -15],
                          [-10.356, -0.551],
                          [-11, 15],
                          [11, 0]
                        ],
                        "c": true
                      }
                    ]
                  },
                  {
                    "i": { "x": 0.667, "y": 1 },
                    "o": { "x": 0.333, "y": 0 },
                    "t": 7,
                    "s": [
                      {
                        "i": [
                          [0, 0],
                          [0, -4.821],
                          [0, 0],
                          [0, 0]
                        ],
                        "o": [
                          [0, 0],
                          [0, 5.188],
                          [0, 0],
                          [0, 0]
                        ],
                        "v": [
                          [-11, -15],
                          [-10.356, -0.551],
                          [-11, 15],
                          [11, 0]
                        ],
                        "c": true
                      }
                    ],
                    "e": [
                      {
                        "i": [
                          [0, 0],
                          [0, 0],
                          [0, 0],
                          [0, 0]
                        ],
                        "o": [
                          [0, 0],
                          [0, 0],
                          [0, 0],
                          [0, 0]
                        ],
                        "v": [
                          [-11, -15],
                          [-11, -1.377],
                          [-11, 15],
                          [11, 0]
                        ],
                        "c": true
                      }
                    ]
                  },
                  { "t": 11 }
                ],
                "ix": 2
              },
              "nm": "Path 1",
              "mn": "ADBE Vector Shape - Group",
              "hd": false
            },
            {
              "ty": "st",
              "c": { "a": 0, "k": [0, 0, 0, 1], "ix": 3 },
              "o": { "a": 0, "k": 100, "ix": 4 },
              "w": { "a": 0, "k": 2, "ix": 5 },
              "lc": 1,
              "lj": 1,
              "ml": 10,
              "bm": 0,
              "nm": "Stroke 1",
              "mn": "ADBE Vector Graphic - Stroke",
              "hd": false
            },
            {
              "ty": "tr",
              "p": { "a": 0, "k": [22, 25], "ix": 2 },
              "a": { "a": 0, "k": [0, 0], "ix": 1 },
              "s": { "a": 0, "k": [100, 100], "ix": 3 },
              "r": { "a": 0, "k": 0, "ix": 6 },
              "o": { "a": 0, "k": 100, "ix": 7 },
              "sk": { "a": 0, "k": 0, "ix": 4 },
              "sa": { "a": 0, "k": 0, "ix": 5 },
              "nm": "Transform"
            }
          ],
          "nm": "Group 2",
          "np": 2,
          "cix": 2,
          "bm": 0,
          "ix": 1,
          "mn": "ADBE Vector Group",
          "hd": false
        }
      ],
      "ip": 0,
      "op": 28,
      "st": 0,
      "bm": 0
    },
    {
      "ddd": 0,
      "ind": 4,
      "ty": 4,
      "nm": "skip-forwards Outlines 5",
      "td": 1,
      "sr": 1,
      "ks": {
        "o": { "a": 0, "k": 100, "ix": 11 },
        "r": { "a": 0, "k": 0, "ix": 10 },
        "p": { "a": 0, "k": [25, 25, 0], "ix": 2 },
        "a": { "a": 0, "k": [25, 25, 0], "ix": 1 },
        "s": {
          "a": 1,
          "k": [
            { "i": { "x": [0.667, 0.667, 0.667], "y": [1, 1, 1] }, "o": { "x": [0.333, 0.333, 0.333], "y": [0, 0, 0] }, "t": 3, "s": [-100, 100, 100], "e": [-100, 102, 100] },
            {
              "i": { "x": [0.833, 0.833, 0.833], "y": [0.833, 0.833, 0.833] },
              "o": { "x": [0.167, 0.167, 0.167], "y": [0.167, 0.167, 0.167] },
              "t": 11,
              "s": [-100, 102, 100],
              "e": [-100, 98, 100]
            },
            { "i": { "x": [0.667, 0.667, 0.667], "y": [1, 1, 1] }, "o": { "x": [0.333, 0.333, 0.333], "y": [0, 0, 0] }, "t": 19, "s": [-100, 98, 100], "e": [-100, 101, 100] },
            { "i": { "x": [0.667, 0.667, 0.667], "y": [1, 1, 1] }, "o": { "x": [0.333, 0.333, 0.333], "y": [0, 0, 0] }, "t": 21, "s": [-100, 101, 100], "e": [-100, 100, 100] },
            { "t": 25 }
          ],
          "ix": 6
        }
      },
      "ao": 0,
      "shapes": [
        {
          "ty": "gr",
          "it": [
            {
              "ind": 0,
              "ty": "sh",
              "ix": 1,
              "ks": {
                "a": 1,
                "k": [
                  {
                    "i": { "x": 0.667, "y": 1 },
                    "o": { "x": 0.333, "y": 0 },
                    "t": 3,
                    "s": [
                      {
                        "i": [
                          [0, 0],
                          [0, 0],
                          [0, 0],
                          [0, 0],
                          [0, 0],
                          [0, 0]
                        ],
                        "o": [
                          [0, 0],
                          [0, 0],
                          [0, 0],
                          [0, 0],
                          [0, 0],
                          [0, 0]
                        ],
                        "v": [
                          [3, 15],
                          [-3, 15],
                          [-3, 0.141],
                          [-3, -15],
                          [3, -15],
                          [3, 0.046]
                        ],
                        "c": true
                      }
                    ],
                    "e": [
                      {
                        "i": [
                          [0, 0],
                          [0, 0],
                          [0, 4.969],
                          [0, 0],
                          [0, 0],
                          [0.049, -6.404]
                        ],
                        "o": [
                          [0, 0],
                          [0, 0],
                          [0, -5.031],
                          [0, 0],
                          [0, 0],
                          [-0.063, 8.179]
                        ],
                        "v": [
                          [3, 15],
                          [-3, 15],
                          [-2.344, 0.094],
                          [-3, -15],
                          [3, -15],
                          [3.625, 0.032]
                        ],
                        "c": true
                      }
                    ]
                  },
                  {
                    "i": { "x": 0.833, "y": 0.833 },
                    "o": { "x": 0.167, "y": 0.167 },
                    "t": 11,
                    "s": [
                      {
                        "i": [
                          [0, 0],
                          [0, 0],
                          [0, 4.969],
                          [0, 0],
                          [0, 0],
                          [0.049, -6.404]
                        ],
                        "o": [
                          [0, 0],
                          [0, 0],
                          [0, -5.031],
                          [0, 0],
                          [0, 0],
                          [-0.063, 8.179]
                        ],
                        "v": [
                          [3, 15],
                          [-3, 15],
                          [-2.344, 0.094],
                          [-3, -15],
                          [3, -15],
                          [3.625, 0.032]
                        ],
                        "c": true
                      }
                    ],
                    "e": [
                      {
                        "i": [
                          [0, 0],
                          [0, 0],
                          [0, 0],
                          [0, 0],
                          [0, 0],
                          [0, 0]
                        ],
                        "o": [
                          [0, 0],
                          [0, 0],
                          [0, 0],
                          [0, 0],
                          [0, 0],
                          [0, 0]
                        ],
                        "v": [
                          [3, 15],
                          [-3, 15],
                          [-3, 0.141],
                          [-3, -15],
                          [3, -15],
                          [3, 0.046]
                        ],
                        "c": true
                      }
                    ]
                  },
                  {
                    "i": { "x": 0.667, "y": 1 },
                    "o": { "x": 0.333, "y": 0 },
                    "t": 19,
                    "s": [
                      {
                        "i": [
                          [0, 0],
                          [0, 0],
                          [0, 0],
                          [0, 0],
                          [0, 0],
                          [0, 0]
                        ],
                        "o": [
                          [0, 0],
                          [0, 0],
                          [0, 0],
                          [0, 0],
                          [0, 0],
                          [0, 0]
                        ],
                        "v": [
                          [3, 15],
                          [-3, 15],
                          [-3, 0.141],
                          [-3, -15],
                          [3, -15],
                          [3, 0.046]
                        ],
                        "c": true
                      }
                    ],
                    "e": [
                      {
                        "i": [
                          [0, 0],
                          [0, 0],
                          [0, 4.969],
                          [0, 0],
                          [0, 0],
                          [0.049, -6.404]
                        ],
                        "o": [
                          [0, 0],
                          [0, 0],
                          [0, -5.031],
                          [0, 0],
                          [0, 0],
                          [-0.063, 8.179]
                        ],
                        "v": [
                          [3, 15],
                          [-3, 15],
                          [-2.344, 0.094],
                          [-3, -15],
                          [3, -15],
                          [3.063, 0.032]
                        ],
                        "c": true
                      }
                    ]
                  },
                  {
                    "i": { "x": 0.667, "y": 1 },
                    "o": { "x": 0.333, "y": 0 },
                    "t": 21,
                    "s": [
                      {
                        "i": [
                          [0, 0],
                          [0, 0],
                          [0, 4.969],
                          [0, 0],
                          [0, 0],
                          [0.049, -6.404]
                        ],
                        "o": [
                          [0, 0],
                          [0, 0],
                          [0, -5.031],
                          [0, 0],
                          [0, 0],
                          [-0.063, 8.179]
                        ],
                        "v": [
                          [3, 15],
                          [-3, 15],
                          [-2.344, 0.094],
                          [-3, -15],
                          [3, -15],
                          [3.063, 0.032]
                        ],
                        "c": true
                      }
                    ],
                    "e": [
                      {
                        "i": [
                          [0, 0],
                          [0, 0],
                          [0, 0],
                          [0, 0],
                          [0, 0],
                          [0, 0]
                        ],
                        "o": [
                          [0, 0],
                          [0, 0],
                          [0, 0],
                          [0, 0],
                          [0, 0],
                          [0, 0]
                        ],
                        "v": [
                          [3, 15],
                          [-3, 15],
                          [-3, 0.141],
                          [-3, -15],
                          [3, -15],
                          [3, 0.046]
                        ],
                        "c": true
                      }
                    ]
                  },
                  { "t": 25 }
                ],
                "ix": 2
              },
              "nm": "Path 1",
              "mn": "ADBE Vector Shape - Group",
              "hd": false
            },
            {
              "ty": "fl",
              "c": { "a": 0, "k": [0.305999995213, 1, 0.165000002992, 1], "ix": 4 },
              "o": { "a": 0, "k": 100, "ix": 5 },
              "r": 1,
              "bm": 0,
              "nm": "Fill 1",
              "mn": "ADBE Vector Graphic - Fill",
              "hd": false
            },
            {
              "ty": "tr",
              "p": { "a": 0, "k": [36, 25], "ix": 2 },
              "a": { "a": 0, "k": [0, 0], "ix": 1 },
              "s": { "a": 0, "k": [100, 100], "ix": 3 },
              "r": { "a": 0, "k": 0, "ix": 6 },
              "o": { "a": 0, "k": 100, "ix": 7 },
              "sk": { "a": 0, "k": 0, "ix": 4 },
              "sa": { "a": 0, "k": 0, "ix": 5 },
              "nm": "Transform"
            }
          ],
          "nm": "Group 1",
          "np": 2,
          "cix": 2,
          "bm": 0,
          "ix": 1,
          "mn": "ADBE Vector Group",
          "hd": false
        }
      ],
      "ip": 0,
      "op": 28,
      "st": 0,
      "bm": 0
    },
    {
      "ddd": 0,
      "ind": 5,
      "ty": 4,
      "nm": "skip-forwards Outlines",
      "tt": 2,
      "sr": 1,
      "ks": {
        "o": { "a": 0, "k": 100, "ix": 11 },
        "r": { "a": 0, "k": 0, "ix": 10 },
        "p": {
          "s": true,
          "x": {
            "a": 1,
            "k": [
              { "i": { "x": [0.667], "y": [1] }, "o": { "x": [0.333], "y": [0] }, "t": 17, "s": [64.833], "e": [23.708] },
              { "i": { "x": [0.667], "y": [1] }, "o": { "x": [0.333], "y": [0] }, "t": 21, "s": [23.708], "e": [24.833] },
              { "t": 25 }
            ],
            "ix": 3
          },
          "y": { "a": 0, "k": 25, "ix": 4 }
        },
        "a": { "a": 0, "k": [25, 25, 0], "ix": 1 },
        "s": {
          "a": 1,
          "k": [
            { "i": { "x": [0.667, 0.667, 0.667], "y": [1, 1, 1] }, "o": { "x": [0.333, 0.333, 0.333], "y": [0, 0, 0] }, "t": 3, "s": [-100, 100, 100], "e": [-97, 102, 100] },
            { "i": { "x": [0.667, 0.667, 0.667], "y": [1, 1, 1] }, "o": { "x": [0.333, 0.333, 0.333], "y": [0, 0, 0] }, "t": 7, "s": [-97, 102, 100], "e": [-106, 86, 100] },
            {
              "i": { "x": [0.833, 0.833, 0.833], "y": [0.833, 0.833, 0.833] },
              "o": { "x": [0.167, 0.167, 0.167], "y": [0.167, 0.167, 0.167] },
              "t": 11,
              "s": [-106, 86, 100],
              "e": [-106, 86, 100]
            },
            { "i": { "x": [0.667, 0.667, 0.667], "y": [1, 1, 1] }, "o": { "x": [0.333, 0.333, 0.333], "y": [0, 0, 0] }, "t": 17, "s": [-106, 86, 100], "e": [-98, 102, 100] },
            { "i": { "x": [0.667, 0.667, 0.667], "y": [1, 1, 1] }, "o": { "x": [0.333, 0.333, 0.333], "y": [0, 0, 0] }, "t": 21, "s": [-98, 102, 100], "e": [-100, 100, 100] },
            { "t": 25 }
          ],
          "ix": 6
        }
      },
      "ao": 0,
      "shapes": [
        {
          "ty": "gr",
          "it": [
            {
              "ind": 0,
              "ty": "sh",
              "ix": 1,
              "ks": {
                "a": 0,
                "k": {
                  "i": [
                    [0, 0],
                    [0, 0],
                    [0, 0]
                  ],
                  "o": [
                    [0, 0],
                    [0, 0],
                    [0, 0]
                  ],
                  "v": [
                    [-11, -15],
                    [-11, 15],
                    [11, 0]
                  ],
                  "c": true
                },
                "ix": 2
              },
              "nm": "Path 1",
              "mn": "ADBE Vector Shape - Group",
              "hd": false
            },
            {
              "ty": "st",
              "c": { "a": 0, "k": [0, 0, 0, 1], "ix": 3 },
              "o": { "a": 0, "k": 100, "ix": 4 },
              "w": { "a": 0, "k": 2, "ix": 5 },
              "lc": 1,
              "lj": 1,
              "ml": 10,
              "bm": 0,
              "nm": "Stroke 1",
              "mn": "ADBE Vector Graphic - Stroke",
              "hd": false
            },
            {
              "ty": "tr",
              "p": { "a": 0, "k": [22, 25], "ix": 2 },
              "a": { "a": 0, "k": [0, 0], "ix": 1 },
              "s": { "a": 0, "k": [100, 100], "ix": 3 },
              "r": { "a": 0, "k": 0, "ix": 6 },
              "o": { "a": 0, "k": 100, "ix": 7 },
              "sk": { "a": 0, "k": 0, "ix": 4 },
              "sa": { "a": 0, "k": 0, "ix": 5 },
              "nm": "Transform"
            }
          ],
          "nm": "Group 2",
          "np": 2,
          "cix": 2,
          "bm": 0,
          "ix": 1,
          "mn": "ADBE Vector Group",
          "hd": false
        }
      ],
      "ip": 0,
      "op": 28,
      "st": 0,
      "bm": 0
    }
  ],
  "markers": []
}
