{
  "v": "5.5.8",
  "fr": 24,
  "ip": 0,
  "op": 28,
  "w": 50,
  "h": 50,
  "nm": "viber",
  "ddd": 0,
  "assets": [],
  "layers": [
    {
      "ddd": 0,
      "ind": 1,
      "ty": 4,
      "nm": "bubble",
      "sr": 1,
      "ks": {
        "o": { "a": 0, "k": 100, "ix": 11 },
        "r": {
          "a": 1,
          "k": [
            { "i": { "x": [0.667], "y": [1] }, "o": { "x": [0.333], "y": [0] }, "t": 3, "s": [0] },
            { "i": { "x": [0.667], "y": [1] }, "o": { "x": [0.333], "y": [0] }, "t": 7, "s": [8] },
            { "i": { "x": [0.833], "y": [0.833] }, "o": { "x": [0.167], "y": [0.167] }, "t": 11, "s": [0] },
            { "i": { "x": [0.667], "y": [1] }, "o": { "x": [0.333], "y": [0] }, "t": 17, "s": [0] },
            { "i": { "x": [0.667], "y": [1] }, "o": { "x": [0.333], "y": [0] }, "t": 21, "s": [-8] },
            { "t": 25, "s": [0] }
          ],
          "ix": 10
        },
        "p": { "a": 0, "k": [25, 25, 0], "ix": 2 },
        "a": { "a": 0, "k": [25, 25, 0], "ix": 1 },
        "s": { "a": 0, "k": [100, 100, 100], "ix": 6 }
      },
      "ao": 0,
      "shapes": [
        {
          "ty": "gr",
          "it": [
            {
              "ind": 0,
              "ty": "sh",
              "ix": 1,
              "ks": {
                "a": 0,
                "k": {
                  "i": [
                    [0, 0],
                    [0, 0],
                    [-1.568, 1.714],
                    [-0.837, 0.017],
                    [-2.137, 0.117],
                    [-2.601, 1.086],
                    [-1.109, 2.249],
                    [-0.24, 2.684],
                    [1.24, 4.43],
                    [2.132, 1.469],
                    [3.016, 0.45],
                    [3.559, -0.436],
                    [2.377, -1.092],
                    [0.768, -4.215],
                    [0.157, -1.906],
                    [-1.028, -3.576],
                    [-2.481, -1.56],
                    [-0.961, -0.446],
                    [0.009, -0.746]
                  ],
                  "o": [
                    [0, 0],
                    [0, 0],
                    [0.524, -0.572],
                    [2.14, -0.043],
                    [2.801, -0.153],
                    [2.251, -0.94],
                    [1.191, -2.416],
                    [0.408, -4.559],
                    [-0.698, -2.493],
                    [-2.588, -1.783],
                    [-3.519, -0.524],
                    [-2.582, 0.316],
                    [-3.77, 1.732],
                    [-0.343, 1.881],
                    [-0.303, 3.686],
                    [0.799, 2.78],
                    [0.896, 0.563],
                    [0.61, 0.282],
                    [-0.028, 2.366]
                  ],
                  "v": [
                    [-10.016, 22.093],
                    [-9.63, 22.093],
                    [-3.497, 15.974],
                    [-2.016, 15.093],
                    [4.402, 14.853],
                    [12.564, 13.343],
                    [17.71, 8.684],
                    [19.781, 1.021],
                    [18.801, -12.483],
                    [14.607, -18.48],
                    [6.036, -21.407],
                    [-4.577, -21.657],
                    [-12.042, -19.725],
                    [-19.111, -10.993],
                    [-19.885, -5.303],
                    [-18.969, 5.624],
                    [-14.275, 12.337],
                    [-10.921, 13.718],
                    [-10.016, 15.093]
                  ],
                  "c": true
                },
                "ix": 2
              },
              "nm": "Path 1",
              "mn": "ADBE Vector Shape - Group",
              "hd": false
            },
            {
              "ty": "st",
              "c": { "a": 0, "k": [0, 0, 0, 1], "ix": 3 },
              "o": { "a": 0, "k": 100, "ix": 4 },
              "w": { "a": 0, "k": 2, "ix": 5 },
              "lc": 1,
              "lj": 1,
              "ml": 10,
              "bm": 0,
              "nm": "Stroke 1",
              "mn": "ADBE Vector Graphic - Stroke",
              "hd": false
            },
            {
              "ty": "tr",
              "p": { "a": 0, "k": [25.015, 25.907], "ix": 2 },
              "a": { "a": 0, "k": [0, 0], "ix": 1 },
              "s": { "a": 0, "k": [100, 100], "ix": 3 },
              "r": { "a": 0, "k": 0, "ix": 6 },
              "o": { "a": 0, "k": 100, "ix": 7 },
              "sk": { "a": 0, "k": 0, "ix": 4 },
              "sa": { "a": 0, "k": 0, "ix": 5 },
              "nm": "Transform"
            }
          ],
          "nm": "Group 1",
          "np": 2,
          "cix": 2,
          "bm": 0,
          "ix": 1,
          "mn": "ADBE Vector Group",
          "hd": false
        }
      ],
      "ip": 0,
      "op": 28,
      "st": 0,
      "bm": 0
    },
    {
      "ddd": 0,
      "ind": 2,
      "ty": 4,
      "nm": "phone",
      "parent": 1,
      "sr": 1,
      "ks": {
        "o": { "a": 0, "k": 100, "ix": 11 },
        "r": { "a": 0, "k": 0, "ix": 10 },
        "p": { "a": 0, "k": [25, 25, 0], "ix": 2 },
        "a": { "a": 0, "k": [25, 25, 0], "ix": 1 },
        "s": {
          "a": 1,
          "k": [
            { "i": { "x": [0.667, 0.667, 0.667], "y": [1, 1, 1] }, "o": { "x": [0.333, 0.333, 0.333], "y": [0, 0, 0] }, "t": 3, "s": [100, 100, 100] },
            { "i": { "x": [0.833, 0.833, 0.833], "y": [0.833, 0.833, 0.833] }, "o": { "x": [0.167, 0.167, 0.167], "y": [0.167, 0.167, 0.167] }, "t": 11, "s": [80, 80, 100] },
            { "i": { "x": [0.667, 0.667, 0.667], "y": [1, 1, 1] }, "o": { "x": [0.333, 0.333, 0.333], "y": [0, 0, 0] }, "t": 17, "s": [80, 80, 100] },
            { "t": 25, "s": [100, 100, 100] }
          ],
          "ix": 6
        }
      },
      "ao": 0,
      "shapes": [
        {
          "ty": "gr",
          "it": [
            {
              "ind": 0,
              "ty": "sh",
              "ix": 1,
              "ks": {
                "a": 0,
                "k": {
                  "i": [
                    [0.052, 0.327],
                    [-1.82, 0.401],
                    [-0.517, -0.493],
                    [-0.851, -1.773],
                    [0.634, -0.578],
                    [0.142, -0.107],
                    [-0.771, -1.637],
                    [-2.818, -1.161],
                    [-0.568, 0.602],
                    [-0.056, 0.094],
                    [-1.487, -1.058],
                    [-0.966, -0.709],
                    [0.895, -1.463],
                    [1.153, -0.481],
                    [0.83, 0.352],
                    [3.612, 6.678],
                    [0.593, 1.454]
                  ],
                  "o": [
                    [0.051, -2.35],
                    [0.696, -0.154],
                    [1.428, 1.363],
                    [0.373, 0.777],
                    [-0.131, 0.12],
                    [-1.446, 1.088],
                    [1.314, 2.786],
                    [0.743, 0.306],
                    [0.076, -0.081],
                    [1.111, -1.852],
                    [0.977, 0.694],
                    [1.472, 1.081],
                    [-0.654, 1.07],
                    [-0.842, 0.353],
                    [-6.968, -2.948],
                    [-0.744, -1.376],
                    [-0.122, -0.297]
                  ],
                  "v": [
                    [-12.145, -7.889],
                    [-8.472, -11.96],
                    [-6.644, -11.376],
                    [-3.236, -6.66],
                    [-3.665, -4.616],
                    [-4.076, -4.277],
                    [-4.964, -0.73],
                    [1.344, 5.087],
                    [3.353, 4.639],
                    [3.571, 4.387],
                    [7.78, 3.777],
                    [10.673, 5.911],
                    [11.237, 9.47],
                    [8.451, 11.761],
                    [5.919, 11.688],
                    [-10.123, -2.585],
                    [-11.978, -6.913]
                  ],
                  "c": true
                },
                "ix": 2
              },
              "nm": "Path 1",
              "mn": "ADBE Vector Shape - Group",
              "hd": false
            },
            {
              "ty": "fl",
              "c": { "a": 0, "k": [0, 0, 0, 1], "ix": 4 },
              "o": { "a": 0, "k": 100, "ix": 5 },
              "r": 1,
              "bm": 0,
              "nm": "Fill 1",
              "mn": "ADBE Vector Graphic - Fill",
              "hd": false
            },
            {
              "ty": "tr",
              "p": { "a": 0, "k": [24.145, 24.007], "ix": 2 },
              "a": { "a": 0, "k": [0, 0], "ix": 1 },
              "s": { "a": 0, "k": [100, 100], "ix": 3 },
              "r": { "a": 0, "k": 0, "ix": 6 },
              "o": { "a": 0, "k": 100, "ix": 7 },
              "sk": { "a": 0, "k": 0, "ix": 4 },
              "sa": { "a": 0, "k": 0, "ix": 5 },
              "nm": "Transform"
            }
          ],
          "nm": "Group 1",
          "np": 2,
          "cix": 2,
          "bm": 0,
          "ix": 1,
          "mn": "ADBE Vector Group",
          "hd": false
        }
      ],
      "ip": 0,
      "op": 28,
      "st": 0,
      "bm": 0
    },
    {
      "ddd": 0,
      "ind": 3,
      "ty": 4,
      "nm": "lines",
      "parent": 1,
      "sr": 1,
      "ks": {
        "o": { "a": 0, "k": 100, "ix": 11 },
        "r": { "a": 0, "k": 0, "ix": 10 },
        "p": { "a": 0, "k": [25, 25, 0], "ix": 2 },
        "a": { "a": 0, "k": [25, 25, 0], "ix": 1 },
        "s": { "a": 0, "k": [100, 100, 100], "ix": 6 }
      },
      "ao": 0,
      "shapes": [
        {
          "ty": "gr",
          "it": [
            {
              "ind": 0,
              "ty": "sh",
              "ix": 1,
              "ks": {
                "a": 0,
                "k": {
                  "i": [
                    [0, 0],
                    [0, 0.75],
                    [5.422, 0],
                    [0.702, -0.159]
                  ],
                  "o": [
                    [0.158, -0.702],
                    [0, -5.422],
                    [-0.75, 0],
                    [0, 0]
                  ],
                  "v": [
                    [5.758, 6],
                    [5.999, 3.818],
                    [-3.818, -6],
                    [-5.999, -5.757]
                  ],
                  "c": false
                },
                "ix": 2
              },
              "nm": "Path 1",
              "mn": "ADBE Vector Shape - Group",
              "hd": false
            },
            {
              "ty": "st",
              "c": { "a": 0, "k": [0, 0, 0, 1], "ix": 3 },
              "o": { "a": 0, "k": 100, "ix": 4 },
              "w": { "a": 0, "k": 2, "ix": 5 },
              "lc": 2,
              "lj": 1,
              "ml": 10,
              "bm": 0,
              "nm": "Stroke 1",
              "mn": "ADBE Vector Graphic - Stroke",
              "hd": false
            },
            {
              "ty": "tr",
              "p": {
                "a": 1,
                "k": [
                  { "i": { "x": 0.667, "y": 1 }, "o": { "x": 0.333, "y": 0 }, "t": 8, "s": [29.977, 17], "to": [-1.601, 1.85], "ti": [1.601, -1.85] },
                  { "i": { "x": 0.833, "y": 0.833 }, "o": { "x": 0.167, "y": 0.167 }, "t": 11, "s": [20.371, 28.102], "to": [0, 0], "ti": [0, 0] },
                  { "i": { "x": 0.667, "y": 1 }, "o": { "x": 0.333, "y": 0 }, "t": 17, "s": [20.371, 28.102], "to": [1.601, -1.85], "ti": [-1.601, 1.85] },
                  { "t": 20, "s": [29.977, 17] }
                ],
                "ix": 2
              },
              "a": { "a": 0, "k": [0, 0], "ix": 1 },
              "s": {
                "a": 1,
                "k": [
                  { "i": { "x": [0.667, 0.667], "y": [1, 1] }, "o": { "x": [0.333, 0.333], "y": [0, 0] }, "t": 7, "s": [100, 100] },
                  { "i": { "x": [0.667, 0.667], "y": [1, 1] }, "o": { "x": [0.333, 0.333], "y": [0, 0] }, "t": 8, "s": [120, 120] },
                  { "i": { "x": [0.833, 0.833], "y": [0.833, 0.833] }, "o": { "x": [0.167, 0.167], "y": [0.167, 0.167] }, "t": 11, "s": [0, 0] },
                  { "i": { "x": [0.667, 0.667], "y": [1, 1] }, "o": { "x": [0.333, 0.333], "y": [0, 0] }, "t": 17, "s": [0, 0] },
                  { "i": { "x": [0.667, 0.667], "y": [1, 1] }, "o": { "x": [0.333, 0.333], "y": [0, 0] }, "t": 20, "s": [120, 120] },
                  { "t": 21, "s": [100, 100] }
                ],
                "ix": 3
              },
              "r": { "a": 0, "k": 0, "ix": 6 },
              "o": { "a": 0, "k": 100, "ix": 7 },
              "sk": { "a": 0, "k": 0, "ix": 4 },
              "sa": { "a": 0, "k": 0, "ix": 5 },
              "nm": "Transform"
            }
          ],
          "nm": "Group 1",
          "np": 2,
          "cix": 2,
          "bm": 0,
          "ix": 1,
          "mn": "ADBE Vector Group",
          "hd": false
        },
        {
          "ty": "gr",
          "it": [
            {
              "ind": 0,
              "ty": "sh",
              "ix": 1,
              "ks": {
                "a": 0,
                "k": {
                  "i": [
                    [0, 0],
                    [0, 0.39],
                    [3.787, 0],
                    [0.372, -0.063]
                  ],
                  "o": [
                    [0.062, -0.372],
                    [0, -3.787],
                    [-0.388, 0],
                    [0, 0]
                  ],
                  "v": [
                    [3.905, 4],
                    [4, 2.857],
                    [-2.858, -4],
                    [-4, -3.905]
                  ],
                  "c": false
                },
                "ix": 2
              },
              "nm": "Path 1",
              "mn": "ADBE Vector Shape - Group",
              "hd": false
            },
            {
              "ty": "st",
              "c": { "a": 0, "k": [0, 0, 0, 1], "ix": 3 },
              "o": { "a": 0, "k": 100, "ix": 4 },
              "w": { "a": 0, "k": 2, "ix": 5 },
              "lc": 2,
              "lj": 1,
              "ml": 10,
              "bm": 0,
              "nm": "Stroke 1",
              "mn": "ADBE Vector Graphic - Stroke",
              "hd": false
            },
            {
              "ty": "tr",
              "p": {
                "a": 1,
                "k": [
                  { "i": { "x": 0.667, "y": 1 }, "o": { "x": 0.333, "y": 0 }, "t": 6, "s": [29, 18], "to": [-1.446, 1.648], "ti": [1.446, -1.648] },
                  { "i": { "x": 0.833, "y": 0.833 }, "o": { "x": 0.167, "y": 0.167 }, "t": 11, "s": [20.325, 27.889], "to": [0, 0], "ti": [0, 0] },
                  { "i": { "x": 0.667, "y": 1 }, "o": { "x": 0.333, "y": 0 }, "t": 17, "s": [20.325, 27.889], "to": [1.446, -1.648], "ti": [-1.446, 1.648] },
                  { "t": 22, "s": [29, 18] }
                ],
                "ix": 2
              },
              "a": { "a": 0, "k": [0, 0], "ix": 1 },
              "s": {
                "a": 1,
                "k": [
                  { "i": { "x": [0.667, 0.667], "y": [1, 1] }, "o": { "x": [0.333, 0.333], "y": [0, 0] }, "t": 5, "s": [100, 100] },
                  { "i": { "x": [0.667, 0.667], "y": [1, 1] }, "o": { "x": [0.333, 0.333], "y": [0, 0] }, "t": 6, "s": [120, 120] },
                  { "i": { "x": [0.833, 0.833], "y": [0.833, 0.833] }, "o": { "x": [0.167, 0.167], "y": [0.167, 0.167] }, "t": 11, "s": [0, 0] },
                  { "i": { "x": [0.667, 0.667], "y": [1, 1] }, "o": { "x": [0.333, 0.333], "y": [0, 0] }, "t": 17, "s": [0, 0] },
                  { "i": { "x": [0.667, 0.667], "y": [1, 1] }, "o": { "x": [0.333, 0.333], "y": [0, 0] }, "t": 22, "s": [120, 120] },
                  { "t": 23, "s": [100, 100] }
                ],
                "ix": 3
              },
              "r": { "a": 0, "k": 0, "ix": 6 },
              "o": { "a": 0, "k": 100, "ix": 7 },
              "sk": { "a": 0, "k": 0, "ix": 4 },
              "sa": { "a": 0, "k": 0, "ix": 5 },
              "nm": "Transform"
            }
          ],
          "nm": "Group 2",
          "np": 2,
          "cix": 2,
          "bm": 0,
          "ix": 2,
          "mn": "ADBE Vector Group",
          "hd": false
        },
        {
          "ty": "gr",
          "it": [
            {
              "ind": 0,
              "ty": "sh",
              "ix": 1,
              "ks": {
                "a": 0,
                "k": {
                  "i": [
                    [0, 0],
                    [2.209, 0]
                  ],
                  "o": [
                    [0, -2.209],
                    [0, 0]
                  ],
                  "v": [
                    [2, 2],
                    [-2, -2]
                  ],
                  "c": false
                },
                "ix": 2
              },
              "nm": "Path 1",
              "mn": "ADBE Vector Shape - Group",
              "hd": false
            },
            {
              "ty": "st",
              "c": { "a": 0, "k": [0, 0, 0, 1], "ix": 3 },
              "o": { "a": 0, "k": 100, "ix": 4 },
              "w": { "a": 0, "k": 2, "ix": 5 },
              "lc": 2,
              "lj": 1,
              "ml": 10,
              "bm": 0,
              "nm": "Stroke 1",
              "mn": "ADBE Vector Graphic - Stroke",
              "hd": false
            },
            {
              "ty": "tr",
              "p": {
                "a": 1,
                "k": [
                  { "i": { "x": 0.667, "y": 1 }, "o": { "x": 0.333, "y": 0 }, "t": 4, "s": [28, 19], "to": [-1.333, 1.412], "ti": [1.333, -1.412] },
                  { "i": { "x": 0.833, "y": 0.833 }, "o": { "x": 0.167, "y": 0.167 }, "t": 11, "s": [20.001, 27.472], "to": [0, 0], "ti": [0, 0] },
                  { "i": { "x": 0.667, "y": 1 }, "o": { "x": 0.333, "y": 0 }, "t": 17, "s": [20.001, 27.472], "to": [1.333, -1.412], "ti": [-1.333, 1.412] },
                  { "t": 24, "s": [28, 19] }
                ],
                "ix": 2
              },
              "a": { "a": 0, "k": [0, 0], "ix": 1 },
              "s": {
                "a": 1,
                "k": [
                  { "i": { "x": [0.667, 0.667], "y": [1, 1] }, "o": { "x": [0.333, 0.333], "y": [0, 0] }, "t": 3, "s": [100, 100] },
                  { "i": { "x": [0.667, 0.667], "y": [1, 1] }, "o": { "x": [0.333, 0.333], "y": [0, 0] }, "t": 4, "s": [120, 120] },
                  { "i": { "x": [0.833, 0.833], "y": [0.833, 0.833] }, "o": { "x": [0.167, 0.167], "y": [0.167, 0.167] }, "t": 11, "s": [0, 0] },
                  { "i": { "x": [0.667, 0.667], "y": [1, 1] }, "o": { "x": [0.333, 0.333], "y": [0, 0] }, "t": 17, "s": [0, 0] },
                  { "i": { "x": [0.667, 0.667], "y": [1, 1] }, "o": { "x": [0.333, 0.333], "y": [0, 0] }, "t": 24, "s": [120, 120] },
                  { "t": 25, "s": [100, 100] }
                ],
                "ix": 3
              },
              "r": { "a": 0, "k": 0, "ix": 6 },
              "o": { "a": 0, "k": 100, "ix": 7 },
              "sk": { "a": 0, "k": 0, "ix": 4 },
              "sa": { "a": 0, "k": 0, "ix": 5 },
              "nm": "Transform"
            }
          ],
          "nm": "Group 3",
          "np": 2,
          "cix": 2,
          "bm": 0,
          "ix": 3,
          "mn": "ADBE Vector Group",
          "hd": false
        }
      ],
      "ip": 0,
      "op": 28,
      "st": 0,
      "bm": 0
    }
  ],
  "markers": []
}
