[
  {
    "INDICATOR": "в объеме добавленной стоимости (в текущих ценах)",
    "TP": "Удельный вес в РФ",
    "2017": 19.841325,
    "2018": 22.935171,
    "2019": 23.610829,
    "2020": null,
    "2021": null
  },
  {
    "INDICATOR": "в инвестициях в основной капитал по крупным и средним предприятиям",
    "TP": "Удельный вес в РФ",
    "2017": 19.558852,
    "2018": 23.852702,
    "2019": 26.650616,
    "2020": 34.377311,
    "2021": null
  },
  {
    "INDICATOR": "в объеме отгруженных товаров собственного производства",
    "TP": "Удельный вес в РФ",
    "2017": 31.142869,
    "2018": 32.768679,
    "2019": 31.602979,
    "2020": 29.239238,
    "2021": 30.68553
  },
  {
    "INDICATOR": "в среднесписочной численности работников",
    "TP": "Удельный вес в РФ",
    "2017": 10.702539,
    "2018": 10.170095,
    "2019": 9.932795,
    "2020": 10.733643,
    "2021": 11.350184
  },
  {
    "INDICATOR": "среднемесячная заработная плата",
    "TP": "Удельный вес в РФ",
    "2017": 142.541216,
    "2018": 153.879355,
    "2019": 156.591402,
    "2020": 151.099865,
    "2021": 145.698079
  }
]
