<?xml version="1.0" encoding="UTF-8" standalone="no"?>
<svg
   xmlns:dc="http://purl.org/dc/elements/1.1/"
   xmlns:cc="http://creativecommons.org/ns#"
   xmlns:rdf="http://www.w3.org/1999/02/22-rdf-syntax-ns#"
   xmlns:svg="http://www.w3.org/2000/svg"
   xmlns="http://www.w3.org/2000/svg"
   xmlns:sodipodi="http://sodipodi.sourceforge.net/DTD/sodipodi-0.dtd"
   xmlns:inkscape="http://www.inkscape.org/namespaces/inkscape"
   viewBox="0 0 1954 1187"
   version="1.1"
   id="svg1524"
   sodipodi:docname="by-ru.svg"
   inkscape:version="1.0.1 (3bc2e813f5, 2020-09-07)">
  <metadata
     id="metadata1530">
    <rdf:RDF>
      <cc:Work
         rdf:about="">
        <dc:format>image/svg+xml</dc:format>
        <dc:type
           rdf:resource="http://purl.org/dc/dcmitype/StillImage" />
      </cc:Work>
    </rdf:RDF>
  </metadata>
  <defs
     id="defs1528">
    <clipPath
       clipPathUnits="userSpaceOnUse"
       id="clipEmfPath1">
      <path
         d="M 0,0 L 286.59969,0 L 286.59969,286.59969 L 0,286.59969 z"
         id="path1532" />
    </clipPath>
    <pattern
       id="EMFhbasepattern"
       patternUnits="userSpaceOnUse"
       width="6"
       height="6"
       x="0"
       y="0" />
  </defs>
  <sodipodi:namedview
     pagecolor="#ffffff"
     bordercolor="#666666"
     borderopacity="1"
     objecttolerance="10"
     gridtolerance="10"
     guidetolerance="10"
     inkscape:pageopacity="0"
     inkscape:pageshadow="2"
     inkscape:window-width="2560"
     inkscape:window-height="1361"
     id="namedview1526"
     showgrid="false"
     inkscape:zoom="0.97809604"
     inkscape:cx="977"
     inkscape:cy="593.5"
     inkscape:window-x="-9"
     inkscape:window-y="-9"
     inkscape:window-maximized="1"
     inkscape:current-layer="qgisviewbox" />
  <!-- svg generated using QGIS www.qgis.org -->
  <g
     id="by-all_geo"
     inkscape:groupmode="layer"
     inkscape:label="by-all_geo">
    <g
       stroke="rgb(35,35,35)"
       fill="rgb(164,113,88)"
       stroke-linejoin="round"
       stroke-width="0.40"
       id="g1518">
      <g
         id="by-all_geo_1"
         inkscape:label="?????|???????_???????|Minsk_Oblast|Minskaya_Voblasts'">
        <path
           d="M 966,524 L 966,532 L 958,544 L 959,557 L 965,566 L 962,572 L 946,572 L 932,574 L 928,578 L 922,572 L 904,566 L 902,553 L 904,537 L 907,529 L 920,524 L 934,527 L 946,531 L 954,529 L 962,523 L 966,524 "
           id="path1495" />
      </g>
      <g
         id="by-all_geo_2"
         inkscape:label="?????|Brestskaya_Voblasts'|Brèst"
         style="fill:#f89e90;fill-opacity:1">
        <path
           d="M 925,1079 L 920,1079 L 908,1086 L 888,1085 L 891,1072 L 881,1071 L 878,1065 L 877,1050 L 867,1047 L 855,1046 L 840,1051 L 831,1050 L 804,1038 L 772,1036 L 767,1026 L 733,1024 L 720,1014 L 706,1013 L 675,1007 L 663,1009 L 616,1007 L 592,1000 L 579,1002 L 566,1008 L 525,1014 L 513,1011 L 478,1013 L 471,1017 L 464,1029 L 460,1044 L 455,1049 L 439,1060 L 416,1079 L 410,1079 L 403,1070 L 383,1064 L 366,1066 L 361,1072 L 365,1087 L 364,1092 L 357,1087 L 353,1071 L 352,1059 L 357,1056 L 355,1046 L 357,1037 L 366,1030 L 368,1024 L 363,1016 L 372,987 L 377,982 L 372,961 L 364,952 L 355,951 L 347,936 L 338,936 L 339,933 L 313,924 L 307,910 L 315,897 L 342,861 L 355,851 L 368,845 L 392,839 L 411,827 L 417,820 L 419,803 L 440,805 L 451,799 L 455,803 L 475,807 L 485,806 L 496,814 L 508,813 L 506,802 L 513,791 L 511,786 L 523,776 L 518,769 L 528,764 L 544,771 L 551,770 L 555,764 L 562,765 L 565,778 L 572,782 L 581,778 L 579,793 L 583,795 L 591,792 L 598,792 L 608,788 L 616,794 L 613,776 L 618,772 L 629,771 L 637,758 L 646,752 L 656,729 L 650,715 L 657,709 L 653,702 L 655,695 L 662,692 L 664,681 L 674,667 L 696,669 L 699,672 L 719,674 L 724,673 L 744,676 L 751,678 L 765,675 L 764,686 L 767,691 L 767,701 L 759,702 L 750,714 L 751,719 L 758,720 L 765,732 L 777,734 L 784,748 L 771,750 L 764,762 L 773,785 L 769,791 L 773,799 L 786,795 L 787,788 L 792,786 L 801,791 L 803,797 L 813,798 L 823,813 L 845,820 L 850,816 L 855,819 L 855,826 L 859,834 L 874,837 L 878,842 L 876,851 L 860,851 L 857,858 L 861,863 L 857,867 L 872,882 L 874,888 L 870,895 L 890,908 L 892,915 L 904,919 L 908,926 L 926,937 L 928,940 L 926,949 L 927,975 L 937,987 L 935,994 L 927,1005 L 928,1014 L 924,1027 L 931,1036 L 931,1049 L 925,1060 L 925,1079 "
           id="path1498"
           style="fill:#f89e90;fill-opacity:1" />
      </g>
      <g
         id="by-all_geo_3"
         inkscape:label="??????|Gomel|Gomel'|Homyel'skaya_Voblasts'|Homje"
         style="fill:#98e8ae;fill-opacity:1">
        <path
           d="M 1459,714 L 1458,723 L 1454,724 L 1445,739 L 1456,747 L 1466,767 L 1475,774 L 1483,775 L 1492,789 L 1494,803 L 1482,814 L 1497,837 L 1505,844 L 1495,846 L 1495,855 L 1500,859 L 1500,878 L 1504,885 L 1500,899 L 1509,909 L 1519,912 L 1517,920 L 1520,927 L 1530,935 L 1531,946 L 1515,948 L 1489,945 L 1476,946 L 1465,951 L 1459,964 L 1452,964 L 1441,957 L 1416,959 L 1411,963 L 1409,977 L 1403,987 L 1396,991 L 1397,996 L 1389,1001 L 1377,1020 L 1379,1027 L 1371,1034 L 1375,1035 L 1371,1048 L 1365,1049 L 1364,1066 L 1358,1071 L 1363,1076 L 1362,1083 L 1369,1085 L 1366,1090 L 1375,1104 L 1371,1111 L 1376,1115 L 1380,1125 L 1379,1132 L 1371,1140 L 1366,1156 L 1355,1151 L 1349,1144 L 1338,1141 L 1333,1133 L 1334,1122 L 1323,1114 L 1315,1105 L 1307,1101 L 1286,1103 L 1275,1109 L 1269,1107 L 1263,1115 L 1248,1114 L 1242,1104 L 1230,1104 L 1223,1113 L 1214,1116 L 1209,1128 L 1200,1126 L 1188,1133 L 1184,1131 L 1179,1118 L 1173,1110 L 1173,1098 L 1163,1079 L 1158,1074 L 1146,1074 L 1140,1084 L 1134,1089 L 1120,1090 L 1111,1097 L 1105,1108 L 1105,1121 L 1102,1127 L 1098,1118 L 1092,1120 L 1087,1113 L 1083,1092 L 1066,1089 L 1059,1090 L 1046,1100 L 1041,1088 L 1026,1071 L 1020,1075 L 1012,1089 L 1006,1093 L 987,1091 L 975,1080 L 969,1083 L 965,1104 L 957,1115 L 948,1109 L 953,1091 L 949,1085 L 941,1085 L 925,1079 L 925,1060 L 931,1049 L 931,1036 L 924,1027 L 928,1014 L 927,1005 L 935,994 L 937,987 L 927,975 L 926,949 L 928,940 L 926,937 L 908,926 L 904,919 L 892,915 L 890,908 L 901,891 L 899,882 L 906,880 L 908,873 L 915,875 L 927,867 L 931,874 L 936,869 L 937,880 L 951,890 L 967,890 L 983,889 L 989,884 L 986,875 L 991,871 L 1003,873 L 1012,882 L 1041,879 L 1050,871 L 1050,843 L 1058,832 L 1074,832 L 1086,830 L 1108,822 L 1110,817 L 1103,812 L 1127,803 L 1128,787 L 1143,785 L 1155,769 L 1166,767 L 1186,773 L 1188,766 L 1196,772 L 1207,764 L 1222,764 L 1228,766 L 1234,757 L 1220,748 L 1223,741 L 1218,730 L 1222,723 L 1234,724 L 1232,718 L 1236,709 L 1232,705 L 1239,701 L 1233,684 L 1240,671 L 1255,677 L 1265,672 L 1288,684 L 1292,695 L 1303,695 L 1321,688 L 1319,682 L 1325,677 L 1335,675 L 1350,678 L 1357,683 L 1364,683 L 1368,678 L 1374,680 L 1389,681 L 1393,674 L 1405,674 L 1411,689 L 1422,697 L 1423,707 L 1421,711 L 1430,712 L 1439,718 L 1459,714 "
           id="path1501"
           style="fill:#98e8ae;fill-opacity:1" />
      </g>
      <g
         id="by-all_geo_4"
         inkscape:label="???????|Vicebsk|Vitebsk|Vitsyebskaya_Voblasts'|Witebsk">
        <path
           d="M 741,298 L 748,284 L 750,271 L 754,264 L 760,263 L 775,267 L 782,263 L 796,269 L 801,265 L 803,252 L 812,242 L 821,240 L 825,234 L 821,227 L 799,223 L 791,225 L 781,222 L 778,218 L 787,195 L 791,190 L 790,177 L 798,165 L 800,154 L 798,142 L 805,136 L 818,139 L 828,133 L 839,116 L 849,105 L 866,103 L 874,106 L 886,114 L 897,104 L 909,112 L 929,113 L 932,93 L 935,83 L 948,74 L 953,61 L 966,50 L 970,41 L 995,28 L 1019,53 L 1025,52 L 1032,43 L 1051,40 L 1061,43 L 1070,56 L 1073,72 L 1087,77 L 1093,67 L 1115,56 L 1130,58 L 1140,66 L 1161,71 L 1169,79 L 1163,86 L 1157,109 L 1160,118 L 1174,132 L 1180,132 L 1189,120 L 1202,112 L 1218,111 L 1226,97 L 1241,92 L 1257,97 L 1271,89 L 1278,94 L 1304,102 L 1306,111 L 1318,116 L 1322,131 L 1335,133 L 1342,146 L 1356,141 L 1361,144 L 1366,159 L 1363,174 L 1364,182 L 1368,188 L 1367,195 L 1359,202 L 1353,217 L 1362,224 L 1366,235 L 1377,244 L 1380,251 L 1379,258 L 1385,276 L 1372,277 L 1376,288 L 1371,295 L 1360,300 L 1363,311 L 1355,323 L 1356,333 L 1364,336 L 1385,350 L 1388,358 L 1403,358 L 1412,368 L 1402,388 L 1399,399 L 1414,404 L 1415,407 L 1407,407 L 1398,413 L 1398,419 L 1382,413 L 1374,421 L 1359,420 L 1352,418 L 1337,428 L 1341,435 L 1336,445 L 1327,450 L 1318,444 L 1315,438 L 1304,447 L 1292,444 L 1299,431 L 1291,435 L 1283,436 L 1280,441 L 1270,433 L 1261,445 L 1263,456 L 1244,452 L 1240,443 L 1235,441 L 1234,448 L 1211,452 L 1198,450 L 1195,456 L 1189,458 L 1179,469 L 1173,471 L 1172,459 L 1178,450 L 1172,443 L 1177,430 L 1178,410 L 1183,403 L 1180,396 L 1186,389 L 1181,380 L 1178,388 L 1168,386 L 1162,390 L 1151,389 L 1148,375 L 1140,378 L 1138,373 L 1130,381 L 1122,383 L 1105,381 L 1103,396 L 1089,390 L 1084,394 L 1076,391 L 1075,380 L 1072,374 L 1066,379 L 1063,373 L 1051,377 L 1043,398 L 1033,396 L 1016,377 L 1006,378 L 998,382 L 991,381 L 974,386 L 972,379 L 965,382 L 953,380 L 942,364 L 944,358 L 935,351 L 922,349 L 921,340 L 907,327 L 894,325 L 892,319 L 885,309 L 889,302 L 884,297 L 877,299 L 866,296 L 861,300 L 859,308 L 844,308 L 838,303 L 824,305 L 814,309 L 811,305 L 800,304 L 796,308 L 768,301 L 765,310 L 755,313 L 751,303 L 741,298 "
           id="path1504"
           style="fill:#f890b7;fill-opacity:1" />
      </g>
      <g
         id="by-all_geo_5"
         inkscape:label="??????|Grodno|Hrodzenskaya_Voblasts'"
         style="fill:#aee5d0;fill-opacity:1">
        <path
           d="M 765,675 L 751,678 L 744,676 L 724,673 L 719,674 L 699,672 L 696,669 L 674,667 L 664,681 L 662,692 L 655,695 L 653,702 L 657,709 L 650,715 L 656,729 L 646,752 L 637,758 L 629,771 L 618,772 L 613,776 L 616,794 L 608,788 L 598,792 L 591,792 L 583,795 L 579,793 L 581,778 L 572,782 L 565,778 L 562,765 L 555,764 L 551,770 L 544,771 L 528,764 L 518,769 L 523,776 L 511,786 L 513,791 L 506,802 L 508,813 L 496,814 L 485,806 L 475,807 L 455,803 L 451,799 L 440,805 L 419,803 L 420,748 L 415,739 L 414,730 L 419,716 L 413,708 L 405,687 L 400,665 L 392,644 L 382,607 L 380,591 L 380,577 L 376,567 L 375,554 L 371,537 L 371,531 L 392,541 L 412,535 L 418,537 L 431,531 L 439,536 L 448,536 L 460,531 L 469,532 L 476,546 L 493,548 L 498,546 L 514,532 L 535,525 L 541,532 L 550,531 L 554,519 L 550,502 L 560,490 L 573,491 L 583,495 L 589,494 L 601,485 L 607,469 L 611,466 L 619,469 L 630,469 L 639,459 L 645,457 L 655,473 L 648,475 L 651,483 L 646,486 L 653,495 L 665,497 L 674,492 L 680,493 L 685,487 L 687,473 L 683,465 L 678,461 L 675,453 L 657,456 L 652,452 L 653,446 L 664,429 L 665,414 L 669,406 L 678,401 L 682,395 L 682,386 L 678,370 L 680,361 L 681,346 L 688,341 L 689,326 L 698,317 L 699,311 L 706,308 L 716,309 L 732,306 L 741,298 L 751,303 L 755,313 L 765,310 L 760,314 L 763,328 L 769,335 L 775,337 L 785,352 L 790,355 L 790,366 L 797,381 L 808,382 L 809,393 L 805,396 L 803,405 L 797,402 L 799,422 L 794,428 L 784,455 L 780,464 L 771,472 L 756,475 L 745,474 L 737,481 L 731,482 L 726,497 L 733,500 L 735,495 L 740,498 L 739,512 L 743,520 L 752,519 L 755,514 L 761,515 L 765,527 L 773,527 L 772,539 L 766,542 L 762,550 L 745,559 L 744,567 L 756,574 L 750,579 L 749,590 L 761,597 L 763,608 L 778,614 L 785,632 L 782,643 L 787,643 L 791,667 L 765,675 "
           id="path1507"
           style="fill:#aee5d0;fill-opacity:1" />
      </g>
      <g
         id="by-all_geo_6"
         inkscape:label="???????|Mahiljow|Mogilev|Mahilyowskaya_Voblasts'"
         style="fill:#8999e1;fill-opacity:1">
        <path
           d="M 1179,469 L 1189,458 L 1195,456 L 1198,450 L 1211,452 L 1234,448 L 1235,441 L 1240,443 L 1244,452 L 1263,456 L 1261,445 L 1270,433 L 1280,441 L 1283,436 L 1291,435 L 1299,431 L 1292,444 L 1304,447 L 1315,438 L 1318,444 L 1327,450 L 1336,445 L 1341,435 L 1337,428 L 1352,418 L 1359,420 L 1374,421 L 1382,413 L 1398,419 L 1398,413 L 1407,407 L 1415,407 L 1420,408 L 1426,424 L 1431,430 L 1434,448 L 1438,457 L 1464,476 L 1475,478 L 1487,484 L 1498,487 L 1502,495 L 1507,493 L 1513,508 L 1510,533 L 1502,554 L 1520,557 L 1548,548 L 1560,553 L 1577,557 L 1589,567 L 1602,568 L 1605,578 L 1594,585 L 1597,597 L 1603,605 L 1618,612 L 1622,617 L 1632,616 L 1633,624 L 1639,622 L 1642,627 L 1641,644 L 1644,651 L 1625,655 L 1624,661 L 1608,662 L 1612,667 L 1603,687 L 1596,690 L 1585,704 L 1578,705 L 1577,710 L 1560,716 L 1550,712 L 1535,715 L 1528,712 L 1520,712 L 1515,699 L 1510,694 L 1493,691 L 1482,695 L 1466,695 L 1461,699 L 1459,714 L 1439,718 L 1430,712 L 1421,711 L 1423,707 L 1422,697 L 1411,689 L 1405,674 L 1393,674 L 1389,681 L 1374,680 L 1368,678 L 1364,683 L 1357,683 L 1350,678 L 1335,675 L 1325,677 L 1319,682 L 1321,688 L 1303,695 L 1292,695 L 1288,684 L 1265,672 L 1255,677 L 1240,671 L 1233,684 L 1239,701 L 1232,705 L 1236,709 L 1232,718 L 1234,724 L 1222,723 L 1218,730 L 1223,741 L 1220,748 L 1234,757 L 1228,766 L 1222,764 L 1207,764 L 1196,772 L 1188,766 L 1186,773 L 1166,767 L 1155,769 L 1143,785 L 1128,787 L 1127,803 L 1103,812 L 1110,817 L 1108,822 L 1086,830 L 1074,832 L 1058,832 L 1050,825 L 1033,813 L 1049,796 L 1055,781 L 1060,772 L 1055,766 L 1060,755 L 1066,754 L 1065,737 L 1062,727 L 1063,723 L 1050,726 L 1044,713 L 1037,713 L 1034,718 L 1021,713 L 1019,709 L 1007,704 L 1003,692 L 1012,689 L 1020,697 L 1040,696 L 1051,691 L 1049,681 L 1042,678 L 1041,674 L 1046,666 L 1045,650 L 1053,639 L 1061,639 L 1068,636 L 1066,631 L 1074,626 L 1072,620 L 1076,615 L 1083,619 L 1096,621 L 1102,619 L 1110,621 L 1109,627 L 1113,635 L 1121,636 L 1120,623 L 1134,621 L 1137,616 L 1136,607 L 1144,600 L 1156,604 L 1166,598 L 1172,590 L 1181,591 L 1186,584 L 1182,579 L 1192,570 L 1175,564 L 1180,557 L 1174,548 L 1174,534 L 1171,526 L 1172,520 L 1181,509 L 1179,500 L 1182,497 L 1181,484 L 1186,480 L 1179,469 "
           id="path1510"
           style="fill:#8999e1;fill-opacity:1" />
      </g>
      <g
         id="by-all_geo_7"
         inkscape:label="?????|???????_???????|Minsk_Oblast|Minskaya_Voblasts'">
        <path
           d="M 1179,469 L 1186,480 L 1181,484 L 1182,497 L 1179,500 L 1181,509 L 1172,520 L 1171,526 L 1174,534 L 1174,548 L 1180,557 L 1175,564 L 1192,570 L 1182,579 L 1186,584 L 1181,591 L 1172,590 L 1166,598 L 1156,604 L 1144,600 L 1136,607 L 1137,616 L 1134,621 L 1120,623 L 1121,636 L 1113,635 L 1109,627 L 1110,621 L 1102,619 L 1096,621 L 1083,619 L 1076,615 L 1072,620 L 1074,626 L 1066,631 L 1068,636 L 1061,639 L 1053,639 L 1045,650 L 1046,666 L 1041,674 L 1042,678 L 1049,681 L 1051,691 L 1040,696 L 1020,697 L 1012,689 L 1003,692 L 1007,704 L 1019,709 L 1021,713 L 1034,718 L 1037,713 L 1044,713 L 1050,726 L 1063,723 L 1062,727 L 1065,737 L 1066,754 L 1060,755 L 1055,766 L 1060,772 L 1055,781 L 1049,796 L 1033,813 L 1050,825 L 1058,832 L 1050,843 L 1050,871 L 1041,879 L 1012,882 L 1003,873 L 991,871 L 986,875 L 989,884 L 983,889 L 967,890 L 951,890 L 937,880 L 936,869 L 931,874 L 927,867 L 915,875 L 908,873 L 906,880 L 899,882 L 901,891 L 890,908 L 870,895 L 874,888 L 872,882 L 857,867 L 861,863 L 857,858 L 860,851 L 876,851 L 878,842 L 874,837 L 859,834 L 855,826 L 855,819 L 850,816 L 845,820 L 823,813 L 813,798 L 803,797 L 801,791 L 792,786 L 787,788 L 786,795 L 773,799 L 769,791 L 773,785 L 764,762 L 771,750 L 784,748 L 777,734 L 765,732 L 758,720 L 751,719 L 750,714 L 759,702 L 767,701 L 767,691 L 764,686 L 765,675 L 791,667 L 787,643 L 782,643 L 785,632 L 778,614 L 763,608 L 761,597 L 749,590 L 750,579 L 756,574 L 744,567 L 745,559 L 762,550 L 766,542 L 772,539 L 773,527 L 765,527 L 761,515 L 755,514 L 752,519 L 743,520 L 739,512 L 740,498 L 735,495 L 733,500 L 726,497 L 731,482 L 737,481 L 745,474 L 756,475 L 771,472 L 780,464 L 784,455 L 794,428 L 799,422 L 797,402 L 803,405 L 805,396 L 809,393 L 808,382 L 797,381 L 790,366 L 790,355 L 785,352 L 775,337 L 769,335 L 763,328 L 760,314 L 765,310 L 768,301 L 796,308 L 800,304 L 811,305 L 814,309 L 824,305 L 838,303 L 844,308 L 859,308 L 861,300 L 866,296 L 877,299 L 884,297 L 889,302 L 885,309 L 892,319 L 894,325 L 907,327 L 921,340 L 922,349 L 935,351 L 944,358 L 942,364 L 953,380 L 965,382 L 972,379 L 974,386 L 991,381 L 998,382 L 1006,378 L 1016,377 L 1033,396 L 1043,398 L 1051,377 L 1063,373 L 1066,379 L 1072,374 L 1075,380 L 1076,391 L 1084,394 L 1089,390 L 1103,396 L 1105,381 L 1122,383 L 1130,381 L 1138,373 L 1140,378 L 1148,375 L 1151,389 L 1162,390 L 1168,386 L 1178,388 L 1181,380 L 1186,389 L 1180,396 L 1183,403 L 1178,410 L 1177,430 L 1172,443 L 1178,450 L 1172,459 L 1173,471 L 1179,469 "
           id="path1513"
           style="fill:#e4d98b;fill-opacity:1" />
        <path
           d="M 966,524 L 962,523 L 954,529 L 946,531 L 934,527 L 920,524 L 907,529 L 904,537 L 902,553 L 904,566 L 922,572 L 928,578 L 932,574 L 946,572 L 962,572 L 965,566 L 959,557 L 958,544 L 966,532 L 966,524 "
           id="path1515"
           style="fill:#ff7f2a" />
      </g>
    </g>
  </g>
  <!-- QGIS extent for clipping, eg in Inkscape -->
  <g
     id="qgisviewbox"
     inkscape:groupmode="layer"
     inkscape:label="qgisviewbox"
     stroke="rgb(255,0,0)"
     stroke-width="1"
     fill="none">
    <path
       d="M 0,1185 L 1951,1185 L 1951,0 L 0,0 L 0,1185 "
       id="path1521" />
  </g>
</svg>
