{
  "v": "5.4.4",
  "fr": 24,
  "ip": 0,
  "op": 28,
  "w": 50,
  "h": 50,
  "nm": "tea",
  "ddd": 0,
  "assets": [],
  "layers": [
    {
      "ddd": 0,
      "ind": 1,
      "ty": 4,
      "nm": "tea Outlines 4",
      "sr": 1,
      "ks": {
        "o": { "a": 0, "k": 100, "ix": 11 },
        "r": { "a": 0, "k": 0, "ix": 10 },
        "p": {
          "a": 1,
          "k": [
            { "i": { "x": 0.667, "y": 1 }, "o": { "x": 0.333, "y": 0 }, "t": 6, "s": [25, 25, 0], "e": [25, 24.125, 0], "to": [0, -0.146, 0], "ti": [0, -0.094, 0] },
            { "i": { "x": 0.833, "y": 0.833 }, "o": { "x": 0.167, "y": 0.167 }, "t": 13, "s": [25, 24.125, 0], "e": [25, 25.563, 0], "to": [0, 0.094, 0], "ti": [0, -0.146, 0] },
            { "i": { "x": 0.667, "y": 1 }, "o": { "x": 0.333, "y": 0 }, "t": 19, "s": [25, 25.563, 0], "e": [25, 25, 0], "to": [0, 0.146, 0], "ti": [0, 0.094, 0] },
            { "t": 25 }
          ],
          "ix": 2
        },
        "a": { "a": 0, "k": [25, 25, 0], "ix": 1 },
        "s": { "a": 0, "k": [100, 100, 100], "ix": 6 }
      },
      "ao": 0,
      "shapes": [
        {
          "ty": "gr",
          "it": [
            {
              "ind": 0,
              "ty": "sh",
              "ix": 1,
              "ks": {
                "a": 0,
                "k": {
                  "i": [
                    [0, 0],
                    [0, -4.364]
                  ],
                  "o": [
                    [0, 4.5],
                    [0, 0]
                  ],
                  "v": [
                    [-2.499, -13.419],
                    [-6.507, -5.419]
                  ],
                  "c": false
                },
                "ix": 2
              },
              "nm": "Path 2",
              "mn": "ADBE Vector Shape - Group",
              "hd": false
            },
            {
              "ty": "st",
              "c": { "a": 0, "k": [0, 0, 0, 1], "ix": 3 },
              "o": { "a": 0, "k": 100, "ix": 4 },
              "w": { "a": 0, "k": 2, "ix": 5 },
              "lc": 2,
              "lj": 2,
              "bm": 0,
              "nm": "Stroke 1",
              "mn": "ADBE Vector Graphic - Stroke",
              "hd": false
            },
            {
              "ty": "tr",
              "p": { "a": 0, "k": [34.507, 19.42], "ix": 2 },
              "a": { "a": 0, "k": [0, 0], "ix": 1 },
              "s": { "a": 0, "k": [100, 100], "ix": 3 },
              "r": { "a": 0, "k": 0, "ix": 6 },
              "o": { "a": 0, "k": 100, "ix": 7 },
              "sk": { "a": 0, "k": 0, "ix": 4 },
              "sa": { "a": 0, "k": 0, "ix": 5 },
              "nm": "Transform"
            }
          ],
          "nm": "Group 3",
          "np": 2,
          "cix": 2,
          "bm": 0,
          "ix": 1,
          "mn": "ADBE Vector Group",
          "hd": false
        },
        {
          "ty": "tm",
          "s": {
            "a": 1,
            "k": [
              { "i": { "x": [0.833], "y": [1] }, "o": { "x": [0.167], "y": [0.167] }, "t": 18, "s": [0], "e": [100] },
              { "i": { "x": [0.298], "y": [1] }, "o": { "x": [0.169], "y": [0] }, "t": 19, "s": [100], "e": [0] },
              { "t": 25 }
            ],
            "ix": 1
          },
          "e": {
            "a": 1,
            "k": [
              { "i": { "x": [0.213], "y": [1] }, "o": { "x": [0.216], "y": [0] }, "t": 6, "s": [100], "e": [0] },
              { "i": { "x": [0.833], "y": [0.833] }, "o": { "x": [0.167], "y": [0.167] }, "t": 13, "s": [0], "e": [0] },
              { "i": { "x": [0.833], "y": [0.833] }, "o": { "x": [0.167], "y": [0.167] }, "t": 18, "s": [0], "e": [100] },
              { "t": 19 }
            ],
            "ix": 2
          },
          "o": { "a": 0, "k": 0, "ix": 3 },
          "m": 1,
          "ix": 2,
          "nm": "Trim Paths 1",
          "mn": "ADBE Vector Filter - Trim",
          "hd": false
        }
      ],
      "ip": 0,
      "op": 28,
      "st": 0,
      "bm": 0
    },
    {
      "ddd": 0,
      "ind": 2,
      "ty": 4,
      "nm": "tea Outlines 2",
      "sr": 1,
      "ks": {
        "o": { "a": 0, "k": 100, "ix": 11 },
        "r": { "a": 0, "k": 0, "ix": 10 },
        "p": {
          "a": 1,
          "k": [
            { "i": { "x": 0.833, "y": 0.833 }, "o": { "x": 0.333, "y": 0.333 }, "t": 3, "s": [25, 25, 0], "e": [25, 25, 0], "to": [0, 0, 0], "ti": [0, 0, 0] },
            { "i": { "x": 0.833, "y": 0.833 }, "o": { "x": 0.167, "y": 0.167 }, "t": 10, "s": [25, 25, 0], "e": [25, 25.563, 0], "to": [0, 0.094, 0], "ti": [0, 0, 0] },
            { "i": { "x": 0.667, "y": 1 }, "o": { "x": 0.333, "y": 0 }, "t": 16, "s": [25, 25.563, 0], "e": [25, 25, 0], "to": [0, 0, 0], "ti": [0, 0.094, 0] },
            { "t": 23 }
          ],
          "ix": 2
        },
        "a": { "a": 0, "k": [25, 25, 0], "ix": 1 },
        "s": { "a": 0, "k": [100, 100, 100], "ix": 6 }
      },
      "ao": 0,
      "shapes": [
        {
          "ty": "gr",
          "it": [
            {
              "ind": 0,
              "ty": "sh",
              "ix": 1,
              "ks": {
                "a": 0,
                "k": {
                  "i": [
                    [0, 0],
                    [0, -6.575]
                  ],
                  "o": [
                    [0, 6.704],
                    [0, 0]
                  ],
                  "v": [
                    [-6.507, -18.419],
                    [-12.491, -6.419]
                  ],
                  "c": false
                },
                "ix": 2
              },
              "nm": "Path 1",
              "mn": "ADBE Vector Shape - Group",
              "hd": false
            },
            {
              "ty": "st",
              "c": { "a": 0, "k": [0, 0, 0, 1], "ix": 3 },
              "o": { "a": 0, "k": 100, "ix": 4 },
              "w": { "a": 0, "k": 2, "ix": 5 },
              "lc": 2,
              "lj": 2,
              "bm": 0,
              "nm": "Stroke 1",
              "mn": "ADBE Vector Graphic - Stroke",
              "hd": false
            },
            {
              "ty": "tr",
              "p": { "a": 0, "k": [34.507, 19.42], "ix": 2 },
              "a": { "a": 0, "k": [0, 0], "ix": 1 },
              "s": { "a": 0, "k": [100, 100], "ix": 3 },
              "r": { "a": 0, "k": 0, "ix": 6 },
              "o": { "a": 0, "k": 100, "ix": 7 },
              "sk": { "a": 0, "k": 0, "ix": 4 },
              "sa": { "a": 0, "k": 0, "ix": 5 },
              "nm": "Transform"
            }
          ],
          "nm": "Group 3",
          "np": 2,
          "cix": 2,
          "bm": 0,
          "ix": 1,
          "mn": "ADBE Vector Group",
          "hd": false
        },
        {
          "ty": "tm",
          "s": {
            "a": 1,
            "k": [
              { "i": { "x": [0.833], "y": [1] }, "o": { "x": [0.167], "y": [0.167] }, "t": 15, "s": [0], "e": [100] },
              { "i": { "x": [0.248], "y": [1] }, "o": { "x": [0.196], "y": [0] }, "t": 16, "s": [100], "e": [0] },
              { "t": 23 }
            ],
            "ix": 1
          },
          "e": {
            "a": 1,
            "k": [
              { "i": { "x": [0.213], "y": [1] }, "o": { "x": [0.216], "y": [0] }, "t": 3, "s": [100], "e": [0] },
              { "i": { "x": [0.833], "y": [0.833] }, "o": { "x": [0.167], "y": [0.167] }, "t": 10, "s": [0], "e": [0] },
              { "i": { "x": [0.833], "y": [0.833] }, "o": { "x": [0.167], "y": [0.167] }, "t": 15, "s": [0], "e": [100] },
              { "t": 16 }
            ],
            "ix": 2
          },
          "o": { "a": 0, "k": 0, "ix": 3 },
          "m": 1,
          "ix": 2,
          "nm": "Trim Paths 1",
          "mn": "ADBE Vector Filter - Trim",
          "hd": false
        }
      ],
      "ip": 0,
      "op": 28,
      "st": 0,
      "bm": 0
    },
    {
      "ddd": 0,
      "ind": 3,
      "ty": 4,
      "nm": "tea Outlines",
      "sr": 1,
      "ks": {
        "o": { "a": 0, "k": 100, "ix": 11 },
        "r": {
          "a": 1,
          "k": [
            { "i": { "x": [0.406], "y": [1] }, "o": { "x": [0.678], "y": [0] }, "t": 0, "s": [0], "e": [20] },
            { "i": { "x": [0.384], "y": [1] }, "o": { "x": [0.597], "y": [0] }, "t": 14, "s": [20], "e": [0] },
            { "t": 28 }
          ],
          "ix": 10
        },
        "p": { "a": 0, "k": [25.646, 18.207, 0], "ix": 2 },
        "a": { "a": 0, "k": [25.646, 18.207, 0], "ix": 1 },
        "s": { "a": 0, "k": [100, 100, 100], "ix": 6 }
      },
      "ao": 0,
      "shapes": [
        {
          "ty": "gr",
          "it": [
            {
              "ind": 0,
              "ty": "sh",
              "ix": 1,
              "ks": { "a": 0, "k": { "i": [[0, 0]], "o": [[0, 0]], "v": [[122.903, 19.59]], "c": false }, "ix": 2 },
              "nm": "Path 1",
              "mn": "ADBE Vector Shape - Group",
              "hd": false
            },
            {
              "ty": "st",
              "c": { "a": 0, "k": [0, 0, 0, 1], "ix": 3 },
              "o": { "a": 0, "k": 100, "ix": 4 },
              "w": { "a": 0, "k": 2, "ix": 5 },
              "lc": 1,
              "lj": 1,
              "ml": 4,
              "bm": 0,
              "nm": "Stroke 1",
              "mn": "ADBE Vector Graphic - Stroke",
              "hd": false
            },
            {
              "ty": "fl",
              "c": { "a": 0, "k": [1, 1, 1, 1], "ix": 4 },
              "o": { "a": 0, "k": 100, "ix": 5 },
              "r": 1,
              "bm": 0,
              "nm": "Fill 1",
              "mn": "ADBE Vector Graphic - Fill",
              "hd": false
            },
            {
              "ty": "tr",
              "p": { "a": 0, "k": [0, 0], "ix": 2 },
              "a": { "a": 0, "k": [0, 0], "ix": 1 },
              "s": { "a": 0, "k": [100, 100], "ix": 3 },
              "r": { "a": 0, "k": 0, "ix": 6 },
              "o": { "a": 0, "k": 100, "ix": 7 },
              "sk": { "a": 0, "k": 0, "ix": 4 },
              "sa": { "a": 0, "k": 0, "ix": 5 },
              "nm": "Transform"
            }
          ],
          "nm": "Shape 1",
          "np": 3,
          "cix": 2,
          "bm": 0,
          "ix": 1,
          "mn": "ADBE Vector Group",
          "hd": false
        },
        {
          "ty": "gr",
          "it": [
            {
              "ind": 0,
              "ty": "sh",
              "ix": 1,
              "ks": {
                "a": 1,
                "k": [
                  {
                    "i": { "x": 0.667, "y": 1 },
                    "o": { "x": 0.333, "y": 0 },
                    "t": 0,
                    "s": [
                      {
                        "i": [
                          [0, 0],
                          [-0.125, -2.645]
                        ],
                        "o": [
                          [0.605, 1.292],
                          [0, 0]
                        ],
                        "v": [
                          [-2.299, -9.195],
                          [-0.569, 0.033]
                        ],
                        "c": false
                      }
                    ],
                    "e": [
                      {
                        "i": [
                          [0, 0],
                          [-0.819, -3.196]
                        ],
                        "o": [
                          [0.2, 2.434],
                          [0, 0]
                        ],
                        "v": [
                          [-2.299, -9.195],
                          [-0.569, 0.033]
                        ],
                        "c": false
                      }
                    ]
                  },
                  {
                    "i": { "x": 0.667, "y": 1 },
                    "o": { "x": 0.333, "y": 0 },
                    "t": 14,
                    "s": [
                      {
                        "i": [
                          [0, 0],
                          [-0.819, -3.196]
                        ],
                        "o": [
                          [0.2, 2.434],
                          [0, 0]
                        ],
                        "v": [
                          [-2.299, -9.195],
                          [-0.569, 0.033]
                        ],
                        "c": false
                      }
                    ],
                    "e": [
                      {
                        "i": [
                          [0, 0],
                          [-0.125, -2.645]
                        ],
                        "o": [
                          [0.605, 1.292],
                          [0, 0]
                        ],
                        "v": [
                          [-2.299, -9.195],
                          [-0.569, 0.033]
                        ],
                        "c": false
                      }
                    ]
                  },
                  { "t": 28 }
                ],
                "ix": 2
              },
              "nm": "Path 1",
              "mn": "ADBE Vector Shape - Group",
              "hd": false
            },
            {
              "ind": 1,
              "ty": "sh",
              "ix": 2,
              "ks": {
                "a": 0,
                "k": {
                  "i": [
                    [0, 0],
                    [-0.09, -0.793],
                    [0, 0],
                    [0.794, -0.09],
                    [0, 0],
                    [0.091, 0.793],
                    [0, 0],
                    [-0.794, 0.092]
                  ],
                  "o": [
                    [0.797, -0.09],
                    [0, 0],
                    [0.092, 0.797],
                    [0, 0],
                    [-0.796, 0.092],
                    [0, 0],
                    [-0.092, -0.798],
                    [0, 0]
                  ],
                  "v": [
                    [2.388, -0.219],
                    [3.997, 1.055],
                    [4.661, 6.827],
                    [3.386, 8.439],
                    [-2.386, 9.104],
                    [-3.995, 7.829],
                    [-4.661, 2.055],
                    [-3.383, 0.443]
                  ],
                  "c": true
                },
                "ix": 2
              },
              "nm": "Path 2",
              "mn": "ADBE Vector Shape - Group",
              "hd": false
            },
            { "ty": "mm", "mm": 1, "nm": "Merge Paths 1", "mn": "ADBE Vector Filter - Merge", "hd": false },
            {
              "ty": "st",
              "c": { "a": 0, "k": [0, 0, 0, 1], "ix": 3 },
              "o": { "a": 0, "k": 100, "ix": 4 },
              "w": { "a": 0, "k": 2, "ix": 5 },
              "lc": 2,
              "lj": 2,
              "bm": 0,
              "nm": "Stroke 1",
              "mn": "ADBE Vector Graphic - Stroke",
              "hd": false
            },
            {
              "ty": "tr",
              "p": { "a": 0, "k": [27.944, 27.403], "ix": 2 },
              "a": { "a": 0, "k": [0, 0], "ix": 1 },
              "s": { "a": 0, "k": [100, 100], "ix": 3 },
              "r": { "a": 0, "k": 0, "ix": 6 },
              "o": { "a": 0, "k": 100, "ix": 7 },
              "sk": { "a": 0, "k": 0, "ix": 4 },
              "sa": { "a": 0, "k": 0, "ix": 5 },
              "nm": "Transform"
            }
          ],
          "nm": "Group 1",
          "np": 4,
          "cix": 2,
          "bm": 0,
          "ix": 2,
          "mn": "ADBE Vector Group",
          "hd": false
        }
      ],
      "ip": 0,
      "op": 28,
      "st": 0,
      "bm": 0
    },
    {
      "ddd": 0,
      "ind": 4,
      "ty": 4,
      "nm": "tea Outlines 3",
      "sr": 1,
      "ks": {
        "o": { "a": 0, "k": 100, "ix": 11 },
        "r": { "a": 0, "k": 0, "ix": 10 },
        "p": { "a": 0, "k": [25, 25, 0], "ix": 2 },
        "a": { "a": 0, "k": [25, 25, 0], "ix": 1 },
        "s": { "a": 0, "k": [100, 100, 100], "ix": 6 }
      },
      "ao": 0,
      "shapes": [
        {
          "ty": "gr",
          "it": [
            {
              "ind": 0,
              "ty": "sh",
              "ix": 1,
              "ks": {
                "a": 0,
                "k": {
                  "i": [
                    [0, 0],
                    [0, 12.345],
                    [0, 0],
                    [-5.476, -3.135]
                  ],
                  "o": [
                    [5.412, -3.155],
                    [0, 0],
                    [0, 14.814],
                    [0, 0]
                  ],
                  "v": [
                    [4.943, 15.432],
                    [14, -15.499],
                    [-14, -15.499],
                    [-4.828, 15.499]
                  ],
                  "c": true
                },
                "ix": 2
              },
              "nm": "Path 1",
              "mn": "ADBE Vector Shape - Group",
              "hd": false
            },
            {
              "ty": "st",
              "c": { "a": 0, "k": [0, 0, 0, 1], "ix": 3 },
              "o": { "a": 0, "k": 100, "ix": 4 },
              "w": { "a": 0, "k": 2, "ix": 5 },
              "lc": 2,
              "lj": 2,
              "bm": 0,
              "nm": "Stroke 1",
              "mn": "ADBE Vector Graphic - Stroke",
              "hd": false
            },
            {
              "ty": "tr",
              "p": { "a": 0, "k": [26, 33.499], "ix": 2 },
              "a": { "a": 0, "k": [0, 0], "ix": 1 },
              "s": { "a": 0, "k": [100, 100], "ix": 3 },
              "r": { "a": 0, "k": 0, "ix": 6 },
              "o": { "a": 0, "k": 100, "ix": 7 },
              "sk": { "a": 0, "k": 0, "ix": 4 },
              "sa": { "a": 0, "k": 0, "ix": 5 },
              "nm": "Transform"
            }
          ],
          "nm": "Group 2",
          "np": 2,
          "cix": 2,
          "bm": 0,
          "ix": 1,
          "mn": "ADBE Vector Group",
          "hd": false
        },
        {
          "ty": "gr",
          "it": [
            {
              "ind": 0,
              "ty": "sh",
              "ix": 1,
              "ks": {
                "a": 0,
                "k": {
                  "i": [
                    [0, 0],
                    [0, 7.016],
                    [1.775, 0],
                    [0, 0]
                  ],
                  "o": [
                    [1.977, -4.082],
                    [0, -2.423],
                    [-2.738, 0],
                    [0, 0]
                  ],
                  "v": [
                    [2.695, 18.419],
                    [12.49, 8.236],
                    [9.077, 4.579],
                    [5.029, 7.092]
                  ],
                  "c": false
                },
                "ix": 2
              },
              "nm": "Path 3",
              "mn": "ADBE Vector Shape - Group",
              "hd": false
            },
            {
              "ty": "st",
              "c": { "a": 0, "k": [0, 0, 0, 1], "ix": 3 },
              "o": { "a": 0, "k": 100, "ix": 4 },
              "w": { "a": 0, "k": 2, "ix": 5 },
              "lc": 2,
              "lj": 2,
              "bm": 0,
              "nm": "Stroke 1",
              "mn": "ADBE Vector Graphic - Stroke",
              "hd": false
            },
            {
              "ty": "tr",
              "p": { "a": 0, "k": [34.507, 19.42], "ix": 2 },
              "a": { "a": 0, "k": [0, 0], "ix": 1 },
              "s": { "a": 0, "k": [100, 100], "ix": 3 },
              "r": { "a": 0, "k": 0, "ix": 6 },
              "o": { "a": 0, "k": 100, "ix": 7 },
              "sk": { "a": 0, "k": 0, "ix": 4 },
              "sa": { "a": 0, "k": 0, "ix": 5 },
              "nm": "Transform"
            }
          ],
          "nm": "Group 3",
          "np": 2,
          "cix": 2,
          "bm": 0,
          "ix": 2,
          "mn": "ADBE Vector Group",
          "hd": false
        }
      ],
      "ip": 0,
      "op": 28,
      "st": 0,
      "bm": 0
    }
  ],
  "markers": []
}
