[
  {
    "code": "P",
    "title": "Динамика пассажиропотока общественного транспорта с 2019 года, млн. пасс.",
    "items": [
      {
        "code": "P_MM",
        "title": "ММ (включая МЦК)"
      },
      {
        "code": "P_NGPT",
        "title": "НГПТ (МГТ+ОП+Трамваи)"
      },
      {
        "code": "P_MGT",
        "title": "МГТ"
      },
      {
        "code": "P_OP",
        "title": "ОП"
      },
      {
        "code": "P_TR",
        "title": "Трамваи"
      }
    ]
  },
  {
    "code": "DPP",
    "title": "Динамика пассажиропотока ММ+МЦК, млн. чел.",
    "items": [
      {
        "code": "DPP_P",
        "title": "Платные"
      },
      {
        "code": "DPP_L",
        "title": "Льготные"
      },
      {
        "code": "DPP_S",
        "title": "Студенты"
      },
      {
        "code": "DPP_O",
        "title": "Общий"
      }
    ]
  },
  {
    "code": "MCK",
    "title": "Динамика пассажиропотока МЦК, млн. чел.",
    "items": [
      {
        "code": "MCK_P",
        "title": "Платные"
      },
      {
        "code": "MCK_L",
        "title": "Льготные"
      },
      {
        "code": "MCK_S",
        "title": "Студенты"
      },
      {
        "code": "MCK_O",
        "title": "Общий"
      }
    ]
  },
  {
    "code": "AET",
    "title": "Перевозка (автобус, электробус, троллейбус), млн. руб.",
    "items": [
      {
        "code": "AET_P",
        "title": "Платные"
      },
      {
        "code": "AET_L",
        "title": "Льготные"
      },
      {
        "code": "AET_S",
        "title": "Студенты"
      }
    ,
      {
        "code": "AET_O",
        "title": "Общий"
      }
    ]
  },
  {
    "code": "KOM",
    "title": "Перевозка автобусами коммерческих перевозчиков, млн чел.",
    "items": [
      {
        "code": "KOM_P",
        "title": "Платные"
      },
      {
        "code": "KOM_L",
        "title": "Льготные"
      },
      {
        "code": "KOM_S",
        "title": "Студенты"
      }
    ]
  },
  {
    "code": "TR",
    "title": "Динамика перевозки (Трамваи), млн чел.",
    "items": [
      {
        "code": "TR_P",
        "title": "Платные"
      },
      {
        "code": "TR_L",
        "title": "Льготные"
      },
      {
        "code": "TR_S",
        "title": "Студенты"
      }
    ]
  }
]
