{
  "v": "5.4.4",
  "fr": 24,
  "ip": 0,
  "op": 28,
  "w": 50,
  "h": 50,
  "nm": "open-box",
  "ddd": 0,
  "assets": [],
  "layers": [
    {
      "ddd": 0,
      "ind": 1,
      "ty": 4,
      "nm": "open-box Outlines 3",
      "sr": 1,
      "ks": {
        "o": { "a": 0, "k": 100, "ix": 11 },
        "r": { "a": 0, "k": 0, "ix": 10 },
        "p": {
          "s": true,
          "x": { "a": 0, "k": 25, "ix": 3 },
          "y": {
            "a": 1,
            "k": [
              { "i": { "x": [0.952], "y": [0.84] }, "o": { "x": [0.048], "y": [0.105] }, "t": 3, "s": [24.957], "e": [28.822] },
              { "i": { "x": [0.776], "y": [1] }, "o": { "x": [0.08], "y": [-0.046] }, "t": 8, "s": [28.822], "e": [24.957] },
              { "i": { "x": [0.888], "y": [1] }, "o": { "x": [0.112], "y": [0] }, "t": 11, "s": [24.957], "e": [24.957] },
              { "i": { "x": [0.92], "y": [0.84] }, "o": { "x": [0.223], "y": [0] }, "t": 17, "s": [24.957], "e": [28.822] },
              { "i": { "x": [0.952], "y": [1.135] }, "o": { "x": [0.048], "y": [-0.046] }, "t": 20, "s": [28.822], "e": [24.957] },
              { "t": 25 }
            ],
            "ix": 4
          }
        },
        "a": { "a": 0, "k": [25, 25, 0], "ix": 1 },
        "s": {
          "a": 1,
          "k": [
            { "i": { "x": [0.667, 0.667, 0.667], "y": [1, 1, 1] }, "o": { "x": [0.333, 0.333, 0.333], "y": [0, 0, 0] }, "t": 3, "s": [100, 100, 100], "e": [105, 98, 100] },
            { "i": { "x": [0.667, 0.667, 0.667], "y": [1, 1, 1] }, "o": { "x": [0.333, 0.333, 0.333], "y": [0, 0, 0] }, "t": 8, "s": [105, 98, 100], "e": [105, 100, 100] },
            {
              "i": { "x": [0.833, 0.833, 0.833], "y": [0.833, 0.833, 0.833] },
              "o": { "x": [0.167, 0.167, 0.167], "y": [0.167, 0.167, 0.167] },
              "t": 11,
              "s": [105, 100, 100],
              "e": [105, 100, 100]
            },
            { "i": { "x": [0.667, 0.667, 0.667], "y": [1, 1, 1] }, "o": { "x": [0.333, 0.333, 0.333], "y": [0, 0, 0] }, "t": 17, "s": [105, 100, 100], "e": [105, 98, 100] },
            { "i": { "x": [0.667, 0.667, 0.667], "y": [1, 1, 1] }, "o": { "x": [0.333, 0.333, 0.333], "y": [0, 0, 0] }, "t": 20, "s": [105, 98, 100], "e": [100, 100, 100] },
            { "t": 25 }
          ],
          "ix": 6
        }
      },
      "ao": 0,
      "shapes": [
        {
          "ty": "gr",
          "it": [
            {
              "ind": 0,
              "ty": "sh",
              "ix": 1,
              "ks": {
                "a": 1,
                "k": [
                  {
                    "i": { "x": 0.667, "y": 1 },
                    "o": { "x": 0.333, "y": 0 },
                    "t": 5,
                    "s": [
                      {
                        "i": [
                          [0, 0],
                          [0, 0],
                          [0, 0],
                          [0, 0]
                        ],
                        "o": [
                          [0, 0],
                          [0, 0],
                          [0, 0],
                          [0, 0]
                        ],
                        "v": [
                          [6, 14],
                          [44, 14],
                          [48, 14],
                          [2, 14]
                        ],
                        "c": true
                      }
                    ],
                    "e": [
                      {
                        "i": [
                          [0, 0],
                          [0, 0],
                          [0, 0],
                          [0, 0]
                        ],
                        "o": [
                          [0, 0],
                          [0, 0],
                          [0, 0],
                          [0, 0]
                        ],
                        "v": [
                          [5.988, 12.043],
                          [43.988, 12.043],
                          [48, 7],
                          [2, 7]
                        ],
                        "c": true
                      }
                    ]
                  },
                  {
                    "i": { "x": 0.833, "y": 0.833 },
                    "o": { "x": 0.167, "y": 0.167 },
                    "t": 11,
                    "s": [
                      {
                        "i": [
                          [0, 0],
                          [0, 0],
                          [0, 0],
                          [0, 0]
                        ],
                        "o": [
                          [0, 0],
                          [0, 0],
                          [0, 0],
                          [0, 0]
                        ],
                        "v": [
                          [5.988, 12.043],
                          [43.988, 12.043],
                          [48, 7],
                          [2, 7]
                        ],
                        "c": true
                      }
                    ],
                    "e": [
                      {
                        "i": [
                          [0, 0],
                          [0, 0],
                          [0, 0],
                          [0, 0]
                        ],
                        "o": [
                          [0, 0],
                          [0, 0],
                          [0, 0],
                          [0, 0]
                        ],
                        "v": [
                          [5.988, 12.043],
                          [43.988, 12.043],
                          [48, 7],
                          [2, 7]
                        ],
                        "c": true
                      }
                    ]
                  },
                  {
                    "i": { "x": 0.667, "y": 1 },
                    "o": { "x": 0.333, "y": 0 },
                    "t": 17,
                    "s": [
                      {
                        "i": [
                          [0, 0],
                          [0, 0],
                          [0, 0],
                          [0, 0]
                        ],
                        "o": [
                          [0, 0],
                          [0, 0],
                          [0, 0],
                          [0, 0]
                        ],
                        "v": [
                          [5.988, 12.043],
                          [43.988, 12.043],
                          [48, 7],
                          [2, 7]
                        ],
                        "c": true
                      }
                    ],
                    "e": [
                      {
                        "i": [
                          [0, 0],
                          [0, 0],
                          [0, 0],
                          [0, 0]
                        ],
                        "o": [
                          [0, 0],
                          [0, 0],
                          [0, 0],
                          [0, 0]
                        ],
                        "v": [
                          [6, 14],
                          [44, 14],
                          [48, 14],
                          [2, 14]
                        ],
                        "c": true
                      }
                    ]
                  },
                  { "t": 23 }
                ],
                "ix": 2
              },
              "nm": "Path 1",
              "mn": "ADBE Vector Shape - Group",
              "hd": false
            },
            {
              "ty": "st",
              "c": { "a": 0, "k": [0, 0, 0, 1], "ix": 3 },
              "o": { "a": 0, "k": 100, "ix": 4 },
              "w": { "a": 0, "k": 2, "ix": 5 },
              "lc": 2,
              "lj": 2,
              "bm": 0,
              "nm": "Stroke 1",
              "mn": "ADBE Vector Graphic - Stroke",
              "hd": false
            },
            {
              "ty": "tr",
              "p": { "a": 0, "k": [0, 0], "ix": 2 },
              "a": { "a": 0, "k": [0, 0], "ix": 1 },
              "s": { "a": 0, "k": [100, 100], "ix": 3 },
              "r": { "a": 0, "k": 0, "ix": 6 },
              "o": { "a": 0, "k": 100, "ix": 7 },
              "sk": { "a": 0, "k": 0, "ix": 4 },
              "sa": { "a": 0, "k": 0, "ix": 5 },
              "nm": "Transform"
            }
          ],
          "nm": "Group 1",
          "np": 2,
          "cix": 2,
          "bm": 0,
          "ix": 1,
          "mn": "ADBE Vector Group",
          "hd": false
        },
        {
          "ty": "gr",
          "it": [
            {
              "ind": 0,
              "ty": "sh",
              "ix": 1,
              "ks": {
                "a": 1,
                "k": [
                  {
                    "i": { "x": 0.667, "y": 1 },
                    "o": { "x": 0.333, "y": 0 },
                    "t": 5,
                    "s": [
                      {
                        "i": [
                          [0, 0],
                          [0, 0],
                          [0, 0],
                          [0, 0]
                        ],
                        "o": [
                          [0, 0],
                          [0, 0],
                          [0, 0],
                          [0, 0]
                        ],
                        "v": [
                          [-23, -5],
                          [23, -5],
                          [23, 5],
                          [-23, 5]
                        ],
                        "c": true
                      }
                    ],
                    "e": [
                      {
                        "i": [
                          [0, 0],
                          [0, 0],
                          [0, 0],
                          [0, 0]
                        ],
                        "o": [
                          [0, 0],
                          [0, 0],
                          [0, 0],
                          [0, 0]
                        ],
                        "v": [
                          [-23, -8],
                          [23, -8],
                          [23, -2],
                          [-23, -2]
                        ],
                        "c": true
                      }
                    ]
                  },
                  {
                    "i": { "x": 0.833, "y": 0.833 },
                    "o": { "x": 0.167, "y": 0.167 },
                    "t": 11,
                    "s": [
                      {
                        "i": [
                          [0, 0],
                          [0, 0],
                          [0, 0],
                          [0, 0]
                        ],
                        "o": [
                          [0, 0],
                          [0, 0],
                          [0, 0],
                          [0, 0]
                        ],
                        "v": [
                          [-23, -8],
                          [23, -8],
                          [23, -2],
                          [-23, -2]
                        ],
                        "c": true
                      }
                    ],
                    "e": [
                      {
                        "i": [
                          [0, 0],
                          [0, 0],
                          [0, 0],
                          [0, 0]
                        ],
                        "o": [
                          [0, 0],
                          [0, 0],
                          [0, 0],
                          [0, 0]
                        ],
                        "v": [
                          [-23, -8],
                          [23, -8],
                          [23, -2],
                          [-23, -2]
                        ],
                        "c": true
                      }
                    ]
                  },
                  {
                    "i": { "x": 0.667, "y": 1 },
                    "o": { "x": 0.333, "y": 0 },
                    "t": 17,
                    "s": [
                      {
                        "i": [
                          [0, 0],
                          [0, 0],
                          [0, 0],
                          [0, 0]
                        ],
                        "o": [
                          [0, 0],
                          [0, 0],
                          [0, 0],
                          [0, 0]
                        ],
                        "v": [
                          [-23, -8],
                          [23, -8],
                          [23, -2],
                          [-23, -2]
                        ],
                        "c": true
                      }
                    ],
                    "e": [
                      {
                        "i": [
                          [0, 0],
                          [0, 0],
                          [0, 0],
                          [0, 0]
                        ],
                        "o": [
                          [0, 0],
                          [0, 0],
                          [0, 0],
                          [0, 0]
                        ],
                        "v": [
                          [-23, -5],
                          [23, -5],
                          [23, 5],
                          [-23, 5]
                        ],
                        "c": true
                      }
                    ]
                  },
                  { "t": 23 }
                ],
                "ix": 2
              },
              "nm": "Path 1",
              "mn": "ADBE Vector Shape - Group",
              "hd": false
            },
            {
              "ty": "st",
              "c": { "a": 0, "k": [0, 0, 0, 1], "ix": 3 },
              "o": { "a": 0, "k": 100, "ix": 4 },
              "w": { "a": 0, "k": 2, "ix": 5 },
              "lc": 2,
              "lj": 2,
              "bm": 0,
              "nm": "Stroke 1",
              "mn": "ADBE Vector Graphic - Stroke",
              "hd": false
            },
            {
              "ty": "tr",
              "p": { "a": 0, "k": [25, 9], "ix": 2 },
              "a": { "a": 0, "k": [0, 0], "ix": 1 },
              "s": { "a": 0, "k": [100, 100], "ix": 3 },
              "r": { "a": 0, "k": 0, "ix": 6 },
              "o": { "a": 0, "k": 100, "ix": 7 },
              "sk": { "a": 0, "k": 0, "ix": 4 },
              "sa": { "a": 0, "k": 0, "ix": 5 },
              "nm": "Transform"
            }
          ],
          "nm": "Group 6",
          "np": 2,
          "cix": 2,
          "bm": 0,
          "ix": 2,
          "mn": "ADBE Vector Group",
          "hd": false
        }
      ],
      "ip": 0,
      "op": 28,
      "st": 0,
      "bm": 0
    },
    {
      "ddd": 0,
      "ind": 2,
      "ty": 4,
      "nm": "open-box Outlines",
      "sr": 1,
      "ks": {
        "o": { "a": 0, "k": 100, "ix": 11 },
        "r": { "a": 0, "k": 0, "ix": 10 },
        "p": {
          "a": 1,
          "k": [
            { "i": { "x": 0.667, "y": 1 }, "o": { "x": 0.333, "y": 0 }, "t": 3, "s": [25, 25, 0], "e": [25, 27, 0], "to": [0, 0.333, 0], "ti": [0, -0.333, 0] },
            { "i": { "x": 0.833, "y": 0.833 }, "o": { "x": 0.167, "y": 0.167 }, "t": 8, "s": [25, 27, 0], "e": [25, 27, 0], "to": [0, 0, 0], "ti": [0, 0, 0] },
            { "i": { "x": 0.667, "y": 1 }, "o": { "x": 0.333, "y": 0 }, "t": 20, "s": [25, 27, 0], "e": [25, 25, 0], "to": [0, -0.333, 0], "ti": [0, 0.333, 0] },
            { "t": 25 }
          ],
          "ix": 2
        },
        "a": { "a": 0, "k": [25, 25, 0], "ix": 1 },
        "s": {
          "a": 1,
          "k": [
            { "i": { "x": [0.667, 0.667, 0.667], "y": [1, 1, 1] }, "o": { "x": [0.333, 0.333, 0.333], "y": [0, 0, 0] }, "t": 3, "s": [100, 100, 100], "e": [101, 88, 100] },
            { "i": { "x": [0.667, 0.667, 0.667], "y": [1, 1, 1] }, "o": { "x": [0.333, 0.333, 0.333], "y": [0, 0, 0] }, "t": 6, "s": [101, 88, 100], "e": [96, 96, 100] },
            { "i": { "x": [0.667, 0.667, 0.667], "y": [1, 1, 1] }, "o": { "x": [0.167, 0.167, 0.167], "y": [0, 0, 0] }, "t": 8, "s": [96, 96, 100], "e": [100, 100, 100] },
            {
              "i": { "x": [0.833, 0.833, 0.833], "y": [0.833, 0.833, 0.833] },
              "o": { "x": [0.167, 0.167, 0.167], "y": [0.167, 0.167, 0.167] },
              "t": 11,
              "s": [100, 100, 100],
              "e": [100, 100, 100]
            },
            { "i": { "x": [0.667, 0.667, 0.667], "y": [1, 1, 1] }, "o": { "x": [0.333, 0.333, 0.333], "y": [0, 0, 0] }, "t": 17, "s": [100, 100, 100], "e": [96, 96, 100] },
            { "i": { "x": [0.667, 0.667, 0.667], "y": [1, 1, 1] }, "o": { "x": [0.167, 0.167, 0.167], "y": [0, 0, 0] }, "t": 20, "s": [96, 96, 100], "e": [101, 88, 100] },
            { "i": { "x": [0.667, 0.667, 0.667], "y": [1, 1, 1] }, "o": { "x": [0.333, 0.333, 0.333], "y": [0, 0, 0] }, "t": 22, "s": [101, 88, 100], "e": [100, 100, 100] },
            { "t": 25 }
          ],
          "ix": 6
        }
      },
      "ao": 0,
      "shapes": [
        {
          "ty": "gr",
          "it": [
            {
              "ind": 0,
              "ty": "sh",
              "ix": 1,
              "ks": {
                "a": 1,
                "k": [
                  {
                    "i": { "x": 0.667, "y": 1 },
                    "o": { "x": 0.333, "y": 0 },
                    "t": 3,
                    "s": [
                      {
                        "i": [
                          [0, 0],
                          [0, 0],
                          [0, 0],
                          [0, 0],
                          [0, 0],
                          [0, 0]
                        ],
                        "o": [
                          [0, 0],
                          [0, 0],
                          [0, 0],
                          [0, 0],
                          [0, 0],
                          [0, 0]
                        ],
                        "v": [
                          [21, -16.5],
                          [21, 0.149],
                          [21, 16.5],
                          [-21, 16.5],
                          [-21, 0.54],
                          [-21, -16.5]
                        ],
                        "c": false
                      }
                    ],
                    "e": [
                      {
                        "i": [
                          [0, 0],
                          [0, -5.556],
                          [0, 0],
                          [0, 0],
                          [0, 5.412],
                          [0, 0]
                        ],
                        "o": [
                          [0, 0],
                          [0, 5.511],
                          [0, 0],
                          [0, 0],
                          [0, -5.63],
                          [0, 0]
                        ],
                        "v": [
                          [21, -16.5],
                          [21.101, 0.137],
                          [21, 16.5],
                          [-21, 16.5],
                          [-20.997, 0.321],
                          [-21, -16.5]
                        ],
                        "c": false
                      }
                    ]
                  },
                  {
                    "i": { "x": 0.667, "y": 1 },
                    "o": { "x": 0.333, "y": 0 },
                    "t": 6,
                    "s": [
                      {
                        "i": [
                          [0, 0],
                          [0, -5.556],
                          [0, 0],
                          [0, 0],
                          [0, 5.412],
                          [0, 0]
                        ],
                        "o": [
                          [0, 0],
                          [0, 5.511],
                          [0, 0],
                          [0, 0],
                          [0, -5.63],
                          [0, 0]
                        ],
                        "v": [
                          [21, -16.5],
                          [21.101, 0.137],
                          [21, 16.5],
                          [-21, 16.5],
                          [-20.997, 0.321],
                          [-21, -16.5]
                        ],
                        "c": false
                      }
                    ],
                    "e": [
                      {
                        "i": [
                          [0, 0],
                          [0, -5.556],
                          [0, 0],
                          [0, 0],
                          [0, 5.412],
                          [0, 0]
                        ],
                        "o": [
                          [0, 0],
                          [0, 5.511],
                          [0, 0],
                          [0, 0],
                          [0, -5.63],
                          [0, 0]
                        ],
                        "v": [
                          [21, -16.5],
                          [20.378, 0.006],
                          [21, 16.5],
                          [-21, 16.5],
                          [-20.378, 0.266],
                          [-21, -16.5]
                        ],
                        "c": false
                      }
                    ]
                  },
                  {
                    "i": { "x": 0.667, "y": 1 },
                    "o": { "x": 0.333, "y": 0 },
                    "t": 8,
                    "s": [
                      {
                        "i": [
                          [0, 0],
                          [0, -5.556],
                          [0, 0],
                          [0, 0],
                          [0, 5.412],
                          [0, 0]
                        ],
                        "o": [
                          [0, 0],
                          [0, 5.511],
                          [0, 0],
                          [0, 0],
                          [0, -5.63],
                          [0, 0]
                        ],
                        "v": [
                          [21, -16.5],
                          [20.378, 0.006],
                          [21, 16.5],
                          [-21, 16.5],
                          [-20.378, 0.266],
                          [-21, -16.5]
                        ],
                        "c": false
                      }
                    ],
                    "e": [
                      {
                        "i": [
                          [0, 0],
                          [0, 0],
                          [0, 0],
                          [0, 0],
                          [0, 0],
                          [0, 0]
                        ],
                        "o": [
                          [0, 0],
                          [0, 0],
                          [0, 0],
                          [0, 0],
                          [0, 0],
                          [0, 0]
                        ],
                        "v": [
                          [20, -16.5],
                          [20, 0.149],
                          [20, 16.5],
                          [-20, 16.5],
                          [-20, 0.54],
                          [-20, -16.5]
                        ],
                        "c": false
                      }
                    ]
                  },
                  {
                    "i": { "x": 0.833, "y": 0.833 },
                    "o": { "x": 0.167, "y": 0.167 },
                    "t": 11,
                    "s": [
                      {
                        "i": [
                          [0, 0],
                          [0, 0],
                          [0, 0],
                          [0, 0],
                          [0, 0],
                          [0, 0]
                        ],
                        "o": [
                          [0, 0],
                          [0, 0],
                          [0, 0],
                          [0, 0],
                          [0, 0],
                          [0, 0]
                        ],
                        "v": [
                          [20, -16.5],
                          [20, 0.149],
                          [20, 16.5],
                          [-20, 16.5],
                          [-20, 0.54],
                          [-20, -16.5]
                        ],
                        "c": false
                      }
                    ],
                    "e": [
                      {
                        "i": [
                          [0, 0],
                          [0, 0],
                          [0, 0],
                          [0, 0],
                          [0, 0],
                          [0, 0]
                        ],
                        "o": [
                          [0, 0],
                          [0, 0],
                          [0, 0],
                          [0, 0],
                          [0, 0],
                          [0, 0]
                        ],
                        "v": [
                          [20, -16.5],
                          [20, 0.149],
                          [20, 16.5],
                          [-20, 16.5],
                          [-20, 0.54],
                          [-20, -16.5]
                        ],
                        "c": false
                      }
                    ]
                  },
                  {
                    "i": { "x": 0.667, "y": 1 },
                    "o": { "x": 0.333, "y": 0 },
                    "t": 17,
                    "s": [
                      {
                        "i": [
                          [0, 0],
                          [0, 0],
                          [0, 0],
                          [0, 0],
                          [0, 0],
                          [0, 0]
                        ],
                        "o": [
                          [0, 0],
                          [0, 0],
                          [0, 0],
                          [0, 0],
                          [0, 0],
                          [0, 0]
                        ],
                        "v": [
                          [20, -16.5],
                          [20, 0.149],
                          [20, 16.5],
                          [-20, 16.5],
                          [-20, 0.54],
                          [-20, -16.5]
                        ],
                        "c": false
                      }
                    ],
                    "e": [
                      {
                        "i": [
                          [0, 0],
                          [0, -5.556],
                          [0, 0],
                          [0, 0],
                          [0, 5.412],
                          [0, 0]
                        ],
                        "o": [
                          [0, 0],
                          [0, 5.511],
                          [0, 0],
                          [0, 0],
                          [0, -5.63],
                          [0, 0]
                        ],
                        "v": [
                          [21, -16.5],
                          [20.378, 0.006],
                          [21, 16.5],
                          [-21, 16.5],
                          [-20.378, 0.266],
                          [-21, -16.5]
                        ],
                        "c": false
                      }
                    ]
                  },
                  {
                    "i": { "x": 0.667, "y": 1 },
                    "o": { "x": 0.333, "y": 0 },
                    "t": 20,
                    "s": [
                      {
                        "i": [
                          [0, 0],
                          [0, -5.556],
                          [0, 0],
                          [0, 0],
                          [0, 5.412],
                          [0, 0]
                        ],
                        "o": [
                          [0, 0],
                          [0, 5.511],
                          [0, 0],
                          [0, 0],
                          [0, -5.63],
                          [0, 0]
                        ],
                        "v": [
                          [21, -16.5],
                          [20.378, 0.006],
                          [21, 16.5],
                          [-21, 16.5],
                          [-20.378, 0.266],
                          [-21, -16.5]
                        ],
                        "c": false
                      }
                    ],
                    "e": [
                      {
                        "i": [
                          [0, 0],
                          [0, -5.556],
                          [0, 0],
                          [0, 0],
                          [0, 5.412],
                          [0, 0]
                        ],
                        "o": [
                          [0, 0],
                          [0, 5.511],
                          [0, 0],
                          [0, 0],
                          [0, -5.63],
                          [0, 0]
                        ],
                        "v": [
                          [21, -16.5],
                          [21.101, 0.137],
                          [21, 16.5],
                          [-21, 16.5],
                          [-20.997, 0.321],
                          [-21, -16.5]
                        ],
                        "c": false
                      }
                    ]
                  },
                  {
                    "i": { "x": 0.667, "y": 1 },
                    "o": { "x": 0.333, "y": 0 },
                    "t": 22,
                    "s": [
                      {
                        "i": [
                          [0, 0],
                          [0, -5.556],
                          [0, 0],
                          [0, 0],
                          [0, 5.412],
                          [0, 0]
                        ],
                        "o": [
                          [0, 0],
                          [0, 5.511],
                          [0, 0],
                          [0, 0],
                          [0, -5.63],
                          [0, 0]
                        ],
                        "v": [
                          [21, -16.5],
                          [21.101, 0.137],
                          [21, 16.5],
                          [-21, 16.5],
                          [-20.997, 0.321],
                          [-21, -16.5]
                        ],
                        "c": false
                      }
                    ],
                    "e": [
                      {
                        "i": [
                          [0, 0],
                          [0, 0],
                          [0, 0],
                          [0, 0],
                          [0, 0],
                          [0, 0]
                        ],
                        "o": [
                          [0, 0],
                          [0, 0],
                          [0, 0],
                          [0, 0],
                          [0, 0],
                          [0, 0]
                        ],
                        "v": [
                          [21, -16.5],
                          [21, 0.149],
                          [21, 16.5],
                          [-21, 16.5],
                          [-21, 0.54],
                          [-21, -16.5]
                        ],
                        "c": false
                      }
                    ]
                  },
                  { "t": 25 }
                ],
                "ix": 2
              },
              "nm": "Path 1",
              "mn": "ADBE Vector Shape - Group",
              "hd": false
            },
            {
              "ty": "st",
              "c": { "a": 0, "k": [0, 0, 0, 1], "ix": 3 },
              "o": { "a": 0, "k": 100, "ix": 4 },
              "w": { "a": 0, "k": 2, "ix": 5 },
              "lc": 2,
              "lj": 1,
              "ml": 10,
              "bm": 0,
              "nm": "Stroke 1",
              "mn": "ADBE Vector Graphic - Stroke",
              "hd": false
            },
            {
              "ty": "tr",
              "p": { "a": 0, "k": [25, 30.5], "ix": 2 },
              "a": { "a": 0, "k": [0, 0], "ix": 1 },
              "s": { "a": 0, "k": [100, 100], "ix": 3 },
              "r": { "a": 0, "k": 0, "ix": 6 },
              "o": { "a": 0, "k": 100, "ix": 7 },
              "sk": { "a": 0, "k": 0, "ix": 4 },
              "sa": { "a": 0, "k": 0, "ix": 5 },
              "nm": "Transform"
            }
          ],
          "nm": "Group 7",
          "np": 2,
          "cix": 2,
          "bm": 0,
          "ix": 1,
          "mn": "ADBE Vector Group",
          "hd": false
        },
        {
          "ty": "gr",
          "it": [
            {
              "ind": 0,
              "ty": "sh",
              "ix": 1,
              "ks": {
                "a": 0,
                "k": {
                  "i": [
                    [1.4, 0],
                    [0, 0],
                    [0, 1.4],
                    [-1.4, 0],
                    [0, 0],
                    [0, -1.4]
                  ],
                  "o": [
                    [0, 0],
                    [-1.4, 0],
                    [0, -1.4],
                    [0, 0],
                    [1.4, 0],
                    [0, 1.4]
                  ],
                  "v": [
                    [7.5, 2.5],
                    [-7.5, 2.5],
                    [-10, 0],
                    [-7.5, -2.5],
                    [7.5, -2.5],
                    [10, 0]
                  ],
                  "c": true
                },
                "ix": 2
              },
              "nm": "Path 1",
              "mn": "ADBE Vector Shape - Group",
              "hd": false
            },
            {
              "ty": "st",
              "c": { "a": 0, "k": [0, 0, 0, 1], "ix": 3 },
              "o": { "a": 0, "k": 100, "ix": 4 },
              "w": { "a": 0, "k": 2, "ix": 5 },
              "lc": 2,
              "lj": 1,
              "ml": 10,
              "bm": 0,
              "nm": "Stroke 1",
              "mn": "ADBE Vector Graphic - Stroke",
              "hd": false
            },
            {
              "ty": "tr",
              "p": { "a": 0, "k": [25, 22.5], "ix": 2 },
              "a": { "a": 0, "k": [0, 0], "ix": 1 },
              "s": { "a": 0, "k": [100, 100], "ix": 3 },
              "r": { "a": 0, "k": 0, "ix": 6 },
              "o": { "a": 0, "k": 100, "ix": 7 },
              "sk": { "a": 0, "k": 0, "ix": 4 },
              "sa": { "a": 0, "k": 0, "ix": 5 },
              "nm": "Transform"
            }
          ],
          "nm": "Group 8",
          "np": 2,
          "cix": 2,
          "bm": 0,
          "ix": 2,
          "mn": "ADBE Vector Group",
          "hd": false
        }
      ],
      "ip": 0,
      "op": 28,
      "st": 0,
      "bm": 0
    }
  ],
  "markers": []
}
