<?xml version="1.0" encoding="UTF-8" standalone="no"?>
<svg
   xmlns:dc="http://purl.org/dc/elements/1.1/"
   xmlns:cc="http://creativecommons.org/ns#"
   xmlns:rdf="http://www.w3.org/1999/02/22-rdf-syntax-ns#"
   xmlns:svg="http://www.w3.org/2000/svg"
   xmlns="http://www.w3.org/2000/svg"
   xmlns:sodipodi="http://sodipodi.sourceforge.net/DTD/sodipodi-0.dtd"
   xmlns:inkscape="http://www.inkscape.org/namespaces/inkscape"
   viewBox="0 0 1337.4 1128.4"
   version="1.1"
   id="svg1524"
   sodipodi:docname="by-ru-mono-30percent.svg"
   inkscape:version="1.0.1 (3bc2e813f5, 2020-09-07)"
   width="1337.4"
   height="1128.4"
   inkscape:export-filename="C:\Users\quazer\Projects\REU\reumon\reumon_nuxt\static\img\map\by-ru.png"
   inkscape:export-xdpi="96"
   inkscape:export-ydpi="96">
  <metadata
     id="metadata1530">
    <rdf:RDF>
      <cc:Work
         rdf:about="">
        <dc:format>image/svg+xml</dc:format>
        <dc:type
           rdf:resource="http://purl.org/dc/dcmitype/StillImage" />
        <dc:title></dc:title>
      </cc:Work>
    </rdf:RDF>
  </metadata>
  <defs
     id="defs1528">
    <clipPath
       clipPathUnits="userSpaceOnUse"
       id="clipEmfPath1">
      <path
         d="M 0,0 H 286.59969 V 286.59969 H 0 Z"
         id="path1532" />
    </clipPath>
    <pattern
       id="EMFhbasepattern"
       patternUnits="userSpaceOnUse"
       width="6"
       height="6"
       x="0"
       y="0" />
    <clipPath
       clipPathUnits="userSpaceOnUse"
       id="clipEmfPath1-8">
      <path
         d="M 0,0 L 605.82047,0 L 605.82047,538.24819 L 0,538.24819 z"
         id="path1480" />
    </clipPath>
    <pattern
       id="EMFhbasepattern-6"
       patternUnits="userSpaceOnUse"
       width="6"
       height="6"
       x="0"
       y="0" />
  </defs>
  <sodipodi:namedview
     pagecolor="#ffffff"
     bordercolor="#666666"
     borderopacity="1"
     objecttolerance="10"
     gridtolerance="10"
     guidetolerance="10"
     inkscape:pageopacity="0"
     inkscape:pageshadow="2"
     inkscape:window-width="2560"
     inkscape:window-height="1361"
     id="namedview1526"
     showgrid="false"
     inkscape:zoom="0.30118521"
     inkscape:cx="2061.7102"
     inkscape:cy="1719.2091"
     inkscape:window-x="-9"
     inkscape:window-y="-9"
     inkscape:window-maximized="1"
     inkscape:current-layer="by-all_geo"
     inkscape:document-rotation="0" />
  <!-- svg generated using QGIS www.qgis.org -->
  <g
     id="by-all_geo"
     inkscape:groupmode="layer"
     inkscape:label="by-all_geo"
     transform="translate(-306.8,-27.800005)">
    <g
       stroke="#232323"
       fill="#a47158"
       stroke-linejoin="round"
       stroke-width="0.4"
       id="g1518"
       style="fill:#00ff00;fill-opacity:0.19291338;stroke-width:2;stroke-miterlimit:4;stroke-dasharray:none;opacity:1">
      <g
         id="by-all_geo_1"
         inkscape:label="?????|???????_???????|Minsk_Oblast|Minskaya_Voblasts'"
         style="fill:#00ff00;fill-opacity:0.19291338;stroke-width:2;stroke-miterlimit:4;stroke-dasharray:none">
        <path
           d="m 966,524 v 8 l -8,12 1,13 6,9 -3,6 h -16 l -14,2 -4,4 -6,-6 -18,-6 -2,-13 2,-16 3,-8 13,-5 14,3 12,4 8,-2 8,-6 4,1"
           id="path1495"
           style="fill:#00ff00;fill-opacity:0.19291338;stroke-width:2;stroke-miterlimit:4;stroke-dasharray:none" />
      </g>
      <g
         id="by-all_geo_2"
         inkscape:label="?????|Brestskaya_Voblasts'|Brèst"
         style="fill:#00ff00;fill-opacity:0.19291338;stroke-width:2;stroke-miterlimit:4;stroke-dasharray:none">
        <path
           d="m 925,1079 h -5 l -12,7 -20,-1 3,-13 -10,-1 -3,-6 -1,-15 -10,-3 -12,-1 -15,5 -9,-1 -27,-12 -32,-2 -5,-10 -34,-2 -13,-10 -14,-1 -31,-6 -12,2 -47,-2 -24,-7 -13,2 -13,6 -41,6 -12,-3 -35,2 -7,4 -7,12 -4,15 -5,5 -16,11 -23,19 h -6 l -7,-9 -20,-6 -17,2 -5,6 4,15 -1,5 -7,-5 -4,-16 -1,-12 5,-3 -2,-10 2,-9 9,-7 2,-6 -5,-8 9,-29 5,-5 -5,-21 -8,-9 -9,-1 -8,-15 h -9 l 1,-3 -26,-9 -6,-14 8,-13 27,-36 13,-10 13,-6 24,-6 19,-12 6,-7 2,-17 21,2 11,-6 4,4 20,4 10,-1 11,8 12,-1 -2,-11 7,-11 -2,-5 12,-10 -5,-7 10,-5 16,7 7,-1 4,-6 7,1 3,13 7,4 9,-4 -2,15 4,2 8,-3 h 7 l 10,-4 8,6 -3,-18 5,-4 11,-1 8,-13 9,-6 10,-23 -6,-14 7,-6 -4,-7 2,-7 7,-3 2,-11 10,-14 22,2 3,3 20,2 5,-1 20,3 7,2 14,-3 -1,11 3,5 v 10 l -8,1 -9,12 1,5 7,1 7,12 12,2 7,14 -13,2 -7,12 9,23 -4,6 4,8 13,-4 1,-7 5,-2 9,5 2,6 10,1 10,15 22,7 5,-4 5,3 v 7 l 4,8 15,3 4,5 -2,9 h -16 l -3,7 4,5 -4,4 15,15 2,6 -4,7 20,13 2,7 12,4 4,7 18,11 2,3 -2,9 1,26 10,12 -2,7 -8,11 1,9 -4,13 7,9 v 13 l -6,11 v 19"
           id="path1498"
           style="fill:#00ff00;fill-opacity:0.19291338;stroke-width:2;stroke-miterlimit:4;stroke-dasharray:none" />
      </g>
      <g
         id="by-all_geo_3"
         inkscape:label="??????|Gomel|Gomel'|Homyel'skaya_Voblasts'|Homje"
         style="fill:#00ff00;fill-opacity:0.19291338;stroke-width:2;stroke-miterlimit:4;stroke-dasharray:none">
        <path
           d="m 1459,714 -1,9 -4,1 -9,15 11,8 10,20 9,7 8,1 9,14 2,14 -12,11 15,23 8,7 -10,2 v 9 l 5,4 v 19 l 4,7 -4,14 9,10 10,3 -2,8 3,7 10,8 1,11 -16,2 -26,-3 -13,1 -11,5 -6,13 h -7 l -11,-7 -25,2 -5,4 -2,14 -6,10 -7,4 1,5 -8,5 -12,19 2,7 -8,7 4,1 -4,13 -6,1 -1,17 -6,5 5,5 -1,7 7,2 -3,5 9,14 -4,7 5,4 4,10 -1,7 -8,8 -5,16 -11,-5 -6,-7 -11,-3 -5,-8 1,-11 -11,-8 -8,-9 -8,-4 -21,2 -11,6 -6,-2 -6,8 -15,-1 -6,-10 h -12 l -7,9 -9,3 -5,12 -9,-2 -12,7 -4,-2 -5,-13 -6,-8 v -12 l -10,-19 -5,-5 h -12 l -6,10 -6,5 -14,1 -9,7 -6,11 v 13 l -3,6 -4,-9 -6,2 -5,-7 -4,-21 -17,-3 -7,1 -13,10 -5,-12 -15,-17 -6,4 -8,14 -6,4 -19,-2 -12,-11 -6,3 -4,21 -8,11 -9,-6 5,-18 -4,-6 h -8 l -16,-6 v -19 l 6,-11 v -13 l -7,-9 4,-13 -1,-9 8,-11 2,-7 -10,-12 -1,-26 2,-9 -2,-3 -18,-11 -4,-7 -12,-4 -2,-7 11,-17 -2,-9 7,-2 2,-7 7,2 12,-8 4,7 5,-5 1,11 14,10 h 16 l 16,-1 6,-5 -3,-9 5,-4 12,2 9,9 29,-3 9,-8 v -28 l 8,-11 h 16 l 12,-2 22,-8 2,-5 -7,-5 24,-9 1,-16 15,-2 12,-16 11,-2 20,6 2,-7 8,6 11,-8 h 15 l 6,2 6,-9 -14,-9 3,-7 -5,-11 4,-7 12,1 -2,-6 4,-9 -4,-4 7,-4 -6,-17 7,-13 15,6 10,-5 23,12 4,11 h 11 l 18,-7 -2,-6 6,-5 10,-2 15,3 7,5 h 7 l 4,-5 6,2 15,1 4,-7 h 12 l 6,15 11,8 1,10 -2,4 9,1 9,6 20,-4"
           id="path1501"
           style="fill:#00ff00;fill-opacity:0.19291338;stroke-width:2;stroke-miterlimit:4;stroke-dasharray:none" />
      </g>
      <g
         id="by-all_geo_4"
         inkscape:label="???????|Vicebsk|Vitebsk|Vitsyebskaya_Voblasts'|Witebsk"
         style="fill:#00ff00;fill-opacity:0.19291338;stroke-width:2;stroke-miterlimit:4;stroke-dasharray:none">
        <path
           d="m 741,298 7,-14 2,-13 4,-7 6,-1 15,4 7,-4 14,6 5,-4 2,-13 9,-10 9,-2 4,-6 -4,-7 -22,-4 -8,2 -10,-3 -3,-4 9,-23 4,-5 -1,-13 8,-12 2,-11 -2,-12 7,-6 13,3 10,-6 11,-17 10,-11 17,-2 8,3 12,8 11,-10 12,8 20,1 3,-20 3,-10 13,-9 5,-13 13,-11 4,-9 25,-13 24,25 6,-1 7,-9 19,-3 10,3 9,13 3,16 14,5 6,-10 22,-11 15,2 10,8 21,5 8,8 -6,7 -6,23 3,9 14,14 h 6 l 9,-12 13,-8 16,-1 8,-14 15,-5 16,5 14,-8 7,5 26,8 2,9 12,5 4,15 13,2 7,13 14,-5 5,3 5,15 -3,15 1,8 4,6 -1,7 -8,7 -6,15 9,7 4,11 11,9 3,7 -1,7 6,18 -13,1 4,11 -5,7 -11,5 3,11 -8,12 1,10 8,3 21,14 3,8 h 15 l 9,10 -10,20 -3,11 15,5 1,3 h -8 l -9,6 v 6 l -16,-6 -8,8 -15,-1 -7,-2 -15,10 4,7 -5,10 -9,5 -9,-6 -3,-6 -11,9 -12,-3 7,-13 -8,4 -8,1 -3,5 -10,-8 -9,12 2,11 -19,-4 -4,-9 -5,-2 -1,7 -23,4 -13,-2 -3,6 -6,2 -10,11 -6,2 -1,-12 6,-9 -6,-7 5,-13 1,-20 5,-7 -3,-7 6,-7 -5,-9 -3,8 -10,-2 -6,4 -11,-1 -3,-14 -8,3 -2,-5 -8,8 -8,2 -17,-2 -2,15 -14,-6 -5,4 -8,-3 -1,-11 -3,-6 -6,5 -3,-6 -12,4 -8,21 -10,-2 -17,-19 -10,1 -8,4 -7,-1 -17,5 -2,-7 -7,3 -12,-2 -11,-16 2,-6 -9,-7 -13,-2 -1,-9 -14,-13 -13,-2 -2,-6 -7,-10 4,-7 -5,-5 -7,2 -11,-3 -5,4 -2,8 h -15 l -6,-5 -14,2 -10,4 -3,-4 -11,-1 -4,4 -28,-7 -3,9 -10,3 -4,-10 -10,-5"
           id="path1504"
           style="fill:#00ff00;fill-opacity:0.19291338;stroke-width:2;stroke-miterlimit:4;stroke-dasharray:none" />
      </g>
      <g
         id="by-all_geo_5"
         inkscape:label="??????|Grodno|Hrodzenskaya_Voblasts'"
         style="fill:#00ff00;fill-opacity:0.19291338;stroke-width:2;stroke-miterlimit:4;stroke-dasharray:none">
        <path
           d="m 765,675 -14,3 -7,-2 -20,-3 -5,1 -20,-2 -3,-3 -22,-2 -10,14 -2,11 -7,3 -2,7 4,7 -7,6 6,14 -10,23 -9,6 -8,13 -11,1 -5,4 3,18 -8,-6 -10,4 h -7 l -8,3 -4,-2 2,-15 -9,4 -7,-4 -3,-13 -7,-1 -4,6 -7,1 -16,-7 -10,5 5,7 -12,10 2,5 -7,11 2,11 -12,1 -11,-8 -10,1 -20,-4 -4,-4 -11,6 -21,-2 1,-55 -5,-9 -1,-9 5,-14 -6,-8 -8,-21 -5,-22 -8,-21 -10,-37 -2,-16 v -14 l -4,-10 -1,-13 -4,-17 v -6 l 21,10 20,-6 6,2 13,-6 8,5 h 9 l 12,-5 9,1 7,14 17,2 5,-2 16,-14 21,-7 6,7 9,-1 4,-12 -4,-17 10,-12 13,1 10,4 6,-1 12,-9 6,-16 4,-3 8,3 h 11 l 9,-10 6,-2 10,16 -7,2 3,8 -5,3 7,9 12,2 9,-5 6,1 5,-6 2,-14 -4,-8 -5,-4 -3,-8 -18,3 -5,-4 1,-6 11,-17 1,-15 4,-8 9,-5 4,-6 v -9 l -4,-16 2,-9 1,-15 7,-5 1,-15 9,-9 1,-6 7,-3 10,1 16,-3 9,-8 10,5 4,10 10,-3 -5,4 3,14 6,7 6,2 10,15 5,3 v 11 l 7,15 11,1 1,11 -4,3 -2,9 -6,-3 2,20 -5,6 -10,27 -4,9 -9,8 -15,3 -11,-1 -8,7 -6,1 -5,15 7,3 2,-5 5,3 -1,14 4,8 9,-1 3,-5 6,1 4,12 h 8 l -1,12 -6,3 -4,8 -17,9 -1,8 12,7 -6,5 -1,11 12,7 2,11 15,6 7,18 -3,11 h 5 l 4,24 -26,8"
           id="path1507"
           style="fill:#00ff00;fill-opacity:0.19291338;stroke-width:2;stroke-miterlimit:4;stroke-dasharray:none" />
      </g>
      <g
         id="by-all_geo_6"
         inkscape:label="???????|Mahiljow|Mogilev|Mahilyowskaya_Voblasts'"
         style="fill:#00ff00;fill-opacity:0.19291338;stroke-width:2;stroke-miterlimit:4;stroke-dasharray:none">
        <path
           d="m 1179,469 10,-11 6,-2 3,-6 13,2 23,-4 1,-7 5,2 4,9 19,4 -2,-11 9,-12 10,8 3,-5 8,-1 8,-4 -7,13 12,3 11,-9 3,6 9,6 9,-5 5,-10 -4,-7 15,-10 7,2 15,1 8,-8 16,6 v -6 l 9,-6 h 8 l 5,1 6,16 5,6 3,18 4,9 26,19 11,2 12,6 11,3 4,8 5,-2 6,15 -3,25 -8,21 18,3 28,-9 12,5 17,4 12,10 13,1 3,10 -11,7 3,12 6,8 15,7 4,5 10,-1 1,8 6,-2 3,5 -1,17 3,7 -19,4 -1,6 -16,1 4,5 -9,20 -7,3 -11,14 -7,1 -1,5 -17,6 -10,-4 -15,3 -7,-3 h -8 l -5,-13 -5,-5 -17,-3 -11,4 h -16 l -5,4 -2,15 -20,4 -9,-6 -9,-1 2,-4 -1,-10 -11,-8 -6,-15 h -12 l -4,7 -15,-1 -6,-2 -4,5 h -7 l -7,-5 -15,-3 -10,2 -6,5 2,6 -18,7 h -11 l -4,-11 -23,-12 -10,5 -15,-6 -7,13 6,17 -7,4 4,4 -4,9 2,6 -12,-1 -4,7 5,11 -3,7 14,9 -6,9 -6,-2 h -15 l -11,8 -8,-6 -2,7 -20,-6 -11,2 -12,16 -15,2 -1,16 -24,9 7,5 -2,5 -22,8 -12,2 h -16 l -8,-7 -17,-12 16,-17 6,-15 5,-9 -5,-6 5,-11 6,-1 -1,-17 -3,-10 1,-4 -13,3 -6,-13 h -7 l -3,5 -13,-5 -2,-4 -12,-5 -4,-12 9,-3 8,8 20,-1 11,-5 -2,-10 -7,-3 -1,-4 5,-8 -1,-16 8,-11 h 8 l 7,-3 -2,-5 8,-5 -2,-6 4,-5 7,4 13,2 6,-2 8,2 -1,6 4,8 8,1 -1,-13 14,-2 3,-5 -1,-9 8,-7 12,4 10,-6 6,-8 9,1 5,-7 -4,-5 10,-9 -17,-6 5,-7 -6,-9 v -14 l -3,-8 1,-6 9,-11 -2,-9 3,-3 -1,-13 5,-4 -7,-11"
           id="path1510"
           style="fill:#00ff00;fill-opacity:0.19291338;stroke-width:2;stroke-miterlimit:4;stroke-dasharray:none" />
      </g>
      <g
         id="by-all_geo_7"
         inkscape:label="?????|???????_???????|Minsk_Oblast|Minskaya_Voblasts'"
         style="fill:#00ff00;fill-opacity:0.19291338;stroke-width:2;stroke-miterlimit:4;stroke-dasharray:none">
        <path
           d="m 1179,469 7,11 -5,4 1,13 -3,3 2,9 -9,11 -1,6 3,8 v 14 l 6,9 -5,7 17,6 -10,9 4,5 -5,7 -9,-1 -6,8 -10,6 -12,-4 -8,7 1,9 -3,5 -14,2 1,13 -8,-1 -4,-8 1,-6 -8,-2 -6,2 -13,-2 -7,-4 -4,5 2,6 -8,5 2,5 -7,3 h -8 l -8,11 1,16 -5,8 1,4 7,3 2,10 -11,5 -20,1 -8,-8 -9,3 4,12 12,5 2,4 13,5 3,-5 h 7 l 6,13 13,-3 -1,4 3,10 1,17 -6,1 -5,11 5,6 -5,9 -6,15 -16,17 17,12 8,7 -8,11 v 28 l -9,8 -29,3 -9,-9 -12,-2 -5,4 3,9 -6,5 -16,1 h -16 l -14,-10 -1,-11 -5,5 -4,-7 -12,8 -7,-2 -2,7 -7,2 2,9 -11,17 -20,-13 4,-7 -2,-6 -15,-15 4,-4 -4,-5 3,-7 h 16 l 2,-9 -4,-5 -15,-3 -4,-8 v -7 l -5,-3 -5,4 -22,-7 -10,-15 -10,-1 -2,-6 -9,-5 -5,2 -1,7 -13,4 -4,-8 4,-6 -9,-23 7,-12 13,-2 -7,-14 -12,-2 -7,-12 -7,-1 -1,-5 9,-12 8,-1 v -10 l -3,-5 1,-11 26,-8 -4,-24 h -5 l 3,-11 -7,-18 -15,-6 -2,-11 -12,-7 1,-11 6,-5 -12,-7 1,-8 17,-9 4,-8 6,-3 1,-12 h -8 l -4,-12 -6,-1 -3,5 -9,1 -4,-8 1,-14 -5,-3 -2,5 -7,-3 5,-15 6,-1 8,-7 11,1 15,-3 9,-8 4,-9 10,-27 5,-6 -2,-20 6,3 2,-9 4,-3 -1,-11 -11,-1 -7,-15 v -11 l -5,-3 -10,-15 -6,-2 -6,-7 -3,-14 5,-4 3,-9 28,7 4,-4 11,1 3,4 10,-4 14,-2 6,5 h 15 l 2,-8 5,-4 11,3 7,-2 5,5 -4,7 7,10 2,6 13,2 14,13 1,9 13,2 9,7 -2,6 11,16 12,2 7,-3 2,7 17,-5 7,1 8,-4 10,-1 17,19 10,2 8,-21 12,-4 3,6 6,-5 3,6 1,11 8,3 5,-4 14,6 2,-15 17,2 8,-2 8,-8 2,5 8,-3 3,14 11,1 6,-4 10,2 3,-8 5,9 -6,7 3,7 -5,7 -1,20 -5,13 6,7 -6,9 1,12 6,-2"
           id="path1513"
           style="fill:#00ff00;fill-opacity:0.19291338;stroke-width:2;stroke-miterlimit:4;stroke-dasharray:none" />
        <path
           d="m 966,524 -4,-1 -8,6 -8,2 -12,-4 -14,-3 -13,5 -3,8 -2,16 2,13 18,6 6,6 4,-4 14,-2 h 16 l 3,-6 -6,-9 -1,-13 8,-12 v -8"
           id="path1515"
           style="fill:#00ff00;fill-opacity:0.19291338;stroke-width:2;stroke-miterlimit:4;stroke-dasharray:none" />
      </g>
    </g>
  </g>
  <!-- QGIS extent for clipping, eg in Inkscape -->
</svg>
