{
  "v": "5.5.9",
  "fr": 24,
  "ip": 0,
  "op": 28,
  "w": 50,
  "h": 50,
  "nm": "volleyball",
  "ddd": 0,
  "assets": [],
  "layers": [
    {
      "ddd": 0,
      "ind": 1,
      "ty": 4,
      "nm": "pattern",
      "parent": 2,
      "sr": 1,
      "ks": {
        "o": { "a": 0, "k": 100, "ix": 11 },
        "r": { "a": 0, "k": 360, "ix": 10 },
        "p": { "a": 0, "k": [29.511, 31, 0], "ix": 2 },
        "a": { "a": 0, "k": [33.261, 33, 0], "ix": 1 },
        "s": { "a": 0, "k": [100, 100, 100], "ix": 6 }
      },
      "ao": 0,
      "hasMask": true,
      "masksProperties": [
        {
          "inv": false,
          "mode": "a",
          "pt": {
            "a": 0,
            "k": {
              "i": [
                [12.116, 0],
                [0, -12.219],
                [-12.116, 0],
                [0, 12.219]
              ],
              "o": [
                [-12.116, 0],
                [0, 12.219],
                [12.116, 0],
                [0, -12.219]
              ],
              "v": [
                [30.938, 7],
                [9, 29.125],
                [30.938, 51.25],
                [52.875, 29.125]
              ],
              "c": true
            },
            "ix": 1
          },
          "o": { "a": 0, "k": 100, "ix": 3 },
          "x": { "a": 0, "k": 0, "ix": 4 },
          "nm": "Mask 1"
        }
      ],
      "shapes": [
        {
          "ty": "gr",
          "it": [
            {
              "ind": 0,
              "ty": "sh",
              "ix": 1,
              "ks": {
                "a": 0,
                "k": {
                  "i": [
                    [0.482, 0.268],
                    [6.187, -0.672],
                    [0.017, 0.001],
                    [0.124, -0.046],
                    [1.689, -0.885],
                    [2.263, 2.842],
                    [-19.563, -11.068],
                    [-0.167, 0],
                    [-0.184, 0.325],
                    [0.48, 0.272],
                    [4.11, -2.526],
                    [0.899, 2.011],
                    [-20.447, -12.328],
                    [-0.176, 0],
                    [-0.187, 0.312],
                    [0.473, 0.285],
                    [6.406, -3.387],
                    [0.475, 2.668],
                    [-21.909, -15.819],
                    [-0.203, 0],
                    [-0.195, 0.271],
                    [0.448, 0.324],
                    [7.203, -3.717],
                    [0.059, 1.648],
                    [0.564, -0.012],
                    [-0.02, -0.552],
                    [-3.07, -1.961],
                    [0.89, -2.372],
                    [0.959, 21.841],
                    [0.544, -0.022],
                    [-0.024, -0.552],
                    [-3.373, -1.853],
                    [1.156, -1.676],
                    [0.465, 0.315],
                    [0.073, 25.796],
                    [0.551, 0],
                    [0, 0],
                    [-0.002, -0.552],
                    [-4.951, -3.363],
                    [-0.333, -0.245],
                    [1.825, -1.661],
                    [0, 0],
                    [-0.958, 18.943],
                    [0.552, 0.028],
                    [0.027, -0.553],
                    [-12.299, -7.607],
                    [2.811, -1.744],
                    [-0.292, -0.469],
                    [-0.334, 0],
                    [-0.164, 0.102],
                    [-1.601, 12.47],
                    [-3.232, 0.507],
                    [21.202, -14.483],
                    [-0.311, -0.456],
                    [-0.319, 0],
                    [-0.172, 0.118],
                    [-0.034, 5.19],
                    [-0.001, 0.081],
                    [-2.225, -0.231],
                    [0.006, -0.296],
                    [21.93, -12.736],
                    [-0.277, -0.478],
                    [-0.345, 0],
                    [-0.159, 0.092],
                    [-0.137, 6.949],
                    [-0.004, 0.205],
                    [-2.512, -0.875],
                    [24.252, -10.348],
                    [-0.217, -0.509],
                    [-0.389, 0],
                    [-0.128, 0.055],
                    [-0.083, 16.063],
                    [-2.262, -1.255],
                    [-0.164, 0],
                    [-0.183, 0.329]
                  ],
                  "o": [
                    [-10.595, -5.879],
                    [-0.017, -0.002],
                    [-0.136, -0.008],
                    [-4.255, 0.524],
                    [-1.222, -0.808],
                    [3.983, -2.407],
                    [0.156, 0.088],
                    [0.348, 0],
                    [0.272, -0.48],
                    [-20.706, -11.712],
                    [-1.027, -1.483],
                    [5.962, -3.204],
                    [0.162, 0.098],
                    [0.339, 0],
                    [0.285, -0.473],
                    [-21.12, -12.732],
                    [-0.802, -2.108],
                    [6.441, -3.516],
                    [0.176, 0.127],
                    [0.31, 0],
                    [0.323, -0.447],
                    [-22.135, -15.983],
                    [-0.193, -1.48],
                    [-0.02, -0.551],
                    [-0.553, 0.02],
                    [0.702, 19.584],
                    [-0.372, 2.649],
                    [-3.367, -1.898],
                    [-0.024, -0.552],
                    [-0.552, 0.024],
                    [1.02, 23.239],
                    [-0.812, 1.813],
                    [-0.353, -0.259],
                    [-5.087, -3.456],
                    [-0.002, -0.552],
                    [0, 0],
                    [-0.553, 0.001],
                    [0.076, 26.852],
                    [0.443, 0.301],
                    [-1.387, 1.785],
                    [0, 0],
                    [-11.945, -7.136],
                    [0.028, -0.551],
                    [-0.545, -0.027],
                    [-0.986, 19.488],
                    [-2.211, 1.851],
                    [-0.469, 0.291],
                    [0.189, 0.306],
                    [0.18, 0],
                    [13.385, -8.305],
                    [1.463, -0.734],
                    [-0.032, 4.917],
                    [-0.456, 0.311],
                    [0.194, 0.284],
                    [0.194, 0],
                    [22.095, -15.092],
                    [0, -0.085],
                    [1.809, -0.155],
                    [-0.006, 0.273],
                    [-0.14, 7.089],
                    [-0.478, 0.278],
                    [0.186, 0.32],
                    [0.171, 0],
                    [22.903, -13.302],
                    [0.004, -0.217],
                    [2.176, 0.351],
                    [0.073, 5.855],
                    [-0.508, 0.217],
                    [0.162, 0.379],
                    [0.13, 0],
                    [16.667, -7.112],
                    [2.063, 0.821],
                    [0.155, 0.085],
                    [0.351, 0],
                    [0.268, -0.483]
                  ],
                  "v": [
                    [32.746, -0.666],
                    [7.346, -6.809],
                    [7.298, -6.821],
                    [6.904, -6.761],
                    [-2.087, -4.077],
                    [-7.767, -9.407],
                    [28.851, -6.629],
                    [29.343, -6.5],
                    [30.214, -7.008],
                    [29.836, -8.371],
                    [-8.963, -11.019],
                    [-11.893, -16.253],
                    [29.494, -12.394],
                    [30.01, -12.25],
                    [30.867, -12.734],
                    [30.527, -14.106],
                    [-12.661, -18.109],
                    [-14.618, -25.258],
                    [30.259, -18.772],
                    [30.843, -18.583],
                    [31.654, -18.998],
                    [31.429, -20.394],
                    [-14.934, -27.353],
                    [-15.323, -32.036],
                    [-16.358, -32.999],
                    [-17.322, -31.964],
                    [-2.924, -2.236],
                    [-4.802, 5.289],
                    [-20.907, -26.627],
                    [-21.95, -27.582],
                    [-22.905, -26.539],
                    [-5.57, 7.148],
                    [-8.526, 12.374],
                    [-9.743, 11.523],
                    [-25.489, -24.919],
                    [-26.489, -25.916],
                    [-26.492, -25.916],
                    [-27.489, -24.914],
                    [-10.867, 13.177],
                    [-9.711, 13.985],
                    [-14.523, 19.147],
                    [-14.6, 19.101],
                    [-31.157, -20.2],
                    [-32.106, -21.249],
                    [-33.154, -20.3],
                    [-16.092, 20.515],
                    [-23.6, 25.9],
                    [-23.922, 27.277],
                    [-23.072, 27.75],
                    [-22.546, 27.6],
                    [-0.869, -2.455],
                    [6.212, -4.65],
                    [-15.137, 27.758],
                    [-15.399, 29.147],
                    [-14.572, 29.584],
                    [-14.009, 29.409],
                    [8.212, -4.658],
                    [8.214, -4.894],
                    [14.273, -4.82],
                    [14.255, -3.967],
                    [-8.075, 29.052],
                    [-8.438, 30.419],
                    [-7.572, 30.917],
                    [-7.07, 30.782],
                    [16.255, -3.928],
                    [16.268, -4.555],
                    [23.304, -2.749],
                    [-0.715, 31.08],
                    [-1.243, 32.393],
                    [-0.322, 33.001],
                    [0.07, 32.92],
                    [25.287, -2.012],
                    [31.775, 1.083],
                    [32.26, 1.209],
                    [33.135, 0.694]
                  ],
                  "c": true
                },
                "ix": 2
              },
              "nm": "Path 1",
              "mn": "ADBE Vector Shape - Group",
              "hd": false
            },
            { "ty": "mm", "mm": 4, "nm": "Merge Paths 1", "mn": "ADBE Vector Filter - Merge", "hd": false },
            {
              "ty": "fl",
              "c": { "a": 0, "k": [0, 0, 0, 1], "ix": 4 },
              "o": { "a": 0, "k": 100, "ix": 5 },
              "r": 1,
              "bm": 0,
              "nm": "Fill 1",
              "mn": "ADBE Vector Graphic - Fill",
              "hd": false
            },
            {
              "ty": "tr",
              "p": {
                "a": 1,
                "k": [
                  { "i": { "x": 0.833, "y": 0.833 }, "o": { "x": 0.333, "y": 0 }, "t": 3, "s": [33.261, 33], "to": [0, 0], "ti": [0, 0] },
                  { "i": { "x": 0.667, "y": 1 }, "o": { "x": 0.167, "y": 0.167 }, "t": 14, "s": [33.261, 16], "to": [0, 0], "ti": [0, 0] },
                  { "t": 25, "s": [33.261, 33] }
                ],
                "ix": 2
              },
              "a": { "a": 0, "k": [0, 0], "ix": 1 },
              "s": { "a": 0, "k": [100, 100], "ix": 3 },
              "r": {
                "a": 1,
                "k": [
                  { "i": { "x": [0.833], "y": [0.833] }, "o": { "x": [0.333], "y": [0] }, "t": 3, "s": [0] },
                  { "i": { "x": [0.667], "y": [1] }, "o": { "x": [0.167], "y": [0.167] }, "t": 14, "s": [180] },
                  { "t": 25, "s": [360] }
                ],
                "ix": 6
              },
              "o": { "a": 0, "k": 100, "ix": 7 },
              "sk": { "a": 0, "k": 0, "ix": 4 },
              "sa": { "a": 0, "k": 0, "ix": 5 },
              "nm": "Transform"
            }
          ],
          "nm": "Group 1",
          "np": 3,
          "cix": 2,
          "bm": 0,
          "ix": 1,
          "mn": "ADBE Vector Group",
          "hd": false
        }
      ],
      "ip": 0,
      "op": 28,
      "st": 0,
      "bm": 0
    },
    {
      "ddd": 0,
      "ind": 2,
      "ty": 4,
      "nm": "circle",
      "sr": 1,
      "ks": {
        "o": { "a": 0, "k": 100, "ix": 11 },
        "r": { "a": 0, "k": 0, "ix": 10 },
        "p": {
          "a": 1,
          "k": [
            { "i": { "x": 0.667, "y": 1 }, "o": { "x": 0.333, "y": 0 }, "t": 3, "s": [25, 46.75, 0], "to": [0, -0.901, 0], "ti": [0, 2.086, 0] },
            { "i": { "x": 0.667, "y": 1 }, "o": { "x": 0.333, "y": 0 }, "t": 8, "s": [25, 46.536, 0], "to": [0, -1.001, 0], "ti": [0, 0.432, 0] },
            { "i": { "x": 0.667, "y": 1 }, "o": { "x": 0.333, "y": 0 }, "t": 11, "s": [25, 38.25, 0], "to": [0, -1.333, 0], "ti": [0, 2.086, 0] },
            { "i": { "x": 0.667, "y": 1 }, "o": { "x": 0.333, "y": 0 }, "t": 14, "s": [25, 46.536, 0], "to": [0, -1.001, 0], "ti": [0, 2.086, 0] },
            { "i": { "x": 0.667, "y": 1 }, "o": { "x": 0.333, "y": 0 }, "t": 20, "s": [25, 46.536, 0], "to": [0, -1.001, 0], "ti": [0, 1.333, 0] },
            { "t": 25, "s": [25, 46.75, 0] }
          ],
          "ix": 2
        },
        "a": { "a": 0, "k": [27, 48.75, 0], "ix": 1 },
        "s": {
          "a": 1,
          "k": [
            { "i": { "x": [0.667, 0.667, 0.667], "y": [1, 1, 1] }, "o": { "x": [0.333, 0.333, 0.333], "y": [0, 0, 0] }, "t": 3, "s": [100, 100, 100] },
            { "i": { "x": [0.667, 0.667, 0.667], "y": [1, 1, 1] }, "o": { "x": [0.333, 0.333, 0.333], "y": [0, 0, 0] }, "t": 6, "s": [107, 84, 100] },
            { "i": { "x": [0.667, 0.667, 0.667], "y": [1, 1, 1] }, "o": { "x": [0.333, 0.333, 0.333], "y": [0, 0, 0] }, "t": 8, "s": [89, 103, 100] },
            { "i": { "x": [0.667, 0.667, 0.667], "y": [1, 1, 1] }, "o": { "x": [0.333, 0.333, 0.333], "y": [0, 0, 0] }, "t": 11, "s": [107, 84, 100] },
            { "i": { "x": [0.667, 0.667, 0.667], "y": [1, 1, 1] }, "o": { "x": [0.333, 0.333, 0.333], "y": [0, 0, 0] }, "t": 14, "s": [89, 103, 100] },
            { "i": { "x": [0.667, 0.667, 0.667], "y": [1, 1, 1] }, "o": { "x": [0.333, 0.333, 0.333], "y": [0, 0, 0] }, "t": 17, "s": [107, 84, 100] },
            { "i": { "x": [0.667, 0.667, 0.667], "y": [1, 1, 1] }, "o": { "x": [0.333, 0.333, 0.333], "y": [0, 0, 0] }, "t": 20, "s": [89, 103, 100] },
            { "t": 25, "s": [100, 100, 100] }
          ],
          "ix": 6
        }
      },
      "ao": 0,
      "shapes": [
        {
          "ty": "gr",
          "it": [
            {
              "ind": 0,
              "ty": "sh",
              "ix": 1,
              "ks": {
                "a": 0,
                "k": {
                  "i": [
                    [12.15, 0],
                    [0, -12.15],
                    [-12.15, 0],
                    [0, 12.15]
                  ],
                  "o": [
                    [-12.15, 0],
                    [0, 12.15],
                    [12.15, 0],
                    [0, -12.15]
                  ],
                  "v": [
                    [0, -22],
                    [-22, 0],
                    [0, 22],
                    [22, 0]
                  ],
                  "c": true
                },
                "ix": 2
              },
              "nm": "Path 1",
              "mn": "ADBE Vector Shape - Group",
              "hd": false
            },
            {
              "ty": "st",
              "c": { "a": 0, "k": [0, 0, 0, 1], "ix": 3 },
              "o": { "a": 0, "k": 100, "ix": 4 },
              "w": { "a": 0, "k": 2, "ix": 5 },
              "lc": 2,
              "lj": 2,
              "bm": 0,
              "nm": "Stroke 1",
              "mn": "ADBE Vector Graphic - Stroke",
              "hd": false
            },
            {
              "ty": "tr",
              "p": { "a": 0, "k": [27, 27], "ix": 2 },
              "a": { "a": 0, "k": [0, 0], "ix": 1 },
              "s": { "a": 0, "k": [100, 100], "ix": 3 },
              "r": { "a": 0, "k": 0, "ix": 6 },
              "o": { "a": 0, "k": 100, "ix": 7 },
              "sk": { "a": 0, "k": 0, "ix": 4 },
              "sa": { "a": 0, "k": 0, "ix": 5 },
              "nm": "Transform"
            }
          ],
          "nm": "Group 1",
          "np": 2,
          "cix": 2,
          "bm": 0,
          "ix": 1,
          "mn": "ADBE Vector Group",
          "hd": false
        }
      ],
      "ip": 0,
      "op": 28,
      "st": 0,
      "bm": 0
    }
  ],
  "markers": []
}
