{
  "v": "5.4.4",
  "fr": 24,
  "ip": 0,
  "op": 28,
  "w": 50,
  "h": 50,
  "nm": "price-tag",
  "ddd": 0,
  "assets": [],
  "layers": [
    {
      "ddd": 0,
      "ind": 1,
      "ty": 4,
      "nm": "Price tag",
      "sr": 1,
      "ks": {
        "o": { "a": 0, "k": 100, "ix": 11 },
        "r": {
          "a": 1,
          "k": [
            { "i": { "x": [0.667], "y": [1] }, "o": { "x": [0.333], "y": [0] }, "t": 3, "s": [0], "e": [-6] },
            { "i": { "x": [0.497], "y": [1] }, "o": { "x": [0.49], "y": [0] }, "t": 7, "s": [-6], "e": [6] },
            { "i": { "x": [0.58], "y": [1] }, "o": { "x": [0.646], "y": [0] }, "t": 14, "s": [6], "e": [-2] },
            { "i": { "x": [0.667], "y": [1] }, "o": { "x": [0.333], "y": [0] }, "t": 20, "s": [-2], "e": [0] },
            { "t": 24 }
          ],
          "ix": 10
        },
        "p": { "a": 0, "k": [39, 11, 0], "ix": 2 },
        "a": { "a": 0, "k": [39, 11, 0], "ix": 1 },
        "s": { "a": 0, "k": [100, 100, 100], "ix": 6 }
      },
      "ao": 0,
      "shapes": [
        {
          "ty": "gr",
          "it": [
            {
              "ind": 0,
              "ty": "sh",
              "ix": 1,
              "ks": {
                "a": 0,
                "k": {
                  "i": [
                    [0, 0.156],
                    [1.381, 0],
                    [0, 0],
                    [0.738, -0.738],
                    [0, 0],
                    [-0.739, -0.738],
                    [0, 0],
                    [-0.738, 0.738],
                    [0, 0],
                    [0, 1.36]
                  ],
                  "o": [
                    [0, -1.381],
                    [-0.156, 0],
                    [-1.33, 0],
                    [0, 0],
                    [-0.739, 0.738],
                    [0, 0],
                    [0.738, 0.738],
                    [0, 0],
                    [0.738, -0.737],
                    [0, 0]
                  ],
                  "v": [
                    [22.059, -19.558],
                    [19.559, -22.058],
                    [4.682, -22.056],
                    [1.342, -21.388],
                    [-21.387, 1.34],
                    [-21.387, 4.014],
                    [-4.014, 21.388],
                    [-1.339, 21.388],
                    [21.389, -1.341],
                    [22.057, -4.681]
                  ],
                  "c": true
                },
                "ix": 2
              },
              "nm": "Path 1",
              "mn": "ADBE Vector Shape - Group",
              "hd": false
            },
            {
              "ty": "st",
              "c": { "a": 0, "k": [0, 0, 0, 1], "ix": 3 },
              "o": { "a": 0, "k": 100, "ix": 4 },
              "w": { "a": 0, "k": 2, "ix": 5 },
              "lc": 2,
              "lj": 1,
              "ml": 10,
              "bm": 0,
              "nm": "Stroke 1",
              "mn": "ADBE Vector Graphic - Stroke",
              "hd": false
            },
            {
              "ty": "tr",
              "p": { "a": 0, "k": [24.941, 25.058], "ix": 2 },
              "a": { "a": 0, "k": [0, 0], "ix": 1 },
              "s": { "a": 0, "k": [100, 100], "ix": 3 },
              "r": { "a": 0, "k": 0, "ix": 6 },
              "o": { "a": 0, "k": 100, "ix": 7 },
              "sk": { "a": 0, "k": 0, "ix": 4 },
              "sa": { "a": 0, "k": 0, "ix": 5 },
              "nm": "Transform"
            }
          ],
          "nm": "Group 1",
          "np": 2,
          "cix": 2,
          "bm": 0,
          "ix": 1,
          "mn": "ADBE Vector Group",
          "hd": false
        },
        {
          "ty": "gr",
          "it": [
            {
              "ind": 0,
              "ty": "sh",
              "ix": 1,
              "ks": {
                "a": 0,
                "k": {
                  "i": [
                    [1.657, 0],
                    [0, -1.657],
                    [-1.657, 0],
                    [0, 1.657]
                  ],
                  "o": [
                    [-1.657, 0],
                    [0, 1.657],
                    [1.657, 0],
                    [0, -1.657]
                  ],
                  "v": [
                    [0, -3],
                    [-3, 0],
                    [0, 3],
                    [3, 0]
                  ],
                  "c": true
                },
                "ix": 2
              },
              "nm": "Path 1",
              "mn": "ADBE Vector Shape - Group",
              "hd": false
            },
            {
              "ty": "st",
              "c": { "a": 0, "k": [0, 0, 0, 1], "ix": 3 },
              "o": { "a": 0, "k": 100, "ix": 4 },
              "w": { "a": 0, "k": 2, "ix": 5 },
              "lc": 2,
              "lj": 1,
              "ml": 10,
              "bm": 0,
              "nm": "Stroke 1",
              "mn": "ADBE Vector Graphic - Stroke",
              "hd": false
            },
            {
              "ty": "tr",
              "p": { "a": 0, "k": [39, 11], "ix": 2 },
              "a": { "a": 0, "k": [0, 0], "ix": 1 },
              "s": { "a": 0, "k": [100, 100], "ix": 3 },
              "r": { "a": 0, "k": 0, "ix": 6 },
              "o": { "a": 0, "k": 100, "ix": 7 },
              "sk": { "a": 0, "k": 0, "ix": 4 },
              "sa": { "a": 0, "k": 0, "ix": 5 },
              "nm": "Transform"
            }
          ],
          "nm": "Group 2",
          "np": 2,
          "cix": 2,
          "bm": 0,
          "ix": 2,
          "mn": "ADBE Vector Group",
          "hd": false
        }
      ],
      "ip": 0,
      "op": 28,
      "st": 0,
      "bm": 0
    }
  ],
  "markers": []
}
