<svg width="30" height="30" viewBox="0 0 30 30" fill="none" xmlns="http://www.w3.org/2000/svg">
<path fill-rule="evenodd" clip-rule="evenodd" d="M15 5.75V0H8.43V8.43H0V21.57H8.43V30H15V24.25C9.89136 24.25 5.75 20.1086 5.75 15C5.75 9.89139 9.89136 5.75001 15 5.75Z" fill="#004A90"/>
<path fill-rule="evenodd" clip-rule="evenodd" d="M30 21.57V8.43H21.57V0H15V5.75C20.1086 5.75 24.25 9.89137 24.25 15C24.25 20.1086 20.1086 24.25 15 24.25V30H21.57V21.57H30Z" fill="#4FA2F0"/>
<path d="M17.75 11.161C16.98 11.161 16.32 11.4489 15.8066 11.9528L15 12.7446L14.1934 11.9168C13.68 11.4489 13.02 11.125 12.25 11.125C10.7467 11.125 9.5 12.3487 9.5 13.8244C9.5 14.5803 9.79334 15.2281 10.3067 15.732L15 20.375L19.6934 15.768C20.17 15.2641 20.5 14.6163 20.5 13.8604C20.5 12.3487 19.2534 11.161 17.75 11.161Z" fill="#D43333"/>
</svg>
